[["OtauTmpM005016-RA","OTAU005016-RA"],"onttau_current_models","OtauTmpM005016-RA","Scaffold19",7850,11359]
[["OtauTmpM005017-RA","OTAU005017-RA"],"onttau_current_models","OtauTmpM005017-RA","Scaffold19",13157,16587]
[["OtauTmpM005018-RA","OTAU005018-RA"],"onttau_current_models","OtauTmpM005018-RA","Scaffold19",15564,17154]
[["OtauTmpB005019-RA","OTAU005019-RA"],"onttau_current_models","OtauTmpB005019-RA","Scaffold19",18881,19841]
[["OtauTmpM005020-RA","OTAU005020-RA"],"onttau_current_models","OtauTmpM005020-RA","Scaffold19",21354,23496]
[["OtauTmpA005021-RA","OTAU005021-RA"],"onttau_current_models","OtauTmpA005021-RA","Scaffold19",46340,46868]
[["OtauTmpM005022-RA","OTAU005022-RA"],"onttau_current_models","OtauTmpM005022-RA","Scaffold19",47233,47699]
[["OtauTmpM005023-RA","OTAU005023-RA"],"onttau_current_models","OtauTmpM005023-RA","Scaffold19",53627,58863]
[["OtauTmpM005024-RA","OTAU005024-RA"],"onttau_current_models","OtauTmpM005024-RA","Scaffold19",60794,62161]
[["OtauTmpM005025-RA","OTAU005025-RA"],"onttau_current_models","OtauTmpM005025-RA","Scaffold19",62571,80756]
[["OtauTmpA005026-RA","OTAU005026-RA"],"onttau_current_models","OtauTmpA005026-RA","Scaffold19",72125,72813]
[["OtauTmpM005027-RA","OTAU005027-RA"],"onttau_current_models","OtauTmpM005027-RA","Scaffold19",81017,83068]
[["OtauTmpM005028-RA","OTAU005028-RA"],"onttau_current_models","OtauTmpM005028-RA","Scaffold19",83604,84240]
[["OtauTmpM005029-RA","OTAU005029-RA"],"onttau_current_models","OtauTmpM005029-RA","Scaffold19",84430,94834]
[["OtauTmpM005030-RA","OTAU005030-RA"],"onttau_current_models","OtauTmpM005030-RA","Scaffold19",95007,97752]
[["OtauTmpM005031-RA","OTAU005031-RA"],"onttau_current_models","OtauTmpM005031-RA","Scaffold19",98736,101860]
[["OtauTmpS005032-RA","OTAU005032-RA"],"onttau_current_models","OtauTmpS005032-RA","Scaffold19",102612,103966]
[["OtauTmpM005033-RA","OTAU005033-RA"],"onttau_current_models","OtauTmpM005033-RA","Scaffold19",105374,108605]
[["OtauTmpM005034-RA","OTAU005034-RA"],"onttau_current_models","OtauTmpM005034-RA","Scaffold19",112836,120479]
[["OtauTmpM005035-RA","OTAU005035-RA"],"onttau_current_models","OtauTmpM005035-RA","Scaffold19",121446,122262]
[["OtauTmpS005036-RA","OTAU005036-RA"],"onttau_current_models","OtauTmpS005036-RA","Scaffold19",122280,123150]
[["OtauTmpM005037-RA","OTAU005037-RA"],"onttau_current_models","OtauTmpM005037-RA","Scaffold19",126189,126558]
[["OtauTmpM005038-RA","OTAU005038-RA"],"onttau_current_models","OtauTmpM005038-RA","Scaffold19",127923,128374]
[["OtauTmpM005039-RA","OTAU005039-RA"],"onttau_current_models","OtauTmpM005039-RA","Scaffold19",131488,138364]
[["OtauTmpM005040-RA","OTAU005040-RA"],"onttau_current_models","OtauTmpM005040-RA","Scaffold19",156208,158507]
[["OtauTmpB005041-RA","OTAU005041-RA"],"onttau_current_models","OtauTmpB005041-RA","Scaffold19",162393,164971]
[["OtauTmpM005042-RA","OTAU005042-RA"],"onttau_current_models","OtauTmpM005042-RA","Scaffold19",172147,182561]
[["OtauTmpA005043-RA","OTAU005043-RA"],"onttau_current_models","OtauTmpA005043-RA","Scaffold19",191779,197243]
[["OtauTmpM005044-RA","OTAU005044-RA"],"onttau_current_models","OtauTmpM005044-RA","Scaffold19",214788,217317]
[["OtauTmpM005045-RA","OTAU005045-RA"],"onttau_current_models","OtauTmpM005045-RA","Scaffold19",216289,217324]
[["OtauTmpA005046-RA","OTAU005046-RA"],"onttau_current_models","OtauTmpA005046-RA","Scaffold19",218361,219050]
[["OtauTmpM005047-RA","OTAU005047-RA"],"onttau_current_models","OtauTmpM005047-RA","Scaffold19",221383,222762]
[["OtauTmpA005048-RA","OTAU005048-RA"],"onttau_current_models","OtauTmpA005048-RA","Scaffold19",223811,224474]
[["OtauTmpA005049-RA","OTAU005049-RA"],"onttau_current_models","OtauTmpA005049-RA","Scaffold19",225175,227281]
[["OtauTmpA005050-RA","OTAU005050-RA"],"onttau_current_models","OtauTmpA005050-RA","Scaffold19",231019,235983]
[["OtauTmpA005051-RA","OTAU005051-RA"],"onttau_current_models","OtauTmpA005051-RA","Scaffold19",237711,239276]
[["OtauTmpB005052-RA","OTAU005052-RA"],"onttau_current_models","OtauTmpB005052-RA","Scaffold19",240067,245763]
[["OtauTmpM005053-RA","OTAU005053-RA"],"onttau_current_models","OtauTmpM005053-RA","Scaffold19",256443,257146]
[["OtauTmpM005054-RA","OTAU005054-RA"],"onttau_current_models","OtauTmpM005054-RA","Scaffold19",257243,259284]
[["OtauTmpM005055-RA","OTAU005055-RA"],"onttau_current_models","OtauTmpM005055-RA","Scaffold19",257333,257747]
[["OtauTmpB005056-RA","OTAU005056-RA"],"onttau_current_models","OtauTmpB005056-RA","Scaffold19",273062,282210]
[["OtauTmpM005057-RA","OTAU005057-RA"],"onttau_current_models","OtauTmpM005057-RA","Scaffold19",284040,296333]
[["OtauTmpM005058-RA","OTAU005058-RA"],"onttau_current_models","OtauTmpM005058-RA","Scaffold19",296874,298296]
[["OtauTmpM005059-RA","OTAU005059-RA"],"onttau_current_models","OtauTmpM005059-RA","Scaffold19",298842,300819]
[["OtauTmpA005060-RA","OTAU005060-RA"],"onttau_current_models","OtauTmpA005060-RA","Scaffold19",301569,310519]
[["OtauTmpM005061-RA","OTAU005061-RA"],"onttau_current_models","OtauTmpM005061-RA","Scaffold19",312412,314301]
[["OtauTmpA005062-RA","OTAU005062-RA"],"onttau_current_models","OtauTmpA005062-RA","Scaffold19",314401,338698]
[["OtauTmpM005063-RA","OTAU005063-RA"],"onttau_current_models","OtauTmpM005063-RA","Scaffold19",325461,334016]
[["OtauTmpM005064-RA","OTAU005064-RA"],"onttau_current_models","OtauTmpM005064-RA","Scaffold19",339190,340208]
[["OtauTmpM005065-RA","OTAU005065-RA"],"onttau_current_models","OtauTmpM005065-RA","Scaffold19",340409,366537]
[["OtauTmpS005066-RA","OTAU005066-RA"],"onttau_current_models","OtauTmpS005066-RA","Scaffold19",366951,369067]
[["OtauTmpM005067-RA","OTAU005067-RA"],"onttau_current_models","OtauTmpM005067-RA","Scaffold19",369445,370799]
[["OtauTmpM005068-RA","OTAU005068-RA"],"onttau_current_models","OtauTmpM005068-RA","Scaffold19",374534,382306]
[["OtauTmpM005069-RA","OTAU005069-RA"],"onttau_current_models","OtauTmpM005069-RA","Scaffold19",378655,380140]
[["OtauTmpM005070-RA","OTAU005070-RA"],"onttau_current_models","OtauTmpM005070-RA","Scaffold19",383184,384506]
[["OtauTmpM005071-RA","OTAU005071-RA"],"onttau_current_models","OtauTmpM005071-RA","Scaffold19",386085,389354]
[["OtauTmpS005072-RA","OTAU005072-RA"],"onttau_current_models","OtauTmpS005072-RA","Scaffold19",390291,393902]
[["OtauTmpA005073-RA","OTAU005073-RA"],"onttau_current_models","OtauTmpA005073-RA","Scaffold19",393882,398548]
[["OtauTmpM005074-RA","OTAU005074-RA"],"onttau_current_models","OtauTmpM005074-RA","Scaffold19",430765,450170]
[["OtauTmpM005075-RA","OTAU005075-RA"],"onttau_current_models","OtauTmpM005075-RA","Scaffold19",451531,459806]
[["OtauTmpA005076-RA","OTAU005076-RA"],"onttau_current_models","OtauTmpA005076-RA","Scaffold19",459926,464441]
[["OtauTmpA005077-RA","OTAU005077-RA"],"onttau_current_models","OtauTmpA005077-RA","Scaffold19",465697,466672]
[["OtauTmpM005078-RA","OTAU005078-RA"],"onttau_current_models","OtauTmpM005078-RA","Scaffold19",467613,469316]
[["OtauTmpM005079-RA","OTAU005079-RA"],"onttau_current_models","OtauTmpM005079-RA","Scaffold19",470460,481588]
[["OtauTmpM005080-RA","OTAU005080-RA"],"onttau_current_models","OtauTmpM005080-RA","Scaffold19",493701,500707]
[["OtauTmpM005081-RA","OTAU005081-RA"],"onttau_current_models","OtauTmpM005081-RA","Scaffold19",500938,513167]
[["OtauTmpA005082-RA","OTAU005082-RA"],"onttau_current_models","OtauTmpA005082-RA","Scaffold19",513579,514953]
[["OtauTmpA005083-RA","OTAU005083-RA"],"onttau_current_models","OtauTmpA005083-RA","Scaffold19",515630,516863]
[["OtauTmpA005084-RA","OTAU005084-RA"],"onttau_current_models","OtauTmpA005084-RA","Scaffold19",516504,516855]
[["OtauTmpA005085-RA","OTAU005085-RA"],"onttau_current_models","OtauTmpA005085-RA","Scaffold19",517043,517916]
[["OtauTmpM005086-RA","OTAU005086-RA"],"onttau_current_models","OtauTmpM005086-RA","Scaffold19",524415,532258]
[["OtauTmpS005087-RA","OTAU005087-RA"],"onttau_current_models","OtauTmpS005087-RA","Scaffold19",533276,538833]
[["OtauTmpA005088-RA","OTAU005088-RA"],"onttau_current_models","OtauTmpA005088-RA","Scaffold19",539822,541047]
[["OtauTmpM005089-RA","OTAU005089-RA"],"onttau_current_models","OtauTmpM005089-RA","Scaffold19",547644,555798]
[["OtauTmpM005090-RA","OTAU005090-RA"],"onttau_current_models","OtauTmpM005090-RA","Scaffold19",556599,557673]
[["OtauTmpM005091-RA","OTAU005091-RA"],"onttau_current_models","OtauTmpM005091-RA","Scaffold19",558142,562455]
[["OtauTmpM005092-RA","OTAU005092-RA"],"onttau_current_models","OtauTmpM005092-RA","Scaffold19",563594,565838]
[["OtauTmpB005093-RA","OTAU005093-RA"],"onttau_current_models","OtauTmpB005093-RA","Scaffold19",566301,567281]
[["OtauTmpM005094-RA","OTAU005094-RA"],"onttau_current_models","OtauTmpM005094-RA","Scaffold19",569753,575725]
[["OtauTmpA005095-RA","OTAU005095-RA"],"onttau_current_models","OtauTmpA005095-RA","Scaffold19",583305,585041]
[["OtauTmpM005096-RA","OTAU005096-RA"],"onttau_current_models","OtauTmpM005096-RA","Scaffold19",588250,589814]
[["OtauTmpM005097-RA","OTAU005097-RA"],"onttau_current_models","OtauTmpM005097-RA","Scaffold19",591748,604078]
[["OtauTmpM005098-RA","OTAU005098-RA"],"onttau_current_models","OtauTmpM005098-RA","Scaffold19",597830,604078]
[["OtauTmpA005099-RA","OTAU005099-RA"],"onttau_current_models","OtauTmpA005099-RA","Scaffold19",604269,606658]
[["OtauTmpS005100-RA","OTAU005100-RA"],"onttau_current_models","OtauTmpS005100-RA","Scaffold19",608981,610787]
[["OtauTmpA005101-RA","OTAU005101-RA"],"onttau_current_models","OtauTmpA005101-RA","Scaffold19",611310,613084]
[["OtauTmpM005102-RA","OTAU005102-RA"],"onttau_current_models","OtauTmpM005102-RA","Scaffold19",614287,616106]
[["OtauTmpM005103-RA","OTAU005103-RA"],"onttau_current_models","OtauTmpM005103-RA","Scaffold19",644248,655117]
[["OtauTmpM005104-RA","OTAU005104-RA"],"onttau_current_models","OtauTmpM005104-RA","Scaffold19",658309,660115]
[["OtauTmpA005105-RA","OTAU005105-RA"],"onttau_current_models","OtauTmpA005105-RA","Scaffold19",660624,670255]
