[["TriadG7666:Trichoplax_adhaerens","Scaffold19:hit:8962:3.10.0.0"],"blastx_Placozoa","TriadG7666:Trichoplax_adhaerens","Scaffold19",14730,15210]
[["TriadG20105:Trichoplax_adhaerens","Scaffold19:hit:9050:3.10.0.0"],"blastx_Placozoa","TriadG20105:Trichoplax_adhaerens","Scaffold19",61262,61981]
[["TriadG56572:Trichoplax_adhaerens","Scaffold19:hit:9210:3.10.0.0"],"blastx_Placozoa","TriadG56572:Trichoplax_adhaerens","Scaffold19",61289,61966]
[["TriadG59761:Trichoplax_adhaerens","Scaffold19:hit:9280:3.10.0.0"],"blastx_Placozoa","TriadG59761:Trichoplax_adhaerens","Scaffold19",61379,61966]
[["TriadG61818:Trichoplax_adhaerens","Scaffold19:hit:9020:3.10.0.0"],"blastx_Placozoa","TriadG61818:Trichoplax_adhaerens","Scaffold19",61539,61990]
[["TriadG50496:Trichoplax_adhaerens","Scaffold19:hit:9100:3.10.0.0"],"blastx_Placozoa","TriadG50496:Trichoplax_adhaerens","Scaffold19",61560,61966]
[["TriadG23051:Trichoplax_adhaerens","Scaffold19:hit:9386:3.10.0.0"],"blastx_Placozoa","TriadG23051:Trichoplax_adhaerens","Scaffold19",61560,61963]
[["TriadG49948:Trichoplax_adhaerens","Scaffold19:hit:9018:3.10.0.0"],"blastx_Placozoa","TriadG49948:Trichoplax_adhaerens","Scaffold19",61560,61963]
[["TriadG30838:Trichoplax_adhaerens","Scaffold19:hit:9128:3.10.0.0"],"blastx_Placozoa","TriadG30838:Trichoplax_adhaerens","Scaffold19",61563,61987]
[["TriadG29154:Trichoplax_adhaerens","Scaffold19:hit:9220:3.10.0.0"],"blastx_Placozoa","TriadG29154:Trichoplax_adhaerens","Scaffold19",61563,61978]
[["TriadG49844:Trichoplax_adhaerens","Scaffold19:hit:9214:3.10.0.0"],"blastx_Placozoa","TriadG49844:Trichoplax_adhaerens","Scaffold19",61563,61966]
[["TriadG29233:Trichoplax_adhaerens","Scaffold19:hit:9277:3.10.0.0"],"blastx_Placozoa","TriadG29233:Trichoplax_adhaerens","Scaffold19",61563,61966]
[["TriadG63185:Trichoplax_adhaerens","Scaffold19:hit:9242:3.10.0.0"],"blastx_Placozoa","TriadG63185:Trichoplax_adhaerens","Scaffold19",61563,61966]
[["TriadG5345:Trichoplax_adhaerens","Scaffold19:hit:9295:3.10.0.0"],"blastx_Placozoa","TriadG5345:Trichoplax_adhaerens","Scaffold19",61563,61960]
[["TriadG50216:Trichoplax_adhaerens","Scaffold19:hit:9356:3.10.0.0"],"blastx_Placozoa","TriadG50216:Trichoplax_adhaerens","Scaffold19",61626,61963]
[["TriadG9010:Trichoplax_adhaerens","Scaffold19:hit:9396:3.10.0.0"],"blastx_Placozoa","TriadG9010:Trichoplax_adhaerens","Scaffold19",69480,69648]
[["TriadG21502:Trichoplax_adhaerens","Scaffold19:hit:9514:3.10.0.0"],"blastx_Placozoa","TriadG21502:Trichoplax_adhaerens","Scaffold19",81293,82770]
[["TriadG38183:Trichoplax_adhaerens","Scaffold19:hit:9936:3.10.0.1"],"blastx_Placozoa","TriadG38183:Trichoplax_adhaerens","Scaffold19",95477,96743]
[["TriadG37088:Trichoplax_adhaerens","Scaffold19:hit:9968:3.10.0.1"],"blastx_Placozoa","TriadG37088:Trichoplax_adhaerens","Scaffold19",95579,95735]
[["TriadG9293:Trichoplax_adhaerens","Scaffold19:hit:9973:3.10.0.1"],"blastx_Placozoa","TriadG9293:Trichoplax_adhaerens","Scaffold19",95618,95735]
[["TriadG35608:Trichoplax_adhaerens","Scaffold19:hit:10030:3.10.0.1"],"blastx_Placozoa","TriadG35608:Trichoplax_adhaerens","Scaffold19",99637,101111]
[["TriadG26286:Trichoplax_adhaerens","Scaffold19:hit:10625:3.10.0.1"],"blastx_Placozoa","TriadG26286:Trichoplax_adhaerens","Scaffold19",164404,164965]
[["TriadG25686:Trichoplax_adhaerens","Scaffold19:hit:10576:3.10.0.1"],"blastx_Placozoa","TriadG25686:Trichoplax_adhaerens","Scaffold19",164488,164953]
[["TriadG63128:Trichoplax_adhaerens","Scaffold19:hit:10561:3.10.0.1"],"blastx_Placozoa","TriadG63128:Trichoplax_adhaerens","Scaffold19",164491,164953]
[["TriadG49773:Trichoplax_adhaerens","Scaffold19:hit:10669:3.10.0.1"],"blastx_Placozoa","TriadG49773:Trichoplax_adhaerens","Scaffold19",172156,174052]
[["TriadG64020:Trichoplax_adhaerens","Scaffold19:hit:11602:3.10.0.2"],"blastx_Placozoa","TriadG64020:Trichoplax_adhaerens","Scaffold19",221522,222571]
[["TriadG64417:Trichoplax_adhaerens","Scaffold19:hit:11644:3.10.0.2"],"blastx_Placozoa","TriadG64417:Trichoplax_adhaerens","Scaffold19",223928,224474]
[["TriadG24967:Trichoplax_adhaerens","Scaffold19:hit:11706:3.10.0.2"],"blastx_Placozoa","TriadG24967:Trichoplax_adhaerens","Scaffold19",234750,235311]
[["TriadG38057:Trichoplax_adhaerens","Scaffold19:hit:11805:3.10.0.2"],"blastx_Placozoa","TriadG38057:Trichoplax_adhaerens","Scaffold19",258026,259281]
[["TriadG20516:Trichoplax_adhaerens","Scaffold19:hit:11791:3.10.0.2"],"blastx_Placozoa","TriadG20516:Trichoplax_adhaerens","Scaffold19",258026,259281]
[["TriadG30614:Trichoplax_adhaerens","Scaffold19:hit:11955:3.10.0.2"],"blastx_Placozoa","TriadG30614:Trichoplax_adhaerens","Scaffold19",276146,280766]
[["TriadG30550:Trichoplax_adhaerens","Scaffold19:hit:11989:3.10.0.2"],"blastx_Placozoa","TriadG30550:Trichoplax_adhaerens","Scaffold19",279686,280763]
[["TriadG28367:Trichoplax_adhaerens","Scaffold19:hit:12045:3.10.0.2"],"blastx_Placozoa","TriadG28367:Trichoplax_adhaerens","Scaffold19",279764,280808]
[["TriadG18179:Trichoplax_adhaerens","Scaffold19:hit:11899:3.10.0.2"],"blastx_Placozoa","TriadG18179:Trichoplax_adhaerens","Scaffold19",279764,280763]
[["TriadG28174:Trichoplax_adhaerens","Scaffold19:hit:11947:3.10.0.2"],"blastx_Placozoa","TriadG28174:Trichoplax_adhaerens","Scaffold19",279764,280763]
[["TriadG20248:Trichoplax_adhaerens","Scaffold19:hit:12001:3.10.0.2"],"blastx_Placozoa","TriadG20248:Trichoplax_adhaerens","Scaffold19",279764,280757]
[["TriadG28287:Trichoplax_adhaerens","Scaffold19:hit:11856:3.10.0.2"],"blastx_Placozoa","TriadG28287:Trichoplax_adhaerens","Scaffold19",279767,280763]
[["TriadG54631:Trichoplax_adhaerens","Scaffold19:hit:12022:3.10.0.2"],"blastx_Placozoa","TriadG54631:Trichoplax_adhaerens","Scaffold19",279767,280421]
[["TriadG3836:Trichoplax_adhaerens","Scaffold19:hit:11887:3.10.0.2"],"blastx_Placozoa","TriadG3836:Trichoplax_adhaerens","Scaffold19",280076,280748]
[["TriadG30839:Trichoplax_adhaerens","Scaffold19:hit:11841:3.10.0.2"],"blastx_Placozoa","TriadG30839:Trichoplax_adhaerens","Scaffold19",280106,280763]
[["TriadG62704:Trichoplax_adhaerens","Scaffold19:hit:11908:3.10.0.2"],"blastx_Placozoa","TriadG62704:Trichoplax_adhaerens","Scaffold19",280466,280766]
[["TriadG22586:Trichoplax_adhaerens","Scaffold19:hit:12108:3.10.0.2"],"blastx_Placozoa","TriadG22586:Trichoplax_adhaerens","Scaffold19",287662,291919]
[["TriadG30320:Trichoplax_adhaerens","Scaffold19:hit:12109:3.10.0.2"],"blastx_Placozoa","TriadG30320:Trichoplax_adhaerens","Scaffold19",287995,288626]
[["TriadG27246:Trichoplax_adhaerens","Scaffold19:hit:12097:3.10.0.2"],"blastx_Placozoa","TriadG27246:Trichoplax_adhaerens","Scaffold19",288022,291898]
[["TriadG28936:Trichoplax_adhaerens","Scaffold19:hit:13253:3.10.0.4"],"blastx_Placozoa","TriadG28936:Trichoplax_adhaerens","Scaffold19",451579,452821]
[["TriadG26333:Trichoplax_adhaerens","Scaffold19:hit:13314:3.10.0.4"],"blastx_Placozoa","TriadG26333:Trichoplax_adhaerens","Scaffold19",465778,466651]
[["TriadG59287:Trichoplax_adhaerens","Scaffold19:hit:13355:3.10.0.4"],"blastx_Placozoa","TriadG59287:Trichoplax_adhaerens","Scaffold19",468136,468880]
[["TriadG31346:Trichoplax_adhaerens","Scaffold19:hit:13363:3.10.0.4"],"blastx_Placozoa","TriadG31346:Trichoplax_adhaerens","Scaffold19",468196,468871]
[["TriadG28654:Trichoplax_adhaerens","Scaffold19:hit:13465:3.10.0.4"],"blastx_Placozoa","TriadG28654:Trichoplax_adhaerens","Scaffold19",477216,480976]
[["TriadG8204:Trichoplax_adhaerens","Scaffold19:hit:13477:3.10.0.4"],"blastx_Placozoa","TriadG8204:Trichoplax_adhaerens","Scaffold19",493986,494634]
[["TriadG18802:Trichoplax_adhaerens","Scaffold19:hit:13937:3.10.0.5"],"blastx_Placozoa","TriadG18802:Trichoplax_adhaerens","Scaffold19",499428,500313]
[["TriadG19940:Trichoplax_adhaerens","Scaffold19:hit:13898:3.10.0.5"],"blastx_Placozoa","TriadG19940:Trichoplax_adhaerens","Scaffold19",499428,499995]
[["TriadG63420:Trichoplax_adhaerens","Scaffold19:hit:13938:3.10.0.5"],"blastx_Placozoa","TriadG63420:Trichoplax_adhaerens","Scaffold19",499431,500280]
[["TriadG24514:Trichoplax_adhaerens","Scaffold19:hit:14009:3.10.0.5"],"blastx_Placozoa","TriadG24514:Trichoplax_adhaerens","Scaffold19",501097,512498]
[["TriadG16582:Trichoplax_adhaerens","Scaffold19:hit:14055:3.10.0.5"],"blastx_Placozoa","TriadG16582:Trichoplax_adhaerens","Scaffold19",513654,514068]
[["TriadG33595:Trichoplax_adhaerens","Scaffold19:hit:14103:3.10.0.5"],"blastx_Placozoa","TriadG33595:Trichoplax_adhaerens","Scaffold19",515850,516228]
[["TriadG21652:Trichoplax_adhaerens","Scaffold19:hit:14147:3.10.0.5"],"blastx_Placozoa","TriadG21652:Trichoplax_adhaerens","Scaffold19",524418,531856]
[["TriadG20821:Trichoplax_adhaerens","Scaffold19:hit:14275:3.10.0.5"],"blastx_Placozoa","TriadG20821:Trichoplax_adhaerens","Scaffold19",558302,560789]
[["TriadG33687:Trichoplax_adhaerens","Scaffold19:hit:14367:3.10.0.5"],"blastx_Placozoa","TriadG33687:Trichoplax_adhaerens","Scaffold19",583308,584894]
[["TriadG50697:Trichoplax_adhaerens","Scaffold19:hit:14478:3.10.0.5"],"blastx_Placozoa","TriadG50697:Trichoplax_adhaerens","Scaffold19",611945,612949]
[["TriadG23038:Trichoplax_adhaerens","Scaffold19:hit:14519:3.10.0.5"],"blastx_Placozoa","TriadG23038:Trichoplax_adhaerens","Scaffold19",659032,659918]
