[["Smp_142450.1:pep:Schistosoma_mansoni","Scaffold1:hit:2760:3.10.0.0"],"blastx_Platyhelminthes","Smp_142450.1:pep:Schistosoma_mansoni","Scaffold1",32710,33654]
[["Smp_071250.1:pep:Schistosoma_mansoni","Scaffold1:hit:2660:3.10.0.0"],"blastx_Platyhelminthes","Smp_071250.1:pep:Schistosoma_mansoni","Scaffold1",32710,33654]
[["Smp_129070.1:pep:Schistosoma_mansoni","Scaffold1:hit:2746:3.10.0.0"],"blastx_Platyhelminthes","Smp_129070.1:pep:Schistosoma_mansoni","Scaffold1",33287,33651]
[["Smp_062510.2:pep:Schistosoma_mansoni","Scaffold1:hit:2637:3.10.0.0"],"blastx_Platyhelminthes","Smp_062510.2:pep:Schistosoma_mansoni","Scaffold1",33287,33642]
[["Smp_062510.1:pep:Schistosoma_mansoni","Scaffold1:hit:2706:3.10.0.0"],"blastx_Platyhelminthes","Smp_062510.1:pep:Schistosoma_mansoni","Scaffold1",33287,33642]
[["Smp_045990.1:pep:Schistosoma_mansoni","Scaffold1:hit:2867:3.10.0.0"],"blastx_Platyhelminthes","Smp_045990.1:pep:Schistosoma_mansoni","Scaffold1",33447,33648]
[["Smp_084940.3:pep:Schistosoma_mansoni","Scaffold1:hit:2707:3.10.0.0"],"blastx_Platyhelminthes","Smp_084940.3:pep:Schistosoma_mansoni","Scaffold1",33474,33645]
[["Smp_197600.1:pep:Schistosoma_mansoni","Scaffold1:hit:3411:3.10.0.0"],"blastx_Platyhelminthes","Smp_197600.1:pep:Schistosoma_mansoni","Scaffold1",55575,55782]
[["Smp_175110.1:pep:Schistosoma_mansoni","Scaffold1:hit:3345:3.10.0.0"],"blastx_Platyhelminthes","Smp_175110.1:pep:Schistosoma_mansoni","Scaffold1",55620,55752]
[["Smp_197600.1:pep:Schistosoma_mansoni","Scaffold1:hit:3412:3.10.0.0"],"blastx_Platyhelminthes","Smp_197600.1:pep:Schistosoma_mansoni","Scaffold1",65959,66311]
[["Smp_137170.1:pep:Schistosoma_mansoni","Scaffold1:hit:4461:3.10.0.1"],"blastx_Platyhelminthes","Smp_137170.1:pep:Schistosoma_mansoni","Scaffold1",113406,122699]
[["Smp_199210.1:pep:Schistosoma_mansoni","Scaffold1:hit:4496:3.10.0.1"],"blastx_Platyhelminthes","Smp_199210.1:pep:Schistosoma_mansoni","Scaffold1",113675,115944]
[["Smp_007260.2:pep:Schistosoma_mansoni","Scaffold1:hit:4472:3.10.0.1"],"blastx_Platyhelminthes","Smp_007260.2:pep:Schistosoma_mansoni","Scaffold1",113759,115800]
[["Smp_085110.2:pep:Schistosoma_mansoni","Scaffold1:hit:5186:3.10.0.2"],"blastx_Platyhelminthes","Smp_085110.2:pep:Schistosoma_mansoni","Scaffold1",232807,238522]
[["Smp_142620.1:pep:Schistosoma_mansoni","Scaffold1:hit:5500:3.10.0.2"],"blastx_Platyhelminthes","Smp_142620.1:pep:Schistosoma_mansoni","Scaffold1",251966,256216]
[["Smp_125450.1:pep:Schistosoma_mansoni","Scaffold1:hit:5518:3.10.0.2"],"blastx_Platyhelminthes","Smp_125450.1:pep:Schistosoma_mansoni","Scaffold1",252823,256297]
[["Smp_085680.1:pep:Schistosoma_mansoni","Scaffold1:hit:5476:3.10.0.2"],"blastx_Platyhelminthes","Smp_085680.1:pep:Schistosoma_mansoni","Scaffold1",252931,256177]
[["Smp_019100.1:pep:Schistosoma_mansoni","Scaffold1:hit:6372:3.10.0.3"],"blastx_Platyhelminthes","Smp_019100.1:pep:Schistosoma_mansoni","Scaffold1",390331,394462]
[["Smp_065180.1:pep:Schistosoma_mansoni","Scaffold1:hit:6349:3.10.0.3"],"blastx_Platyhelminthes","Smp_065180.1:pep:Schistosoma_mansoni","Scaffold1",390337,394465]
[["Smp_097240.2:pep:Schistosoma_mansoni","Scaffold1:hit:6735:3.10.0.4"],"blastx_Platyhelminthes","Smp_097240.2:pep:Schistosoma_mansoni","Scaffold1",398326,401018]
[["Smp_175570.1:pep:Schistosoma_mansoni","Scaffold1:hit:6721:3.10.0.4"],"blastx_Platyhelminthes","Smp_175570.1:pep:Schistosoma_mansoni","Scaffold1",398431,401015]
[["Smp_063040.1:pep:Schistosoma_mansoni","Scaffold1:hit:6799:3.10.0.4"],"blastx_Platyhelminthes","Smp_063040.1:pep:Schistosoma_mansoni","Scaffold1",413772,416053]
[["Smp_161730.1:pep:Schistosoma_mansoni","Scaffold1:hit:6880:3.10.0.4"],"blastx_Platyhelminthes","Smp_161730.1:pep:Schistosoma_mansoni","Scaffold1",426233,429673]
[["Smp_012950.1:pep:Schistosoma_mansoni","Scaffold1:hit:7000:3.10.0.4"],"blastx_Platyhelminthes","Smp_012950.1:pep:Schistosoma_mansoni","Scaffold1",438397,438860]
[["Smp_104890.1:pep:Schistosoma_mansoni","Scaffold1:hit:7255:3.10.0.4"],"blastx_Platyhelminthes","Smp_104890.1:pep:Schistosoma_mansoni","Scaffold1",469064,470031]
[["Smp_176300.1:pep:Schistosoma_mansoni","Scaffold1:hit:8562:3.10.0.7"],"blastx_Platyhelminthes","Smp_176300.1:pep:Schistosoma_mansoni","Scaffold1",699628,717295]
[["Smp_114580.1:pep:Schistosoma_mansoni","Scaffold1:hit:8384:3.10.0.7"],"blastx_Platyhelminthes","Smp_114580.1:pep:Schistosoma_mansoni","Scaffold1",702604,702736]
[["Smp_158760.1:pep:Schistosoma_mansoni","Scaffold1:hit:8356:3.10.0.7"],"blastx_Platyhelminthes","Smp_158760.1:pep:Schistosoma_mansoni","Scaffold1",702781,717421]
[["Smp_165820.1:pep:Schistosoma_mansoni","Scaffold1:hit:8400:3.10.0.7"],"blastx_Platyhelminthes","Smp_165820.1:pep:Schistosoma_mansoni","Scaffold1",704117,717421]
[["Smp_130810.1:pep:Schistosoma_mansoni","Scaffold1:hit:8425:3.10.0.7"],"blastx_Platyhelminthes","Smp_130810.1:pep:Schistosoma_mansoni","Scaffold1",704135,717418]
[["Smp_159840.1:pep:Schistosoma_mansoni","Scaffold1:hit:8437:3.10.0.7"],"blastx_Platyhelminthes","Smp_159840.1:pep:Schistosoma_mansoni","Scaffold1",704504,717421]
[["Smp_137550.1:pep:Schistosoma_mansoni","Scaffold1:hit:8473:3.10.0.7"],"blastx_Platyhelminthes","Smp_137550.1:pep:Schistosoma_mansoni","Scaffold1",704561,717069]
[["Smp_096760.1:pep:Schistosoma_mansoni","Scaffold1:hit:8579:3.10.0.7"],"blastx_Platyhelminthes","Smp_096760.1:pep:Schistosoma_mansoni","Scaffold1",717605,719067]
[["Smp_074020.1:pep:Schistosoma_mansoni","Scaffold1:hit:8665:3.10.0.7"],"blastx_Platyhelminthes","Smp_074020.1:pep:Schistosoma_mansoni","Scaffold1",733527,737160]
[["Smp_033950.2:pep:Schistosoma_mansoni","Scaffold1:hit:8744:3.10.0.7"],"blastx_Platyhelminthes","Smp_033950.2:pep:Schistosoma_mansoni","Scaffold1",742711,746801]
[["Smp_013060.1:pep:Schistosoma_mansoni","Scaffold1:hit:8836:3.10.0.7"],"blastx_Platyhelminthes","Smp_013060.1:pep:Schistosoma_mansoni","Scaffold1",742735,746792]
[["Smp_212740.1:pep:Schistosoma_mansoni","Scaffold1:hit:8824:3.10.0.7"],"blastx_Platyhelminthes","Smp_212740.1:pep:Schistosoma_mansoni","Scaffold1",742756,746792]
[["Smp_085910.1:pep:Schistosoma_mansoni","Scaffold1:hit:8844:3.10.0.7"],"blastx_Platyhelminthes","Smp_085910.1:pep:Schistosoma_mansoni","Scaffold1",744485,746792]
[["Smp_071250.1:pep:Schistosoma_mansoni","Scaffold1:hit:8883:3.10.0.7"],"blastx_Platyhelminthes","Smp_071250.1:pep:Schistosoma_mansoni","Scaffold1",751102,751710]
[["Smp_065290.1:pep:Schistosoma_mansoni","Scaffold1:hit:8999:3.10.0.7"],"blastx_Platyhelminthes","Smp_065290.1:pep:Schistosoma_mansoni","Scaffold1",755469,759272]
[["Smp_169390.1:pep:Schistosoma_mansoni","Scaffold1:hit:9045:3.10.0.7"],"blastx_Platyhelminthes","Smp_169390.1:pep:Schistosoma_mansoni","Scaffold1",764139,764520]
[["Smp_088650.1:pep:Schistosoma_mansoni","Scaffold1:hit:9744:3.10.0.8"],"blastx_Platyhelminthes","Smp_088650.1:pep:Schistosoma_mansoni","Scaffold1",814308,815019]
[["Smp_032180.1:pep:Schistosoma_mansoni","Scaffold1:hit:9836:3.10.0.8"],"blastx_Platyhelminthes","Smp_032180.1:pep:Schistosoma_mansoni","Scaffold1",814308,815019]
[["Smp_086900.1:pep:Schistosoma_mansoni","Scaffold1:hit:9757:3.10.0.8"],"blastx_Platyhelminthes","Smp_086900.1:pep:Schistosoma_mansoni","Scaffold1",814317,815007]
[["Smp_000730.1:pep:Schistosoma_mansoni","Scaffold1:hit:9810:3.10.0.8"],"blastx_Platyhelminthes","Smp_000730.1:pep:Schistosoma_mansoni","Scaffold1",814326,814992]
[["Smp_159930.1:pep:Schistosoma_mansoni","Scaffold1:hit:9760:3.10.0.8"],"blastx_Platyhelminthes","Smp_159930.1:pep:Schistosoma_mansoni","Scaffold1",814449,814908]
[["Smp_104680.1:pep:Schistosoma_mansoni","Scaffold1:hit:9682:3.10.0.8"],"blastx_Platyhelminthes","Smp_104680.1:pep:Schistosoma_mansoni","Scaffold1",814512,814902]
[["Smp_064240.1:pep:Schistosoma_mansoni","Scaffold1:hit:9908:3.10.0.8"],"blastx_Platyhelminthes","Smp_064240.1:pep:Schistosoma_mansoni","Scaffold1",818306,819590]
[["Smp_038300.1:pep:Schistosoma_mansoni","Scaffold1:hit:10638:3.10.0.10"],"blastx_Platyhelminthes","Smp_038300.1:pep:Schistosoma_mansoni","Scaffold1",1003267,1003483]
[["Smp_039970.1:pep:Schistosoma_mansoni","Scaffold1:hit:10756:3.10.0.10"],"blastx_Platyhelminthes","Smp_039970.1:pep:Schistosoma_mansoni","Scaffold1",1031991,1032135]
[["Smp_142920.1:pep:Schistosoma_mansoni","Scaffold1:hit:10949:3.10.0.10"],"blastx_Platyhelminthes","Smp_142920.1:pep:Schistosoma_mansoni","Scaffold1",1063277,1064902]
[["Smp_142910.1:pep:Schistosoma_mansoni","Scaffold1:hit:10964:3.10.0.10"],"blastx_Platyhelminthes","Smp_142910.1:pep:Schistosoma_mansoni","Scaffold1",1064938,1069814]
[["Smp_124920.1:pep:Schistosoma_mansoni","Scaffold1:hit:11002:3.10.0.10"],"blastx_Platyhelminthes","Smp_124920.1:pep:Schistosoma_mansoni","Scaffold1",1079404,1082780]
[["Smp_147970.1:pep:Schistosoma_mansoni","Scaffold1:hit:11758:3.10.0.11"],"blastx_Platyhelminthes","Smp_147970.1:pep:Schistosoma_mansoni","Scaffold1",1104553,1105595]
[["Smp_190520.1:pep:Schistosoma_mansoni","Scaffold1:hit:11470:3.10.0.11"],"blastx_Platyhelminthes","Smp_190520.1:pep:Schistosoma_mansoni","Scaffold1",1105421,1105535]
[["Smp_133370.1:pep:Schistosoma_mansoni","Scaffold1:hit:12046:3.10.0.11"],"blastx_Platyhelminthes","Smp_133370.1:pep:Schistosoma_mansoni","Scaffold1",1132210,1133765]
[["Smp_167210.1:pep:Schistosoma_mansoni","Scaffold1:hit:13824:3.10.0.13"],"blastx_Platyhelminthes","Smp_167210.1:pep:Schistosoma_mansoni","Scaffold1",1331801,1335543]
[["Smp_147040.1:pep:Schistosoma_mansoni","Scaffold1:hit:13994:3.10.0.13"],"blastx_Platyhelminthes","Smp_147040.1:pep:Schistosoma_mansoni","Scaffold1",1340753,1342097]
[["Smp_176100.1:pep:Schistosoma_mansoni","Scaffold1:hit:14117:3.10.0.13"],"blastx_Platyhelminthes","Smp_176100.1:pep:Schistosoma_mansoni","Scaffold1",1349124,1350191]
[["Smp_053560.1:pep:Schistosoma_mansoni","Scaffold1:hit:15121:3.10.0.14"],"blastx_Platyhelminthes","Smp_053560.1:pep:Schistosoma_mansoni","Scaffold1",1411874,1414814]
[["Smp_204050.1:pep:Schistosoma_mansoni","Scaffold1:hit:15221:3.10.0.14"],"blastx_Platyhelminthes","Smp_204050.1:pep:Schistosoma_mansoni","Scaffold1",1413933,1414224]
[["Smp_029040.1:pep:Schistosoma_mansoni","Scaffold1:hit:15292:3.10.0.14"],"blastx_Platyhelminthes","Smp_029040.1:pep:Schistosoma_mansoni","Scaffold1",1415619,1418429]
[["Smp_152650.1:pep:Schistosoma_mansoni","Scaffold1:hit:15322:3.10.0.14"],"blastx_Platyhelminthes","Smp_152650.1:pep:Schistosoma_mansoni","Scaffold1",1420708,1422694]
[["Smp_086920.1:pep:Schistosoma_mansoni","Scaffold1:hit:15394:3.10.0.14"],"blastx_Platyhelminthes","Smp_086920.1:pep:Schistosoma_mansoni","Scaffold1",1423631,1424130]
[["Smp_169400.1:pep:Schistosoma_mansoni","Scaffold1:hit:15372:3.10.0.14"],"blastx_Platyhelminthes","Smp_169400.1:pep:Schistosoma_mansoni","Scaffold1",1425629,1427310]
[["Smp_044020.1:pep:Schistosoma_mansoni","Scaffold1:hit:15915:3.10.0.15"],"blastx_Platyhelminthes","Smp_044020.1:pep:Schistosoma_mansoni","Scaffold1",1535393,1537620]
[["Smp_172110.1:pep:Schistosoma_mansoni","Scaffold1:hit:15962:3.10.0.15"],"blastx_Platyhelminthes","Smp_172110.1:pep:Schistosoma_mansoni","Scaffold1",1542871,1544131]
[["Smp_079770.1:pep:Schistosoma_mansoni","Scaffold1:hit:16029:3.10.0.15"],"blastx_Platyhelminthes","Smp_079770.1:pep:Schistosoma_mansoni","Scaffold1",1542907,1543717]
[["Smp_212000.1:pep:Schistosoma_mansoni","Scaffold1:hit:16195:3.10.0.15"],"blastx_Platyhelminthes","Smp_212000.1:pep:Schistosoma_mansoni","Scaffold1",1560592,1561584]
[["Smp_210500.1:pep:Schistosoma_mansoni","Scaffold1:hit:16666:3.10.0.15"],"blastx_Platyhelminthes","Smp_210500.1:pep:Schistosoma_mansoni","Scaffold1",1575498,1576211]
[["Smp_034410.3:pep:Schistosoma_mansoni","Scaffold1:hit:16302:3.10.0.15"],"blastx_Platyhelminthes","Smp_034410.3:pep:Schistosoma_mansoni","Scaffold1",1575498,1576199]
[["Smp_139160.1:pep:Schistosoma_mansoni","Scaffold1:hit:16376:3.10.0.15"],"blastx_Platyhelminthes","Smp_139160.1:pep:Schistosoma_mansoni","Scaffold1",1575498,1575923]
[["Smp_149730.1:pep:Schistosoma_mansoni","Scaffold1:hit:16351:3.10.0.15"],"blastx_Platyhelminthes","Smp_149730.1:pep:Schistosoma_mansoni","Scaffold1",1575510,1576277]
[["Smp_187140.1:pep:Schistosoma_mansoni","Scaffold1:hit:16263:3.10.0.15"],"blastx_Platyhelminthes","Smp_187140.1:pep:Schistosoma_mansoni","Scaffold1",1575513,1576271]
[["Smp_141230.1:pep:Schistosoma_mansoni","Scaffold1:hit:17179:3.10.0.16"],"blastx_Platyhelminthes","Smp_141230.1:pep:Schistosoma_mansoni","Scaffold1",1593583,1595274]
[["Smp_150860.1:pep:Schistosoma_mansoni","Scaffold1:hit:17211:3.10.0.16"],"blastx_Platyhelminthes","Smp_150860.1:pep:Schistosoma_mansoni","Scaffold1",1594254,1595247]
[["Smp_130250.1:pep:Schistosoma_mansoni","Scaffold1:hit:16723:3.10.0.15"],"blastx_Platyhelminthes","Smp_130250.1:pep:Schistosoma_mansoni","Scaffold1",1594272,1594902]
[["Smp_206070.1:pep:Schistosoma_mansoni","Scaffold1:hit:16713:3.10.0.15"],"blastx_Platyhelminthes","Smp_206070.1:pep:Schistosoma_mansoni","Scaffold1",1594338,1594929]
[["Smp_040550.1:pep:Schistosoma_mansoni","Scaffold1:hit:17322:3.10.0.16"],"blastx_Platyhelminthes","Smp_040550.1:pep:Schistosoma_mansoni","Scaffold1",1616374,1616835]
[["Smp_005910.1:pep:Schistosoma_mansoni","Scaffold1:hit:17311:3.10.0.16"],"blastx_Platyhelminthes","Smp_005910.1:pep:Schistosoma_mansoni","Scaffold1",1616377,1616853]
[["Smp_165270.1:pep:Schistosoma_mansoni","Scaffold1:hit:17354:3.10.0.16"],"blastx_Platyhelminthes","Smp_165270.1:pep:Schistosoma_mansoni","Scaffold1",1628538,1628712]
[["Smp_142770.1:pep:Schistosoma_mansoni","Scaffold1:hit:17852:3.10.0.17"],"blastx_Platyhelminthes","Smp_142770.1:pep:Schistosoma_mansoni","Scaffold1",1698497,1704854]
[["Smp_194770.1:pep:Schistosoma_mansoni","Scaffold1:hit:18257:3.10.0.17"],"blastx_Platyhelminthes","Smp_194770.1:pep:Schistosoma_mansoni","Scaffold1",1744626,1745484]
[["Smp_205230.1:pep:Schistosoma_mansoni","Scaffold1:hit:18321:3.10.0.17"],"blastx_Platyhelminthes","Smp_205230.1:pep:Schistosoma_mansoni","Scaffold1",1757337,1757790]
[["Smp_131960.1:pep:Schistosoma_mansoni","Scaffold1:hit:19271:3.10.0.19"],"blastx_Platyhelminthes","Smp_131960.1:pep:Schistosoma_mansoni","Scaffold1",1955451,1956951]
[["Smp_136640.1:pep:Schistosoma_mansoni","Scaffold1:hit:19456:3.10.0.19"],"blastx_Platyhelminthes","Smp_136640.1:pep:Schistosoma_mansoni","Scaffold1",1977382,1977938]
[["Smp_067490.1:pep:Schistosoma_mansoni","Scaffold1:hit:19396:3.10.0.19"],"blastx_Platyhelminthes","Smp_067490.1:pep:Schistosoma_mansoni","Scaffold1",1977397,1977947]
[["Smp_067480.3:pep:Schistosoma_mansoni","Scaffold1:hit:19425:3.10.0.19"],"blastx_Platyhelminthes","Smp_067480.3:pep:Schistosoma_mansoni","Scaffold1",1977409,1977947]
[["Smp_067480.2:pep:Schistosoma_mansoni","Scaffold1:hit:19452:3.10.0.19"],"blastx_Platyhelminthes","Smp_067480.2:pep:Schistosoma_mansoni","Scaffold1",1977409,1977664]
[["Smp_159990.1:pep:Schistosoma_mansoni","Scaffold1:hit:19822:3.10.0.20"],"blastx_Platyhelminthes","Smp_159990.1:pep:Schistosoma_mansoni","Scaffold1",1994212,2004375]
[["Smp_020270.1:pep:Schistosoma_mansoni","Scaffold1:hit:19835:3.10.0.20"],"blastx_Platyhelminthes","Smp_020270.1:pep:Schistosoma_mansoni","Scaffold1",1994380,2004059]
[["Smp_020170.1:pep:Schistosoma_mansoni","Scaffold1:hit:19773:3.10.0.20"],"blastx_Platyhelminthes","Smp_020170.1:pep:Schistosoma_mansoni","Scaffold1",1994389,2004071]
[["Smp_126850.2:pep:Schistosoma_mansoni","Scaffold1:hit:19908:3.10.0.20"],"blastx_Platyhelminthes","Smp_126850.2:pep:Schistosoma_mansoni","Scaffold1",2033824,2035581]
[["Smp_082250.1:pep:Schistosoma_mansoni","Scaffold1:hit:19959:3.10.0.20"],"blastx_Platyhelminthes","Smp_082250.1:pep:Schistosoma_mansoni","Scaffold1",2037114,2038215]
[["Smp_199540.1:pep:Schistosoma_mansoni","Scaffold1:hit:20109:3.10.0.20"],"blastx_Platyhelminthes","Smp_199540.1:pep:Schistosoma_mansoni","Scaffold1",2072950,2074130]
[["Smp_138420.1:pep:Schistosoma_mansoni","Scaffold1:hit:20561:3.10.0.20"],"blastx_Platyhelminthes","Smp_138420.1:pep:Schistosoma_mansoni","Scaffold1",2087951,2088122]
[["Smp_173190.1:pep:Schistosoma_mansoni","Scaffold1:hit:21473:3.10.0.21"],"blastx_Platyhelminthes","Smp_173190.1:pep:Schistosoma_mansoni","Scaffold1",2094763,2101051]
[["Smp_022130.1:pep:Schistosoma_mansoni","Scaffold1:hit:21586:3.10.0.21"],"blastx_Platyhelminthes","Smp_022130.1:pep:Schistosoma_mansoni","Scaffold1",2145422,2146586]
[["Smp_027370.1:pep:Schistosoma_mansoni","Scaffold1:hit:22169:3.10.0.22"],"blastx_Platyhelminthes","Smp_027370.1:pep:Schistosoma_mansoni","Scaffold1",2198547,2199079]
[["Smp_210090.1:pep:Schistosoma_mansoni","Scaffold1:hit:22224:3.10.0.22"],"blastx_Platyhelminthes","Smp_210090.1:pep:Schistosoma_mansoni","Scaffold1",2203906,2208892]
[["Smp_024360.1:pep:Schistosoma_mansoni","Scaffold1:hit:22427:3.10.0.22"],"blastx_Platyhelminthes","Smp_024360.1:pep:Schistosoma_mansoni","Scaffold1",2276958,2277915]
[["Smp_134830.1:pep:Schistosoma_mansoni","Scaffold1:hit:22825:3.10.0.23"],"blastx_Platyhelminthes","Smp_134830.1:pep:Schistosoma_mansoni","Scaffold1",2315254,2315694]
[["Smp_012930.1:pep:Schistosoma_mansoni","Scaffold1:hit:23095:3.10.0.24"],"blastx_Platyhelminthes","Smp_012930.1:pep:Schistosoma_mansoni","Scaffold1",2443313,2445001]
[["Smp_170510.1:pep:Schistosoma_mansoni","Scaffold1:hit:23280:3.10.0.24"],"blastx_Platyhelminthes","Smp_170510.1:pep:Schistosoma_mansoni","Scaffold1",2459922,2466969]
[["Smp_036270.2:pep:Schistosoma_mansoni","Scaffold1:hit:23386:3.10.0.24"],"blastx_Platyhelminthes","Smp_036270.2:pep:Schistosoma_mansoni","Scaffold1",2486164,2490171]
[["Smp_098890.2:pep:Schistosoma_mansoni","Scaffold1:hit:23403:3.10.0.24"],"blastx_Platyhelminthes","Smp_098890.2:pep:Schistosoma_mansoni","Scaffold1",2489806,2490180]
[["Smp_082850.2:pep:Schistosoma_mansoni","Scaffold1:hit:24014:3.10.0.25"],"blastx_Platyhelminthes","Smp_082850.2:pep:Schistosoma_mansoni","Scaffold1",2524159,2530164]
[["Smp_052460.1:pep:Schistosoma_mansoni","Scaffold1:hit:23991:3.10.0.25"],"blastx_Platyhelminthes","Smp_052460.1:pep:Schistosoma_mansoni","Scaffold1",2528985,2529213]
[["Smp_064350.1:pep:Schistosoma_mansoni","Scaffold1:hit:24548:3.10.0.27"],"blastx_Platyhelminthes","Smp_064350.1:pep:Schistosoma_mansoni","Scaffold1",2762001,2766516]
[["Smp_034450.1:pep:Schistosoma_mansoni","Scaffold1:hit:24631:3.10.0.27"],"blastx_Platyhelminthes","Smp_034450.1:pep:Schistosoma_mansoni","Scaffold1",2782988,2784108]
[["Smp_177230.1:pep:Schistosoma_mansoni","Scaffold1:hit:25000:3.10.0.28"],"blastx_Platyhelminthes","Smp_177230.1:pep:Schistosoma_mansoni","Scaffold1",2817777,2817918]
[["Smp_064150.1:pep:Schistosoma_mansoni","Scaffold1:hit:25183:3.10.0.28"],"blastx_Platyhelminthes","Smp_064150.1:pep:Schistosoma_mansoni","Scaffold1",2851530,2852154]
[["Smp_089240.1:pep:Schistosoma_mansoni","Scaffold1:hit:25621:3.10.0.29"],"blastx_Platyhelminthes","Smp_089240.1:pep:Schistosoma_mansoni","Scaffold1",2945917,2947265]
[["Smp_020170.1:pep:Schistosoma_mansoni","Scaffold1:hit:26089:3.10.0.29"],"blastx_Platyhelminthes","Smp_020170.1:pep:Schistosoma_mansoni","Scaffold1",2969192,2976235]
[["Smp_124010.1:pep:Schistosoma_mansoni","Scaffold1:hit:27344:3.10.0.32"],"blastx_Platyhelminthes","Smp_124010.1:pep:Schistosoma_mansoni","Scaffold1",3240245,3240440]
[["Smp_072640.1:pep:Schistosoma_mansoni","Scaffold1:hit:27527:3.10.0.32"],"blastx_Platyhelminthes","Smp_072640.1:pep:Schistosoma_mansoni","Scaffold1",3344337,3344933]
[["Smp_175610.1:pep:Schistosoma_mansoni","Scaffold1:hit:27612:3.10.0.32"],"blastx_Platyhelminthes","Smp_175610.1:pep:Schistosoma_mansoni","Scaffold1",3352426,3354402]
[["Smp_008070.1:pep:Schistosoma_mansoni","Scaffold1:hit:27640:3.10.0.32"],"blastx_Platyhelminthes","Smp_008070.1:pep:Schistosoma_mansoni","Scaffold1",3354249,3354402]
