[["NEMVEDRAFT_v1g247341-PA:Nematostella_vectensis","Scaffold1:hit:2773:3.10.0.0"],"blastx_Cnidaria","NEMVEDRAFT_v1g247341-PA:Nematostella_vectensis","Scaffold1",32686,33654]
[["NEMVEDRAFT_v1g166681-PA:Nematostella_vectensis","Scaffold1:hit:2823:3.10.0.0"],"blastx_Cnidaria","NEMVEDRAFT_v1g166681-PA:Nematostella_vectensis","Scaffold1",32713,33645]
[["NEMVEDRAFT_v1g235524-PA:Nematostella_vectensis","Scaffold1:hit:2819:3.10.0.0"],"blastx_Cnidaria","NEMVEDRAFT_v1g235524-PA:Nematostella_vectensis","Scaffold1",32713,33630]
[["NEMVEDRAFT_v1g187679-PA:Nematostella_vectensis","Scaffold1:hit:2681:3.10.0.0"],"blastx_Cnidaria","NEMVEDRAFT_v1g187679-PA:Nematostella_vectensis","Scaffold1",32719,33651]
[["NEMVEDRAFT_v1g195002-PA:Nematostella_vectensis","Scaffold1:hit:2874:3.10.0.0"],"blastx_Cnidaria","NEMVEDRAFT_v1g195002-PA:Nematostella_vectensis","Scaffold1",33287,33654]
[["NEMVEDRAFT_v1g69635-PA:Nematostella_vectensis","Scaffold1:hit:2794:3.10.0.0"],"blastx_Cnidaria","NEMVEDRAFT_v1g69635-PA:Nematostella_vectensis","Scaffold1",33287,33645]
[["NEMVEDRAFT_v1g181274-PA:Nematostella_vectensis","Scaffold1:hit:2891:3.10.0.0"],"blastx_Cnidaria","NEMVEDRAFT_v1g181274-PA:Nematostella_vectensis","Scaffold1",33287,33645]
[["NEMVEDRAFT_v1g16994-PA:Nematostella_vectensis","Scaffold1:hit:2701:3.10.0.0"],"blastx_Cnidaria","NEMVEDRAFT_v1g16994-PA:Nematostella_vectensis","Scaffold1",33287,33639]
[["NEMVEDRAFT_v1g240618-PA:Nematostella_vectensis","Scaffold1:hit:2657:3.10.0.0"],"blastx_Cnidaria","NEMVEDRAFT_v1g240618-PA:Nematostella_vectensis","Scaffold1",33293,33645]
[["NEMVEDRAFT_v1g119290-PA:Nematostella_vectensis","Scaffold1:hit:2895:3.10.0.0"],"blastx_Cnidaria","NEMVEDRAFT_v1g119290-PA:Nematostella_vectensis","Scaffold1",33296,33639]
[["NEMVEDRAFT_v1g101945-PA:Nematostella_vectensis","Scaffold1:hit:2837:3.10.0.0"],"blastx_Cnidaria","NEMVEDRAFT_v1g101945-PA:Nematostella_vectensis","Scaffold1",33299,33645]
[["NEMVEDRAFT_v1g151849-PA:Nematostella_vectensis","Scaffold1:hit:2651:3.10.0.0"],"blastx_Cnidaria","NEMVEDRAFT_v1g151849-PA:Nematostella_vectensis","Scaffold1",33471,33654]
[["NEMVEDRAFT_v1g236736-PA:Nematostella_vectensis","Scaffold1:hit:2758:3.10.0.0"],"blastx_Cnidaria","NEMVEDRAFT_v1g236736-PA:Nematostella_vectensis","Scaffold1",33474,33642]
[["NEMVEDRAFT_v1g86012-PA:Nematostella_vectensis","Scaffold1:hit:2957:3.10.0.0"],"blastx_Cnidaria","NEMVEDRAFT_v1g86012-PA:Nematostella_vectensis","Scaffold1",41174,42710]
[["NEMVEDRAFT_v1g205808-PA:Nematostella_vectensis","Scaffold1:hit:3747:3.10.0.0"],"blastx_Cnidaria","NEMVEDRAFT_v1g205808-PA:Nematostella_vectensis","Scaffold1",55309,58065]
[["NEMVEDRAFT_v1g40919-PA:Nematostella_vectensis","Scaffold1:hit:3659:3.10.0.0"],"blastx_Cnidaria","NEMVEDRAFT_v1g40919-PA:Nematostella_vectensis","Scaffold1",55309,58065]
[["NEMVEDRAFT_v1g80076-PA:Nematostella_vectensis","Scaffold1:hit:3464:3.10.0.0"],"blastx_Cnidaria","NEMVEDRAFT_v1g80076-PA:Nematostella_vectensis","Scaffold1",55309,58056]
[["NEMVEDRAFT_v1g50745-PA:Nematostella_vectensis","Scaffold1:hit:3221:3.10.0.0"],"blastx_Cnidaria","NEMVEDRAFT_v1g50745-PA:Nematostella_vectensis","Scaffold1",55309,58056]
[["NEMVEDRAFT_v1g112842-PA:Nematostella_vectensis","Scaffold1:hit:3336:3.10.0.0"],"blastx_Cnidaria","NEMVEDRAFT_v1g112842-PA:Nematostella_vectensis","Scaffold1",55309,57888]
[["NEMVEDRAFT_v1g11255-PA:Nematostella_vectensis","Scaffold1:hit:3457:3.10.0.0"],"blastx_Cnidaria","NEMVEDRAFT_v1g11255-PA:Nematostella_vectensis","Scaffold1",55315,58101]
[["NEMVEDRAFT_v1g40806-PA:Nematostella_vectensis","Scaffold1:hit:3223:3.10.0.0"],"blastx_Cnidaria","NEMVEDRAFT_v1g40806-PA:Nematostella_vectensis","Scaffold1",55315,58005]
[["NEMVEDRAFT_v1g79911-PA:Nematostella_vectensis","Scaffold1:hit:3249:3.10.0.0"],"blastx_Cnidaria","NEMVEDRAFT_v1g79911-PA:Nematostella_vectensis","Scaffold1",55315,57948]
[["NEMVEDRAFT_v1g60450-PA:Nematostella_vectensis","Scaffold1:hit:3208:3.10.0.0"],"blastx_Cnidaria","NEMVEDRAFT_v1g60450-PA:Nematostella_vectensis","Scaffold1",55569,58065]
[["NEMVEDRAFT_v1g52909-PA:Nematostella_vectensis","Scaffold1:hit:3140:3.10.0.0"],"blastx_Cnidaria","NEMVEDRAFT_v1g52909-PA:Nematostella_vectensis","Scaffold1",55569,57792]
[["NEMVEDRAFT_v1g109100-PA:Nematostella_vectensis","Scaffold1:hit:3408:3.10.0.0"],"blastx_Cnidaria","NEMVEDRAFT_v1g109100-PA:Nematostella_vectensis","Scaffold1",55575,58056]
[["NEMVEDRAFT_v1g31824-PA:Nematostella_vectensis","Scaffold1:hit:3539:3.10.0.0"],"blastx_Cnidaria","NEMVEDRAFT_v1g31824-PA:Nematostella_vectensis","Scaffold1",55575,58056]
[["NEMVEDRAFT_v1g97337-PA:Nematostella_vectensis","Scaffold1:hit:3258:3.10.0.0"],"blastx_Cnidaria","NEMVEDRAFT_v1g97337-PA:Nematostella_vectensis","Scaffold1",55575,57972]
[["NEMVEDRAFT_v1g85091-PA:Nematostella_vectensis","Scaffold1:hit:3407:3.10.0.0"],"blastx_Cnidaria","NEMVEDRAFT_v1g85091-PA:Nematostella_vectensis","Scaffold1",55581,58053]
[["NEMVEDRAFT_v1g110265-PA:Nematostella_vectensis","Scaffold1:hit:3494:3.10.0.0"],"blastx_Cnidaria","NEMVEDRAFT_v1g110265-PA:Nematostella_vectensis","Scaffold1",55587,58065]
[["NEMVEDRAFT_v1g82287-PA:Nematostella_vectensis","Scaffold1:hit:3116:3.10.0.0"],"blastx_Cnidaria","NEMVEDRAFT_v1g82287-PA:Nematostella_vectensis","Scaffold1",55590,58056]
[["NEMVEDRAFT_v1g116716-PA:Nematostella_vectensis","Scaffold1:hit:3706:3.10.0.0"],"blastx_Cnidaria","NEMVEDRAFT_v1g116716-PA:Nematostella_vectensis","Scaffold1",55590,58017]
[["NEMVEDRAFT_v1g87907-PA:Nematostella_vectensis","Scaffold1:hit:3284:3.10.0.0"],"blastx_Cnidaria","NEMVEDRAFT_v1g87907-PA:Nematostella_vectensis","Scaffold1",55593,58017]
[["NEMVEDRAFT_v1g51086-PA:Nematostella_vectensis","Scaffold1:hit:3534:3.10.0.0"],"blastx_Cnidaria","NEMVEDRAFT_v1g51086-PA:Nematostella_vectensis","Scaffold1",55593,58017]
[["NEMVEDRAFT_v1g51194-PA:Nematostella_vectensis","Scaffold1:hit:3705:3.10.0.0"],"blastx_Cnidaria","NEMVEDRAFT_v1g51194-PA:Nematostella_vectensis","Scaffold1",55608,58056]
[["NEMVEDRAFT_v1g32916-PA:Nematostella_vectensis","Scaffold1:hit:3359:3.10.0.0"],"blastx_Cnidaria","NEMVEDRAFT_v1g32916-PA:Nematostella_vectensis","Scaffold1",55608,58026]
[["NEMVEDRAFT_v1g120507-PA:Nematostella_vectensis","Scaffold1:hit:3163:3.10.0.0"],"blastx_Cnidaria","NEMVEDRAFT_v1g120507-PA:Nematostella_vectensis","Scaffold1",55608,58017]
[["NEMVEDRAFT_v1g79680-PA:Nematostella_vectensis","Scaffold1:hit:3435:3.10.0.0"],"blastx_Cnidaria","NEMVEDRAFT_v1g79680-PA:Nematostella_vectensis","Scaffold1",55608,57942]
[["NEMVEDRAFT_v1g85724-PA:Nematostella_vectensis","Scaffold1:hit:3337:3.10.0.0"],"blastx_Cnidaria","NEMVEDRAFT_v1g85724-PA:Nematostella_vectensis","Scaffold1",55623,58056]
[["NEMVEDRAFT_v1g109075-PA:Nematostella_vectensis","Scaffold1:hit:3609:3.10.0.0"],"blastx_Cnidaria","NEMVEDRAFT_v1g109075-PA:Nematostella_vectensis","Scaffold1",57672,58026]
[["NEMVEDRAFT_v1g128668-PA:Nematostella_vectensis","Scaffold1:hit:3228:3.10.0.0"],"blastx_Cnidaria","NEMVEDRAFT_v1g128668-PA:Nematostella_vectensis","Scaffold1",57693,58101]
[["NEMVEDRAFT_v1g140328-PA:Nematostella_vectensis","Scaffold1:hit:3166:3.10.0.0"],"blastx_Cnidaria","NEMVEDRAFT_v1g140328-PA:Nematostella_vectensis","Scaffold1",57753,58005]
[["NEMVEDRAFT_v1g199721-PA:Nematostella_vectensis","Scaffold1:hit:3361:3.10.0.0"],"blastx_Cnidaria","NEMVEDRAFT_v1g199721-PA:Nematostella_vectensis","Scaffold1",65651,66707]
[["NEMVEDRAFT_v1g200917-PA:Nematostella_vectensis","Scaffold1:hit:3319:3.10.0.0"],"blastx_Cnidaria","NEMVEDRAFT_v1g200917-PA:Nematostella_vectensis","Scaffold1",65678,66599]
[["NEMVEDRAFT_v1g52909-PA:Nematostella_vectensis","Scaffold1:hit:3141:3.10.0.0"],"blastx_Cnidaria","NEMVEDRAFT_v1g52909-PA:Nematostella_vectensis","Scaffold1",65684,66512]
[["NEMVEDRAFT_v1g11255-PA:Nematostella_vectensis","Scaffold1:hit:3458:3.10.0.0"],"blastx_Cnidaria","NEMVEDRAFT_v1g11255-PA:Nematostella_vectensis","Scaffold1",65687,66931]
[["NEMVEDRAFT_v1g60450-PA:Nematostella_vectensis","Scaffold1:hit:3209:3.10.0.0"],"blastx_Cnidaria","NEMVEDRAFT_v1g60450-PA:Nematostella_vectensis","Scaffold1",65687,66599]
[["NEMVEDRAFT_v1g32916-PA:Nematostella_vectensis","Scaffold1:hit:3360:3.10.0.0"],"blastx_Cnidaria","NEMVEDRAFT_v1g32916-PA:Nematostella_vectensis","Scaffold1",65687,66599]
[["NEMVEDRAFT_v1g50745-PA:Nematostella_vectensis","Scaffold1:hit:3222:3.10.0.0"],"blastx_Cnidaria","NEMVEDRAFT_v1g50745-PA:Nematostella_vectensis","Scaffold1",65687,66599]
[["NEMVEDRAFT_v1g103153-PA:Nematostella_vectensis","Scaffold1:hit:3305:3.10.0.0"],"blastx_Cnidaria","NEMVEDRAFT_v1g103153-PA:Nematostella_vectensis","Scaffold1",65953,66599]
[["NEMVEDRAFT_v1g149547-PA:Nematostella_vectensis","Scaffold1:hit:3735:3.10.0.0"],"blastx_Cnidaria","NEMVEDRAFT_v1g149547-PA:Nematostella_vectensis","Scaffold1",65953,66278]
[["NEMVEDRAFT_v1g158601-PA:Nematostella_vectensis","Scaffold1:hit:4396:3.10.0.1"],"blastx_Cnidaria","NEMVEDRAFT_v1g158601-PA:Nematostella_vectensis","Scaffold1",98093,99998]
[["NEMVEDRAFT_v1g166011-PA:Nematostella_vectensis","Scaffold1:hit:4460:3.10.0.1"],"blastx_Cnidaria","NEMVEDRAFT_v1g166011-PA:Nematostella_vectensis","Scaffold1",113204,122711]
[["NEMVEDRAFT_v1g166010-PA:Nematostella_vectensis","Scaffold1:hit:4503:3.10.0.1"],"blastx_Cnidaria","NEMVEDRAFT_v1g166010-PA:Nematostella_vectensis","Scaffold1",113210,115836]
[["NEMVEDRAFT_v1g128774-PA:Nematostella_vectensis","Scaffold1:hit:4610:3.10.0.1"],"blastx_Cnidaria","NEMVEDRAFT_v1g128774-PA:Nematostella_vectensis","Scaffold1",153673,154728]
[["NEMVEDRAFT_v1g229706-PA:Nematostella_vectensis","Scaffold1:hit:4672:3.10.0.1"],"blastx_Cnidaria","NEMVEDRAFT_v1g229706-PA:Nematostella_vectensis","Scaffold1",160666,162505]
[["NEMVEDRAFT_v1g226879-PA:Nematostella_vectensis","Scaffold1:hit:4662:3.10.0.1"],"blastx_Cnidaria","NEMVEDRAFT_v1g226879-PA:Nematostella_vectensis","Scaffold1",160732,162328]
[["NEMVEDRAFT_v1g59717-PA:Nematostella_vectensis","Scaffold1:hit:4747:3.10.0.1"],"blastx_Cnidaria","NEMVEDRAFT_v1g59717-PA:Nematostella_vectensis","Scaffold1",161062,161281]
[["NEMVEDRAFT_v1g92549-PA:Nematostella_vectensis","Scaffold1:hit:5083:3.10.0.2"],"blastx_Cnidaria","NEMVEDRAFT_v1g92549-PA:Nematostella_vectensis","Scaffold1",204096,204741]
[["NEMVEDRAFT_v1g116134-PA:Nematostella_vectensis","Scaffold1:hit:5088:3.10.0.2"],"blastx_Cnidaria","NEMVEDRAFT_v1g116134-PA:Nematostella_vectensis","Scaffold1",210680,210947]
[["NEMVEDRAFT_v1g30743-PA:Nematostella_vectensis","Scaffold1:hit:5102:3.10.0.2"],"blastx_Cnidaria","NEMVEDRAFT_v1g30743-PA:Nematostella_vectensis","Scaffold1",214317,215273]
[["NEMVEDRAFT_v1g114859-PA:Nematostella_vectensis","Scaffold1:hit:5111:3.10.0.2"],"blastx_Cnidaria","NEMVEDRAFT_v1g114859-PA:Nematostella_vectensis","Scaffold1",214320,215300]
[["NEMVEDRAFT_v1g154490-PA:Nematostella_vectensis","Scaffold1:hit:5118:3.10.0.2"],"blastx_Cnidaria","NEMVEDRAFT_v1g154490-PA:Nematostella_vectensis","Scaffold1",214542,214716]
[["NEMVEDRAFT_v1g176183-PA:Nematostella_vectensis","Scaffold1:hit:5140:3.10.0.2"],"blastx_Cnidaria","NEMVEDRAFT_v1g176183-PA:Nematostella_vectensis","Scaffold1",223025,229014]
[["NEMVEDRAFT_v1g161336-PA:Nematostella_vectensis","Scaffold1:hit:5248:3.10.0.2"],"blastx_Cnidaria","NEMVEDRAFT_v1g161336-PA:Nematostella_vectensis","Scaffold1",232807,238522]
[["NEMVEDRAFT_v1g91173-PA:Nematostella_vectensis","Scaffold1:hit:5285:3.10.0.2"],"blastx_Cnidaria","NEMVEDRAFT_v1g91173-PA:Nematostella_vectensis","Scaffold1",239460,240854]
[["NEMVEDRAFT_v1g40000-PA:Nematostella_vectensis","Scaffold1:hit:5560:3.10.0.2"],"blastx_Cnidaria","NEMVEDRAFT_v1g40000-PA:Nematostella_vectensis","Scaffold1",252892,256177]
[["NEMVEDRAFT_v1g203919-PA:Nematostella_vectensis","Scaffold1:hit:5565:3.10.0.2"],"blastx_Cnidaria","NEMVEDRAFT_v1g203919-PA:Nematostella_vectensis","Scaffold1",252916,255904]
[["NEMVEDRAFT_v1g175727-PA:Nematostella_vectensis","Scaffold1:hit:5505:3.10.0.2"],"blastx_Cnidaria","NEMVEDRAFT_v1g175727-PA:Nematostella_vectensis","Scaffold1",252961,256204]
[["NEMVEDRAFT_v1g171157-PA:Nematostella_vectensis","Scaffold1:hit:5438:3.10.0.2"],"blastx_Cnidaria","NEMVEDRAFT_v1g171157-PA:Nematostella_vectensis","Scaffold1",252991,256189]
[["NEMVEDRAFT_v1g120467-PA:Nematostella_vectensis","Scaffold1:hit:5522:3.10.0.2"],"blastx_Cnidaria","NEMVEDRAFT_v1g120467-PA:Nematostella_vectensis","Scaffold1",253009,256219]
[["NEMVEDRAFT_v1g93709-PA:Nematostella_vectensis","Scaffold1:hit:5324:3.10.0.2"],"blastx_Cnidaria","NEMVEDRAFT_v1g93709-PA:Nematostella_vectensis","Scaffold1",253039,256096]
[["NEMVEDRAFT_v1g149495-PA:Nematostella_vectensis","Scaffold1:hit:5437:3.10.0.2"],"blastx_Cnidaria","NEMVEDRAFT_v1g149495-PA:Nematostella_vectensis","Scaffold1",253105,256096]
[["NEMVEDRAFT_v1g93704-PA:Nematostella_vectensis","Scaffold1:hit:5516:3.10.0.2"],"blastx_Cnidaria","NEMVEDRAFT_v1g93704-PA:Nematostella_vectensis","Scaffold1",253105,255451]
[["NEMVEDRAFT_v1g126382-PA:Nematostella_vectensis","Scaffold1:hit:5366:3.10.0.2"],"blastx_Cnidaria","NEMVEDRAFT_v1g126382-PA:Nematostella_vectensis","Scaffold1",254943,256102]
[["NEMVEDRAFT_v1g196879-PA:Nematostella_vectensis","Scaffold1:hit:5417:3.10.0.2"],"blastx_Cnidaria","NEMVEDRAFT_v1g196879-PA:Nematostella_vectensis","Scaffold1",255247,256216]
[["NEMVEDRAFT_v1g2298-PA:Nematostella_vectensis","Scaffold1:hit:5336:3.10.0.2"],"blastx_Cnidaria","NEMVEDRAFT_v1g2298-PA:Nematostella_vectensis","Scaffold1",255298,255997]
[["NEMVEDRAFT_v1g93645-PA:Nematostella_vectensis","Scaffold1:hit:5320:3.10.0.2"],"blastx_Cnidaria","NEMVEDRAFT_v1g93645-PA:Nematostella_vectensis","Scaffold1",255463,255904]
[["NEMVEDRAFT_v1g2835-PA:Nematostella_vectensis","Scaffold1:hit:5497:3.10.0.2"],"blastx_Cnidaria","NEMVEDRAFT_v1g2835-PA:Nematostella_vectensis","Scaffold1",255730,255967]
[["NEMVEDRAFT_v1g125595-PA:Nematostella_vectensis","Scaffold1:hit:5321:3.10.0.2"],"blastx_Cnidaria","NEMVEDRAFT_v1g125595-PA:Nematostella_vectensis","Scaffold1",255754,255967]
[["NEMVEDRAFT_v1g13517-PA:Nematostella_vectensis","Scaffold1:hit:5587:3.10.0.2"],"blastx_Cnidaria","NEMVEDRAFT_v1g13517-PA:Nematostella_vectensis","Scaffold1",259246,260005]
[["NEMVEDRAFT_v1g113215-PA:Nematostella_vectensis","Scaffold1:hit:5629:3.10.0.2"],"blastx_Cnidaria","NEMVEDRAFT_v1g113215-PA:Nematostella_vectensis","Scaffold1",269391,271521]
[["NEMVEDRAFT_v1g84607-PA:Nematostella_vectensis","Scaffold1:hit:5668:3.10.0.2"],"blastx_Cnidaria","NEMVEDRAFT_v1g84607-PA:Nematostella_vectensis","Scaffold1",277327,281262]
[["NEMVEDRAFT_v1g183874-PA:Nematostella_vectensis","Scaffold1:hit:6133:3.10.0.3"],"blastx_Cnidaria","NEMVEDRAFT_v1g183874-PA:Nematostella_vectensis","Scaffold1",294659,300353]
[["NEMVEDRAFT_v1g114090-PA:Nematostella_vectensis","Scaffold1:hit:6121:3.10.0.3"],"blastx_Cnidaria","NEMVEDRAFT_v1g114090-PA:Nematostella_vectensis","Scaffold1",294665,300353]
[["NEMVEDRAFT_v1g189134-PA:Nematostella_vectensis","Scaffold1:hit:6116:3.10.0.3"],"blastx_Cnidaria","NEMVEDRAFT_v1g189134-PA:Nematostella_vectensis","Scaffold1",294698,301855]
[["NEMVEDRAFT_v1g99425-PA:Nematostella_vectensis","Scaffold1:hit:6124:3.10.0.3"],"blastx_Cnidaria","NEMVEDRAFT_v1g99425-PA:Nematostella_vectensis","Scaffold1",294704,300353]
[["NEMVEDRAFT_v1g94673-PA:Nematostella_vectensis","Scaffold1:hit:6043:3.10.0.3"],"blastx_Cnidaria","NEMVEDRAFT_v1g94673-PA:Nematostella_vectensis","Scaffold1",300158,300314]
[["NEMVEDRAFT_v1g228721-PA:Nematostella_vectensis","Scaffold1:hit:6225:3.10.0.3"],"blastx_Cnidaria","NEMVEDRAFT_v1g228721-PA:Nematostella_vectensis","Scaffold1",358007,363319]
[["NEMVEDRAFT_v1g117981-PA:Nematostella_vectensis","Scaffold1:hit:6309:3.10.0.3"],"blastx_Cnidaria","NEMVEDRAFT_v1g117981-PA:Nematostella_vectensis","Scaffold1",373799,376736]
[["NEMVEDRAFT_v1g92609-PA:Nematostella_vectensis","Scaffold1:hit:6311:3.10.0.3"],"blastx_Cnidaria","NEMVEDRAFT_v1g92609-PA:Nematostella_vectensis","Scaffold1",373808,381140]
[["NEMVEDRAFT_v1g124302-PA:Nematostella_vectensis","Scaffold1:hit:6337:3.10.0.3"],"blastx_Cnidaria","NEMVEDRAFT_v1g124302-PA:Nematostella_vectensis","Scaffold1",373829,376742]
[["NEMVEDRAFT_v1g97113-PA:Nematostella_vectensis","Scaffold1:hit:6302:3.10.0.3"],"blastx_Cnidaria","NEMVEDRAFT_v1g97113-PA:Nematostella_vectensis","Scaffold1",373889,381152]
[["NEMVEDRAFT_v1g158412-PA:Nematostella_vectensis","Scaffold1:hit:6396:3.10.0.3"],"blastx_Cnidaria","NEMVEDRAFT_v1g158412-PA:Nematostella_vectensis","Scaffold1",390337,394465]
[["NEMVEDRAFT_v1g230412-PA:Nematostella_vectensis","Scaffold1:hit:6728:3.10.0.4"],"blastx_Cnidaria","NEMVEDRAFT_v1g230412-PA:Nematostella_vectensis","Scaffold1",398329,401018]
[["NEMVEDRAFT_v1g157748-PA:Nematostella_vectensis","Scaffold1:hit:6818:3.10.0.4"],"blastx_Cnidaria","NEMVEDRAFT_v1g157748-PA:Nematostella_vectensis","Scaffold1",413691,416062]
[["NEMVEDRAFT_v1g195662-PA:Nematostella_vectensis","Scaffold1:hit:6823:3.10.0.4"],"blastx_Cnidaria","NEMVEDRAFT_v1g195662-PA:Nematostella_vectensis","Scaffold1",416592,419082]
[["NEMVEDRAFT_v1g214830-PA:Nematostella_vectensis","Scaffold1:hit:6917:3.10.0.4"],"blastx_Cnidaria","NEMVEDRAFT_v1g214830-PA:Nematostella_vectensis","Scaffold1",426281,428372]
[["NEMVEDRAFT_v1g223180-PA:Nematostella_vectensis","Scaffold1:hit:6884:3.10.0.4"],"blastx_Cnidaria","NEMVEDRAFT_v1g223180-PA:Nematostella_vectensis","Scaffold1",427862,428270]
[["NEMVEDRAFT_v1g82979-PA:Nematostella_vectensis","Scaffold1:hit:6980:3.10.0.4"],"blastx_Cnidaria","NEMVEDRAFT_v1g82979-PA:Nematostella_vectensis","Scaffold1",438397,439318]
[["NEMVEDRAFT_v1g161310-PA:Nematostella_vectensis","Scaffold1:hit:7014:3.10.0.4"],"blastx_Cnidaria","NEMVEDRAFT_v1g161310-PA:Nematostella_vectensis","Scaffold1",438436,438980]
[["NEMVEDRAFT_v1g82641-PA:Nematostella_vectensis","Scaffold1:hit:7051:3.10.0.4"],"blastx_Cnidaria","NEMVEDRAFT_v1g82641-PA:Nematostella_vectensis","Scaffold1",454031,459316]
[["NEMVEDRAFT_v1g91440-PA:Nematostella_vectensis","Scaffold1:hit:7197:3.10.0.4"],"blastx_Cnidaria","NEMVEDRAFT_v1g91440-PA:Nematostella_vectensis","Scaffold1",468983,470016]
[["NEMVEDRAFT_v1g125023-PA:Nematostella_vectensis","Scaffold1:hit:7097:3.10.0.4"],"blastx_Cnidaria","NEMVEDRAFT_v1g125023-PA:Nematostella_vectensis","Scaffold1",469025,470016]
[["NEMVEDRAFT_v1g82411-PA:Nematostella_vectensis","Scaffold1:hit:7199:3.10.0.4"],"blastx_Cnidaria","NEMVEDRAFT_v1g82411-PA:Nematostella_vectensis","Scaffold1",469061,470019]
[["NEMVEDRAFT_v1g40863-PA:Nematostella_vectensis","Scaffold1:hit:7115:3.10.0.4"],"blastx_Cnidaria","NEMVEDRAFT_v1g40863-PA:Nematostella_vectensis","Scaffold1",469064,470049]
[["NEMVEDRAFT_v1g12563-PA:Nematostella_vectensis","Scaffold1:hit:7251:3.10.0.4"],"blastx_Cnidaria","NEMVEDRAFT_v1g12563-PA:Nematostella_vectensis","Scaffold1",469067,470031]
[["NEMVEDRAFT_v1g11965-PA:Nematostella_vectensis","Scaffold1:hit:7270:3.10.0.4"],"blastx_Cnidaria","NEMVEDRAFT_v1g11965-PA:Nematostella_vectensis","Scaffold1",469073,470031]
[["NEMVEDRAFT_v1g22284-PA:Nematostella_vectensis","Scaffold1:hit:7238:3.10.0.4"],"blastx_Cnidaria","NEMVEDRAFT_v1g22284-PA:Nematostella_vectensis","Scaffold1",469073,470016]
[["NEMVEDRAFT_v1g122822-PA:Nematostella_vectensis","Scaffold1:hit:7198:3.10.0.4"],"blastx_Cnidaria","NEMVEDRAFT_v1g122822-PA:Nematostella_vectensis","Scaffold1",469073,470016]
[["NEMVEDRAFT_v1g113361-PA:Nematostella_vectensis","Scaffold1:hit:7217:3.10.0.4"],"blastx_Cnidaria","NEMVEDRAFT_v1g113361-PA:Nematostella_vectensis","Scaffold1",469076,470016]
[["NEMVEDRAFT_v1g21524-PA:Nematostella_vectensis","Scaffold1:hit:7137:3.10.0.4"],"blastx_Cnidaria","NEMVEDRAFT_v1g21524-PA:Nematostella_vectensis","Scaffold1",469079,470016]
[["NEMVEDRAFT_v1g105852-PA:Nematostella_vectensis","Scaffold1:hit:7154:3.10.0.4"],"blastx_Cnidaria","NEMVEDRAFT_v1g105852-PA:Nematostella_vectensis","Scaffold1",469079,470016]
[["NEMVEDRAFT_v1g53909-PA:Nematostella_vectensis","Scaffold1:hit:7121:3.10.0.4"],"blastx_Cnidaria","NEMVEDRAFT_v1g53909-PA:Nematostella_vectensis","Scaffold1",469079,469379]
[["NEMVEDRAFT_v1g92943-PA:Nematostella_vectensis","Scaffold1:hit:7272:3.10.0.4"],"blastx_Cnidaria","NEMVEDRAFT_v1g92943-PA:Nematostella_vectensis","Scaffold1",469085,470016]
[["NEMVEDRAFT_v1g92751-PA:Nematostella_vectensis","Scaffold1:hit:7136:3.10.0.4"],"blastx_Cnidaria","NEMVEDRAFT_v1g92751-PA:Nematostella_vectensis","Scaffold1",469088,469992]
[["NEMVEDRAFT_v1g114264-PA:Nematostella_vectensis","Scaffold1:hit:7129:3.10.0.4"],"blastx_Cnidaria","NEMVEDRAFT_v1g114264-PA:Nematostella_vectensis","Scaffold1",469091,470016]
[["NEMVEDRAFT_v1g93322-PA:Nematostella_vectensis","Scaffold1:hit:7285:3.10.0.4"],"blastx_Cnidaria","NEMVEDRAFT_v1g93322-PA:Nematostella_vectensis","Scaffold1",469094,470016]
[["NEMVEDRAFT_v1g101859-PA:Nematostella_vectensis","Scaffold1:hit:7144:3.10.0.4"],"blastx_Cnidaria","NEMVEDRAFT_v1g101859-PA:Nematostella_vectensis","Scaffold1",469109,470016]
[["NEMVEDRAFT_v1g57443-PA:Nematostella_vectensis","Scaffold1:hit:7116:3.10.0.4"],"blastx_Cnidaria","NEMVEDRAFT_v1g57443-PA:Nematostella_vectensis","Scaffold1",469109,469379]
[["NEMVEDRAFT_v1g207679-PA:Nematostella_vectensis","Scaffold1:hit:7208:3.10.0.4"],"blastx_Cnidaria","NEMVEDRAFT_v1g207679-PA:Nematostella_vectensis","Scaffold1",469154,470016]
[["NEMVEDRAFT_v1g156191-PA:Nematostella_vectensis","Scaffold1:hit:7138:3.10.0.4"],"blastx_Cnidaria","NEMVEDRAFT_v1g156191-PA:Nematostella_vectensis","Scaffold1",469160,469379]
[["NEMVEDRAFT_v1g94959-PA:Nematostella_vectensis","Scaffold1:hit:7303:3.10.0.4"],"blastx_Cnidaria","NEMVEDRAFT_v1g94959-PA:Nematostella_vectensis","Scaffold1",473051,473988]
[["NEMVEDRAFT_v1g4968-PA:Nematostella_vectensis","Scaffold1:hit:7342:3.10.0.4"],"blastx_Cnidaria","NEMVEDRAFT_v1g4968-PA:Nematostella_vectensis","Scaffold1",488332,488647]
[["NEMVEDRAFT_v1g71471-PA:Nematostella_vectensis","Scaffold1:hit:7341:3.10.0.4"],"blastx_Cnidaria","NEMVEDRAFT_v1g71471-PA:Nematostella_vectensis","Scaffold1",488353,488686]
[["NEMVEDRAFT_v1g73504-PA:Nematostella_vectensis","Scaffold1:hit:7343:3.10.0.4"],"blastx_Cnidaria","NEMVEDRAFT_v1g73504-PA:Nematostella_vectensis","Scaffold1",488353,488647]
[["NEMVEDRAFT_v1g188937-PA:Nematostella_vectensis","Scaffold1:hit:7855:3.10.0.5"],"blastx_Cnidaria","NEMVEDRAFT_v1g188937-PA:Nematostella_vectensis","Scaffold1",517554,518773]
[["NEMVEDRAFT_v1g169195-PA:Nematostella_vectensis","Scaffold1:hit:7899:3.10.0.5"],"blastx_Cnidaria","NEMVEDRAFT_v1g169195-PA:Nematostella_vectensis","Scaffold1",517554,518770]
[["NEMVEDRAFT_v1g239738-PA:Nematostella_vectensis","Scaffold1:hit:7838:3.10.0.5"],"blastx_Cnidaria","NEMVEDRAFT_v1g239738-PA:Nematostella_vectensis","Scaffold1",517554,518767]
[["NEMVEDRAFT_v1g46486-PA:Nematostella_vectensis","Scaffold1:hit:7831:3.10.0.5"],"blastx_Cnidaria","NEMVEDRAFT_v1g46486-PA:Nematostella_vectensis","Scaffold1",517554,517983]
[["NEMVEDRAFT_v1g114093-PA:Nematostella_vectensis","Scaffold1:hit:7830:3.10.0.5"],"blastx_Cnidaria","NEMVEDRAFT_v1g114093-PA:Nematostella_vectensis","Scaffold1",518020,518611]
[["NEMVEDRAFT_v1g135094-PA:Nematostella_vectensis","Scaffold1:hit:8177:3.10.0.6"],"blastx_Cnidaria","NEMVEDRAFT_v1g135094-PA:Nematostella_vectensis","Scaffold1",677892,685017]
[["NEMVEDRAFT_v1g105869-PA:Nematostella_vectensis","Scaffold1:hit:8164:3.10.0.6"],"blastx_Cnidaria","NEMVEDRAFT_v1g105869-PA:Nematostella_vectensis","Scaffold1",683756,685017]
[["NEMVEDRAFT_v1g159788-PA:Nematostella_vectensis","Scaffold1:hit:8497:3.10.0.7"],"blastx_Cnidaria","NEMVEDRAFT_v1g159788-PA:Nematostella_vectensis","Scaffold1",696316,717415]
[["NEMVEDRAFT_v1g171736-PA:Nematostella_vectensis","Scaffold1:hit:8569:3.10.0.7"],"blastx_Cnidaria","NEMVEDRAFT_v1g171736-PA:Nematostella_vectensis","Scaffold1",699649,717421]
[["NEMVEDRAFT_v1g173194-PA:Nematostella_vectensis","Scaffold1:hit:8553:3.10.0.7"],"blastx_Cnidaria","NEMVEDRAFT_v1g173194-PA:Nematostella_vectensis","Scaffold1",699649,716490]
[["NEMVEDRAFT_v1g165696-PA:Nematostella_vectensis","Scaffold1:hit:8567:3.10.0.7"],"blastx_Cnidaria","NEMVEDRAFT_v1g165696-PA:Nematostella_vectensis","Scaffold1",699649,715341]
[["NEMVEDRAFT_v1g161999-PA:Nematostella_vectensis","Scaffold1:hit:8421:3.10.0.7"],"blastx_Cnidaria","NEMVEDRAFT_v1g161999-PA:Nematostella_vectensis","Scaffold1",704123,717421]
[["NEMVEDRAFT_v1g235331-PA:Nematostella_vectensis","Scaffold1:hit:8320:3.10.0.7"],"blastx_Cnidaria","NEMVEDRAFT_v1g235331-PA:Nematostella_vectensis","Scaffold1",705389,716691]
[["NEMVEDRAFT_v1g101648-PA:Nematostella_vectensis","Scaffold1:hit:8250:3.10.0.7"],"blastx_Cnidaria","NEMVEDRAFT_v1g101648-PA:Nematostella_vectensis","Scaffold1",705404,706489]
[["NEMVEDRAFT_v1g223384-PA:Nematostella_vectensis","Scaffold1:hit:8291:3.10.0.7"],"blastx_Cnidaria","NEMVEDRAFT_v1g223384-PA:Nematostella_vectensis","Scaffold1",705815,706849]
[["NEMVEDRAFT_v1g61154-PA:Nematostella_vectensis","Scaffold1:hit:8323:3.10.0.7"],"blastx_Cnidaria","NEMVEDRAFT_v1g61154-PA:Nematostella_vectensis","Scaffold1",705842,706819]
[["NEMVEDRAFT_v1g215626-PA:Nematostella_vectensis","Scaffold1:hit:8301:3.10.0.7"],"blastx_Cnidaria","NEMVEDRAFT_v1g215626-PA:Nematostella_vectensis","Scaffold1",706552,711319]
[["NEMVEDRAFT_v1g57021-PA:Nematostella_vectensis","Scaffold1:hit:8324:3.10.0.7"],"blastx_Cnidaria","NEMVEDRAFT_v1g57021-PA:Nematostella_vectensis","Scaffold1",706681,706876]
[["NEMVEDRAFT_v1g222371-PA:Nematostella_vectensis","Scaffold1:hit:8326:3.10.0.7"],"blastx_Cnidaria","NEMVEDRAFT_v1g222371-PA:Nematostella_vectensis","Scaffold1",711133,716502]
[["NEMVEDRAFT_v1g222909-PA:Nematostella_vectensis","Scaffold1:hit:8288:3.10.0.7"],"blastx_Cnidaria","NEMVEDRAFT_v1g222909-PA:Nematostella_vectensis","Scaffold1",711238,714887]
[["NEMVEDRAFT_v1g236331-PA:Nematostella_vectensis","Scaffold1:hit:8697:3.10.0.7"],"blastx_Cnidaria","NEMVEDRAFT_v1g236331-PA:Nematostella_vectensis","Scaffold1",733515,737160]
[["NEMVEDRAFT_v1g248037-PA:Nematostella_vectensis","Scaffold1:hit:8867:3.10.0.7"],"blastx_Cnidaria","NEMVEDRAFT_v1g248037-PA:Nematostella_vectensis","Scaffold1",742699,746810]
[["NEMVEDRAFT_v1g168041-PA:Nematostella_vectensis","Scaffold1:hit:8835:3.10.0.7"],"blastx_Cnidaria","NEMVEDRAFT_v1g168041-PA:Nematostella_vectensis","Scaffold1",742732,746792]
[["NEMVEDRAFT_v1g228395-PA:Nematostella_vectensis","Scaffold1:hit:8740:3.10.0.7"],"blastx_Cnidaria","NEMVEDRAFT_v1g228395-PA:Nematostella_vectensis","Scaffold1",742735,746792]
[["NEMVEDRAFT_v1g18576-PA:Nematostella_vectensis","Scaffold1:hit:8822:3.10.0.7"],"blastx_Cnidaria","NEMVEDRAFT_v1g18576-PA:Nematostella_vectensis","Scaffold1",742756,744659]
[["NEMVEDRAFT_v1g116293-PA:Nematostella_vectensis","Scaffold1:hit:8780:3.10.0.7"],"blastx_Cnidaria","NEMVEDRAFT_v1g116293-PA:Nematostella_vectensis","Scaffold1",742759,744662]
[["NEMVEDRAFT_v1g236736-PA:Nematostella_vectensis","Scaffold1:hit:8897:3.10.0.7"],"blastx_Cnidaria","NEMVEDRAFT_v1g236736-PA:Nematostella_vectensis","Scaffold1",751093,751701]
[["NEMVEDRAFT_v1g176098-PA:Nematostella_vectensis","Scaffold1:hit:8903:3.10.0.7"],"blastx_Cnidaria","NEMVEDRAFT_v1g176098-PA:Nematostella_vectensis","Scaffold1",751156,751695]
[["NEMVEDRAFT_v1g120257-PA:Nematostella_vectensis","Scaffold1:hit:9031:3.10.0.7"],"blastx_Cnidaria","NEMVEDRAFT_v1g120257-PA:Nematostella_vectensis","Scaffold1",755253,759116]
[["NEMVEDRAFT_v1g184645-PA:Nematostella_vectensis","Scaffold1:hit:9027:3.10.0.7"],"blastx_Cnidaria","NEMVEDRAFT_v1g184645-PA:Nematostella_vectensis","Scaffold1",758447,759113]
[["NEMVEDRAFT_v1g95129-PA:Nematostella_vectensis","Scaffold1:hit:9023:3.10.0.7"],"blastx_Cnidaria","NEMVEDRAFT_v1g95129-PA:Nematostella_vectensis","Scaffold1",758447,759029]
[["NEMVEDRAFT_v1g207834-PA:Nematostella_vectensis","Scaffold1:hit:8935:3.10.0.7"],"blastx_Cnidaria","NEMVEDRAFT_v1g207834-PA:Nematostella_vectensis","Scaffold1",758447,759029]
[["NEMVEDRAFT_v1g145659-PA:Nematostella_vectensis","Scaffold1:hit:9028:3.10.0.7"],"blastx_Cnidaria","NEMVEDRAFT_v1g145659-PA:Nematostella_vectensis","Scaffold1",758447,758981]
[["NEMVEDRAFT_v1g230438-PA:Nematostella_vectensis","Scaffold1:hit:9010:3.10.0.7"],"blastx_Cnidaria","NEMVEDRAFT_v1g230438-PA:Nematostella_vectensis","Scaffold1",758450,759134]
[["NEMVEDRAFT_v1g100779-PA:Nematostella_vectensis","Scaffold1:hit:9018:3.10.0.7"],"blastx_Cnidaria","NEMVEDRAFT_v1g100779-PA:Nematostella_vectensis","Scaffold1",758816,759026]
[["NEMVEDRAFT_v1g126053-PA:Nematostella_vectensis","Scaffold1:hit:9069:3.10.0.7"],"blastx_Cnidaria","NEMVEDRAFT_v1g126053-PA:Nematostella_vectensis","Scaffold1",764148,765026]
[["NEMVEDRAFT_v1g134878-PA:Nematostella_vectensis","Scaffold1:hit:9066:3.10.0.7"],"blastx_Cnidaria","NEMVEDRAFT_v1g134878-PA:Nematostella_vectensis","Scaffold1",764148,765026]
[["NEMVEDRAFT_v1g248207-PA:Nematostella_vectensis","Scaffold1:hit:9657:3.10.0.8"],"blastx_Cnidaria","NEMVEDRAFT_v1g248207-PA:Nematostella_vectensis","Scaffold1",809240,810017]
[["NEMVEDRAFT_v1g238733-PA:Nematostella_vectensis","Scaffold1:hit:9800:3.10.0.8"],"blastx_Cnidaria","NEMVEDRAFT_v1g238733-PA:Nematostella_vectensis","Scaffold1",814308,815019]
[["NEMVEDRAFT_v1g235432-PA:Nematostella_vectensis","Scaffold1:hit:9713:3.10.0.8"],"blastx_Cnidaria","NEMVEDRAFT_v1g235432-PA:Nematostella_vectensis","Scaffold1",814311,814902]
[["NEMVEDRAFT_v1g178803-PA:Nematostella_vectensis","Scaffold1:hit:9803:3.10.0.8"],"blastx_Cnidaria","NEMVEDRAFT_v1g178803-PA:Nematostella_vectensis","Scaffold1",814317,815019]
[["NEMVEDRAFT_v1g171050-PA:Nematostella_vectensis","Scaffold1:hit:9737:3.10.0.8"],"blastx_Cnidaria","NEMVEDRAFT_v1g171050-PA:Nematostella_vectensis","Scaffold1",814317,815019]
[["NEMVEDRAFT_v1g169415-PA:Nematostella_vectensis","Scaffold1:hit:9759:3.10.0.8"],"blastx_Cnidaria","NEMVEDRAFT_v1g169415-PA:Nematostella_vectensis","Scaffold1",814326,815019]
[["NEMVEDRAFT_v1g236955-PA:Nematostella_vectensis","Scaffold1:hit:9856:3.10.0.8"],"blastx_Cnidaria","NEMVEDRAFT_v1g236955-PA:Nematostella_vectensis","Scaffold1",814326,815007]
[["NEMVEDRAFT_v1g166872-PA:Nematostella_vectensis","Scaffold1:hit:9725:3.10.0.8"],"blastx_Cnidaria","NEMVEDRAFT_v1g166872-PA:Nematostella_vectensis","Scaffold1",814326,814995]
[["NEMVEDRAFT_v1g236810-PA:Nematostella_vectensis","Scaffold1:hit:9676:3.10.0.8"],"blastx_Cnidaria","NEMVEDRAFT_v1g236810-PA:Nematostella_vectensis","Scaffold1",814329,815019]
[["NEMVEDRAFT_v1g49613-PA:Nematostella_vectensis","Scaffold1:hit:9867:3.10.0.8"],"blastx_Cnidaria","NEMVEDRAFT_v1g49613-PA:Nematostella_vectensis","Scaffold1",814671,815019]
[["NEMVEDRAFT_v1g162648-PA:Nematostella_vectensis","Scaffold1:hit:9894:3.10.0.8"],"blastx_Cnidaria","NEMVEDRAFT_v1g162648-PA:Nematostella_vectensis","Scaffold1",818306,819590]
[["NEMVEDRAFT_v1g50978-PA:Nematostella_vectensis","Scaffold1:hit:9926:3.10.0.8"],"blastx_Cnidaria","NEMVEDRAFT_v1g50978-PA:Nematostella_vectensis","Scaffold1",828491,829998]
[["NEMVEDRAFT_v1g245603-PA:Nematostella_vectensis","Scaffold1:hit:9974:3.10.0.8"],"blastx_Cnidaria","NEMVEDRAFT_v1g245603-PA:Nematostella_vectensis","Scaffold1",847677,849397]
[["NEMVEDRAFT_v1g106806-PA:Nematostella_vectensis","Scaffold1:hit:10020:3.10.0.8"],"blastx_Cnidaria","NEMVEDRAFT_v1g106806-PA:Nematostella_vectensis","Scaffold1",861663,862560]
[["NEMVEDRAFT_v1g12640-PA:Nematostella_vectensis","Scaffold1:hit:10024:3.10.0.8"],"blastx_Cnidaria","NEMVEDRAFT_v1g12640-PA:Nematostella_vectensis","Scaffold1",866970,868296]
[["NEMVEDRAFT_v1g237045-PA:Nematostella_vectensis","Scaffold1:hit:10060:3.10.0.8"],"blastx_Cnidaria","NEMVEDRAFT_v1g237045-PA:Nematostella_vectensis","Scaffold1",870546,871784]
[["NEMVEDRAFT_v1g134097-PA:Nematostella_vectensis","Scaffold1:hit:10108:3.10.0.8"],"blastx_Cnidaria","NEMVEDRAFT_v1g134097-PA:Nematostella_vectensis","Scaffold1",879512,879995]
[["NEMVEDRAFT_v1g97672-PA:Nematostella_vectensis","Scaffold1:hit:10599:3.10.0.10"],"blastx_Cnidaria","NEMVEDRAFT_v1g97672-PA:Nematostella_vectensis","Scaffold1",996863,997459]
[["NEMVEDRAFT_v1g121734-PA:Nematostella_vectensis","Scaffold1:hit:10609:3.10.0.10"],"blastx_Cnidaria","NEMVEDRAFT_v1g121734-PA:Nematostella_vectensis","Scaffold1",998097,998790]
[["NEMVEDRAFT_v1g121705-PA:Nematostella_vectensis","Scaffold1:hit:10613:3.10.0.10"],"blastx_Cnidaria","NEMVEDRAFT_v1g121705-PA:Nematostella_vectensis","Scaffold1",1001504,1001900]
[["NEMVEDRAFT_v1g242695-PA:Nematostella_vectensis","Scaffold1:hit:10654:3.10.0.10"],"blastx_Cnidaria","NEMVEDRAFT_v1g242695-PA:Nematostella_vectensis","Scaffold1",1003267,1003462]
[["NEMVEDRAFT_v1g192750-PA:Nematostella_vectensis","Scaffold1:hit:10705:3.10.0.10"],"blastx_Cnidaria","NEMVEDRAFT_v1g192750-PA:Nematostella_vectensis","Scaffold1",1016638,1017575]
[["NEMVEDRAFT_v1g89657-PA:Nematostella_vectensis","Scaffold1:hit:10769:3.10.0.10"],"blastx_Cnidaria","NEMVEDRAFT_v1g89657-PA:Nematostella_vectensis","Scaffold1",1029465,1032135]
[["NEMVEDRAFT_v1g246680-PA:Nematostella_vectensis","Scaffold1:hit:10777:3.10.0.10"],"blastx_Cnidaria","NEMVEDRAFT_v1g246680-PA:Nematostella_vectensis","Scaffold1",1033128,1036925]
[["NEMVEDRAFT_v1g187173-PA:Nematostella_vectensis","Scaffold1:hit:10970:3.10.0.10"],"blastx_Cnidaria","NEMVEDRAFT_v1g187173-PA:Nematostella_vectensis","Scaffold1",1063007,1069817]
[["NEMVEDRAFT_v1g145295-PA:Nematostella_vectensis","Scaffold1:hit:10983:3.10.0.10"],"blastx_Cnidaria","NEMVEDRAFT_v1g145295-PA:Nematostella_vectensis","Scaffold1",1068924,1069539]
[["NEMVEDRAFT_v1g83316-PA:Nematostella_vectensis","Scaffold1:hit:11026:3.10.0.10"],"blastx_Cnidaria","NEMVEDRAFT_v1g83316-PA:Nematostella_vectensis","Scaffold1",1079419,1082780]
[["NEMVEDRAFT_v1g47413-PA:Nematostella_vectensis","Scaffold1:hit:11069:3.10.0.10"],"blastx_Cnidaria","NEMVEDRAFT_v1g47413-PA:Nematostella_vectensis","Scaffold1",1093267,1093429]
[["NEMVEDRAFT_v1g168976-PA:Nematostella_vectensis","Scaffold1:hit:11574:3.10.0.11"],"blastx_Cnidaria","NEMVEDRAFT_v1g168976-PA:Nematostella_vectensis","Scaffold1",1101677,1105583]
[["NEMVEDRAFT_v1g176484-PA:Nematostella_vectensis","Scaffold1:hit:11498:3.10.0.11"],"blastx_Cnidaria","NEMVEDRAFT_v1g176484-PA:Nematostella_vectensis","Scaffold1",1103758,1105583]
[["NEMVEDRAFT_v1g94108-PA:Nematostella_vectensis","Scaffold1:hit:11754:3.10.0.11"],"blastx_Cnidaria","NEMVEDRAFT_v1g94108-PA:Nematostella_vectensis","Scaffold1",1103893,1105595]
[["NEMVEDRAFT_v1g245960-PA:Nematostella_vectensis","Scaffold1:hit:11637:3.10.0.11"],"blastx_Cnidaria","NEMVEDRAFT_v1g245960-PA:Nematostella_vectensis","Scaffold1",1103902,1105592]
[["NEMVEDRAFT_v1g192682-PA:Nematostella_vectensis","Scaffold1:hit:11661:3.10.0.11"],"blastx_Cnidaria","NEMVEDRAFT_v1g192682-PA:Nematostella_vectensis","Scaffold1",1103953,1105601]
[["NEMVEDRAFT_v1g166826-PA:Nematostella_vectensis","Scaffold1:hit:11743:3.10.0.11"],"blastx_Cnidaria","NEMVEDRAFT_v1g166826-PA:Nematostella_vectensis","Scaffold1",1104334,1105592]
[["NEMVEDRAFT_v1g194682-PA:Nematostella_vectensis","Scaffold1:hit:11724:3.10.0.11"],"blastx_Cnidaria","NEMVEDRAFT_v1g194682-PA:Nematostella_vectensis","Scaffold1",1104535,1105637]
[["NEMVEDRAFT_v1g208913-PA:Nematostella_vectensis","Scaffold1:hit:11585:3.10.0.11"],"blastx_Cnidaria","NEMVEDRAFT_v1g208913-PA:Nematostella_vectensis","Scaffold1",1104547,1105598]
[["NEMVEDRAFT_v1g230104-PA:Nematostella_vectensis","Scaffold1:hit:11753:3.10.0.11"],"blastx_Cnidaria","NEMVEDRAFT_v1g230104-PA:Nematostella_vectensis","Scaffold1",1104547,1105592]
[["NEMVEDRAFT_v1g97853-PA:Nematostella_vectensis","Scaffold1:hit:11700:3.10.0.11"],"blastx_Cnidaria","NEMVEDRAFT_v1g97853-PA:Nematostella_vectensis","Scaffold1",1104547,1105589]
[["NEMVEDRAFT_v1g225462-PA:Nematostella_vectensis","Scaffold1:hit:11640:3.10.0.11"],"blastx_Cnidaria","NEMVEDRAFT_v1g225462-PA:Nematostella_vectensis","Scaffold1",1104547,1104715]
[["NEMVEDRAFT_v1g117242-PA:Nematostella_vectensis","Scaffold1:hit:11686:3.10.0.11"],"blastx_Cnidaria","NEMVEDRAFT_v1g117242-PA:Nematostella_vectensis","Scaffold1",1104553,1105493]
[["NEMVEDRAFT_v1g114717-PA:Nematostella_vectensis","Scaffold1:hit:11698:3.10.0.11"],"blastx_Cnidaria","NEMVEDRAFT_v1g114717-PA:Nematostella_vectensis","Scaffold1",1104556,1105601]
[["NEMVEDRAFT_v1g79512-PA:Nematostella_vectensis","Scaffold1:hit:11635:3.10.0.11"],"blastx_Cnidaria","NEMVEDRAFT_v1g79512-PA:Nematostella_vectensis","Scaffold1",1104568,1105583]
[["NEMVEDRAFT_v1g81491-PA:Nematostella_vectensis","Scaffold1:hit:11598:3.10.0.11"],"blastx_Cnidaria","NEMVEDRAFT_v1g81491-PA:Nematostella_vectensis","Scaffold1",1104568,1105583]
[["NEMVEDRAFT_v1g83480-PA:Nematostella_vectensis","Scaffold1:hit:11631:3.10.0.11"],"blastx_Cnidaria","NEMVEDRAFT_v1g83480-PA:Nematostella_vectensis","Scaffold1",1104592,1104952]
[["NEMVEDRAFT_v1g161891-PA:Nematostella_vectensis","Scaffold1:hit:11610:3.10.0.11"],"blastx_Cnidaria","NEMVEDRAFT_v1g161891-PA:Nematostella_vectensis","Scaffold1",1104598,1105637]
[["NEMVEDRAFT_v1g128732-PA:Nematostella_vectensis","Scaffold1:hit:11726:3.10.0.11"],"blastx_Cnidaria","NEMVEDRAFT_v1g128732-PA:Nematostella_vectensis","Scaffold1",1104610,1105598]
[["NEMVEDRAFT_v1g124130-PA:Nematostella_vectensis","Scaffold1:hit:11621:3.10.0.11"],"blastx_Cnidaria","NEMVEDRAFT_v1g124130-PA:Nematostella_vectensis","Scaffold1",1104631,1105562]
[["NEMVEDRAFT_v1g227907-PA:Nematostella_vectensis","Scaffold1:hit:11657:3.10.0.11"],"blastx_Cnidaria","NEMVEDRAFT_v1g227907-PA:Nematostella_vectensis","Scaffold1",1104646,1105589]
[["NEMVEDRAFT_v1g89335-PA:Nematostella_vectensis","Scaffold1:hit:11538:3.10.0.11"],"blastx_Cnidaria","NEMVEDRAFT_v1g89335-PA:Nematostella_vectensis","Scaffold1",1104691,1105619]
[["NEMVEDRAFT_v1g225218-PA:Nematostella_vectensis","Scaffold1:hit:11468:3.10.0.11"],"blastx_Cnidaria","NEMVEDRAFT_v1g225218-PA:Nematostella_vectensis","Scaffold1",1105282,1105532]
[["NEMVEDRAFT_v1g162207-PA:Nematostella_vectensis","Scaffold1:hit:11798:3.10.0.11"],"blastx_Cnidaria","NEMVEDRAFT_v1g162207-PA:Nematostella_vectensis","Scaffold1",1108104,1109426]
[["NEMVEDRAFT_v1g185932-PA:Nematostella_vectensis","Scaffold1:hit:11842:3.10.0.11"],"blastx_Cnidaria","NEMVEDRAFT_v1g185932-PA:Nematostella_vectensis","Scaffold1",1114809,1117682]
[["NEMVEDRAFT_v1g113370-PA:Nematostella_vectensis","Scaffold1:hit:11959:3.10.0.11"],"blastx_Cnidaria","NEMVEDRAFT_v1g113370-PA:Nematostella_vectensis","Scaffold1",1121502,1121814]
[["NEMVEDRAFT_v1g57443-PA:Nematostella_vectensis","Scaffold1:hit:11899:3.10.0.11"],"blastx_Cnidaria","NEMVEDRAFT_v1g57443-PA:Nematostella_vectensis","Scaffold1",1121508,1121781]
[["NEMVEDRAFT_v1g53909-PA:Nematostella_vectensis","Scaffold1:hit:11904:3.10.0.11"],"blastx_Cnidaria","NEMVEDRAFT_v1g53909-PA:Nematostella_vectensis","Scaffold1",1121511,1121811]
[["NEMVEDRAFT_v1g156191-PA:Nematostella_vectensis","Scaffold1:hit:11911:3.10.0.11"],"blastx_Cnidaria","NEMVEDRAFT_v1g156191-PA:Nematostella_vectensis","Scaffold1",1121511,1121730]
[["NEMVEDRAFT_v1g92366-PA:Nematostella_vectensis","Scaffold1:hit:11998:3.10.0.11"],"blastx_Cnidaria","NEMVEDRAFT_v1g92366-PA:Nematostella_vectensis","Scaffold1",1125656,1126269]
[["NEMVEDRAFT_v1g187756-PA:Nematostella_vectensis","Scaffold1:hit:12039:3.10.0.11"],"blastx_Cnidaria","NEMVEDRAFT_v1g187756-PA:Nematostella_vectensis","Scaffold1",1132132,1133762]
[["NEMVEDRAFT_v1g29735-PA:Nematostella_vectensis","Scaffold1:hit:12073:3.10.0.11"],"blastx_Cnidaria","NEMVEDRAFT_v1g29735-PA:Nematostella_vectensis","Scaffold1",1136560,1136776]
[["NEMVEDRAFT_v1g163440-PA:Nematostella_vectensis","Scaffold1:hit:12144:3.10.0.11"],"blastx_Cnidaria","NEMVEDRAFT_v1g163440-PA:Nematostella_vectensis","Scaffold1",1146144,1147304]
[["NEMVEDRAFT_v1g158855-PA:Nematostella_vectensis","Scaffold1:hit:12175:3.10.0.11"],"blastx_Cnidaria","NEMVEDRAFT_v1g158855-PA:Nematostella_vectensis","Scaffold1",1148202,1150226]
[["NEMVEDRAFT_v1g127253-PA:Nematostella_vectensis","Scaffold1:hit:12256:3.10.0.11"],"blastx_Cnidaria","NEMVEDRAFT_v1g127253-PA:Nematostella_vectensis","Scaffold1",1160234,1160441]
[["NEMVEDRAFT_v1g58204-PA:Nematostella_vectensis","Scaffold1:hit:13026:3.10.0.12"],"blastx_Cnidaria","NEMVEDRAFT_v1g58204-PA:Nematostella_vectensis","Scaffold1",1277283,1277475]
[["NEMVEDRAFT_v1g154018-PA:Nematostella_vectensis","Scaffold1:hit:13021:3.10.0.12"],"blastx_Cnidaria","NEMVEDRAFT_v1g154018-PA:Nematostella_vectensis","Scaffold1",1277562,1277783]
[["NEMVEDRAFT_v1g49419-PA:Nematostella_vectensis","Scaffold1:hit:13076:3.10.0.12"],"blastx_Cnidaria","NEMVEDRAFT_v1g49419-PA:Nematostella_vectensis","Scaffold1",1286063,1286225]
[["NEMVEDRAFT_v1g101334-PA:Nematostella_vectensis","Scaffold1:hit:13093:3.10.0.12"],"blastx_Cnidaria","NEMVEDRAFT_v1g101334-PA:Nematostella_vectensis","Scaffold1",1286069,1286225]
[["NEMVEDRAFT_v1g29762-PA:Nematostella_vectensis","Scaffold1:hit:13111:3.10.0.12"],"blastx_Cnidaria","NEMVEDRAFT_v1g29762-PA:Nematostella_vectensis","Scaffold1",1289275,1289500]
[["NEMVEDRAFT_v1g106073-PA:Nematostella_vectensis","Scaffold1:hit:13113:3.10.0.12"],"blastx_Cnidaria","NEMVEDRAFT_v1g106073-PA:Nematostella_vectensis","Scaffold1",1289287,1289494]
[["NEMVEDRAFT_v1g14687-PA:Nematostella_vectensis","Scaffold1:hit:13221:3.10.0.13"],"blastx_Cnidaria","NEMVEDRAFT_v1g14687-PA:Nematostella_vectensis","Scaffold1",1310730,1311244]
[["NEMVEDRAFT_v1g193399-PA:Nematostella_vectensis","Scaffold1:hit:13296:3.10.0.13"],"blastx_Cnidaria","NEMVEDRAFT_v1g193399-PA:Nematostella_vectensis","Scaffold1",1316074,1317550]
[["NEMVEDRAFT_v1g218982-PA:Nematostella_vectensis","Scaffold1:hit:13298:3.10.0.13"],"blastx_Cnidaria","NEMVEDRAFT_v1g218982-PA:Nematostella_vectensis","Scaffold1",1316080,1317550]
[["NEMVEDRAFT_v1g88291-PA:Nematostella_vectensis","Scaffold1:hit:13468:3.10.0.13"],"blastx_Cnidaria","NEMVEDRAFT_v1g88291-PA:Nematostella_vectensis","Scaffold1",1317716,1318555]
[["NEMVEDRAFT_v1g190533-PA:Nematostella_vectensis","Scaffold1:hit:13383:3.10.0.13"],"blastx_Cnidaria","NEMVEDRAFT_v1g190533-PA:Nematostella_vectensis","Scaffold1",1317722,1318555]
[["NEMVEDRAFT_v1g50036-PA:Nematostella_vectensis","Scaffold1:hit:13676:3.10.0.13"],"blastx_Cnidaria","NEMVEDRAFT_v1g50036-PA:Nematostella_vectensis","Scaffold1",1319729,1329958]
[["NEMVEDRAFT_v1g246845-PA:Nematostella_vectensis","Scaffold1:hit:13778:3.10.0.13"],"blastx_Cnidaria","NEMVEDRAFT_v1g246845-PA:Nematostella_vectensis","Scaffold1",1319762,1328350]
[["NEMVEDRAFT_v1g192610-PA:Nematostella_vectensis","Scaffold1:hit:13570:3.10.0.13"],"blastx_Cnidaria","NEMVEDRAFT_v1g192610-PA:Nematostella_vectensis","Scaffold1",1319765,1329940]
[["NEMVEDRAFT_v1g198286-PA:Nematostella_vectensis","Scaffold1:hit:13692:3.10.0.13"],"blastx_Cnidaria","NEMVEDRAFT_v1g198286-PA:Nematostella_vectensis","Scaffold1",1319765,1320873]
[["NEMVEDRAFT_v1g72086-PA:Nematostella_vectensis","Scaffold1:hit:13654:3.10.0.13"],"blastx_Cnidaria","NEMVEDRAFT_v1g72086-PA:Nematostella_vectensis","Scaffold1",1319765,1320398]
[["NEMVEDRAFT_v1g222411-PA:Nematostella_vectensis","Scaffold1:hit:13742:3.10.0.13"],"blastx_Cnidaria","NEMVEDRAFT_v1g222411-PA:Nematostella_vectensis","Scaffold1",1320115,1320855]
[["NEMVEDRAFT_v1g120541-PA:Nematostella_vectensis","Scaffold1:hit:13702:3.10.0.13"],"blastx_Cnidaria","NEMVEDRAFT_v1g120541-PA:Nematostella_vectensis","Scaffold1",1323466,1323828]
[["NEMVEDRAFT_v1g198286-PA:Nematostella_vectensis","Scaffold1:hit:13693:3.10.0.13"],"blastx_Cnidaria","NEMVEDRAFT_v1g198286-PA:Nematostella_vectensis","Scaffold1",1326244,1327357]
[["NEMVEDRAFT_v1g72086-PA:Nematostella_vectensis","Scaffold1:hit:13655:3.10.0.13"],"blastx_Cnidaria","NEMVEDRAFT_v1g72086-PA:Nematostella_vectensis","Scaffold1",1326371,1326882]
[["NEMVEDRAFT_v1g222411-PA:Nematostella_vectensis","Scaffold1:hit:13743:3.10.0.13"],"blastx_Cnidaria","NEMVEDRAFT_v1g222411-PA:Nematostella_vectensis","Scaffold1",1326599,1327339]
[["NEMVEDRAFT_v1g120541-PA:Nematostella_vectensis","Scaffold1:hit:13703:3.10.0.13"],"blastx_Cnidaria","NEMVEDRAFT_v1g120541-PA:Nematostella_vectensis","Scaffold1",1329817,1330307]
[["NEMVEDRAFT_v1g106621-PA:Nematostella_vectensis","Scaffold1:hit:13838:3.10.0.13"],"blastx_Cnidaria","NEMVEDRAFT_v1g106621-PA:Nematostella_vectensis","Scaffold1",1331837,1335131]
[["NEMVEDRAFT_v1g22127-PA:Nematostella_vectensis","Scaffold1:hit:13853:3.10.0.13"],"blastx_Cnidaria","NEMVEDRAFT_v1g22127-PA:Nematostella_vectensis","Scaffold1",1331846,1335131]
[["NEMVEDRAFT_v1g248537-PA:Nematostella_vectensis","Scaffold1:hit:13933:3.10.0.13"],"blastx_Cnidaria","NEMVEDRAFT_v1g248537-PA:Nematostella_vectensis","Scaffold1",1337075,1340067]
[["NEMVEDRAFT_v1g140593-PA:Nematostella_vectensis","Scaffold1:hit:13927:3.10.0.13"],"blastx_Cnidaria","NEMVEDRAFT_v1g140593-PA:Nematostella_vectensis","Scaffold1",1337796,1340067]
[["NEMVEDRAFT_v1g70174-PA:Nematostella_vectensis","Scaffold1:hit:14051:3.10.0.13"],"blastx_Cnidaria","NEMVEDRAFT_v1g70174-PA:Nematostella_vectensis","Scaffold1",1349038,1350143]
[["NEMVEDRAFT_v1g248347-PA:Nematostella_vectensis","Scaffold1:hit:14034:3.10.0.13"],"blastx_Cnidaria","NEMVEDRAFT_v1g248347-PA:Nematostella_vectensis","Scaffold1",1349124,1350188]
[["NEMVEDRAFT_v1g97514-PA:Nematostella_vectensis","Scaffold1:hit:14080:3.10.0.13"],"blastx_Cnidaria","NEMVEDRAFT_v1g97514-PA:Nematostella_vectensis","Scaffold1",1349124,1350185]
[["NEMVEDRAFT_v1g4493-PA:Nematostella_vectensis","Scaffold1:hit:14161:3.10.0.13"],"blastx_Cnidaria","NEMVEDRAFT_v1g4493-PA:Nematostella_vectensis","Scaffold1",1380483,1383572]
[["NEMVEDRAFT_v1g140878-PA:Nematostella_vectensis","Scaffold1:hit:15014:3.10.0.14"],"blastx_Cnidaria","NEMVEDRAFT_v1g140878-PA:Nematostella_vectensis","Scaffold1",1406212,1408000]
[["NEMVEDRAFT_v1g61148-PA:Nematostella_vectensis","Scaffold1:hit:14956:3.10.0.14"],"blastx_Cnidaria","NEMVEDRAFT_v1g61148-PA:Nematostella_vectensis","Scaffold1",1406212,1407590]
[["NEMVEDRAFT_v1g247951-PA:Nematostella_vectensis","Scaffold1:hit:15001:3.10.0.14"],"blastx_Cnidaria","NEMVEDRAFT_v1g247951-PA:Nematostella_vectensis","Scaffold1",1406370,1407815]
[["NEMVEDRAFT_v1g207834-PA:Nematostella_vectensis","Scaffold1:hit:15112:3.10.0.14"],"blastx_Cnidaria","NEMVEDRAFT_v1g207834-PA:Nematostella_vectensis","Scaffold1",1411838,1414817]
[["NEMVEDRAFT_v1g120257-PA:Nematostella_vectensis","Scaffold1:hit:15250:3.10.0.14"],"blastx_Cnidaria","NEMVEDRAFT_v1g120257-PA:Nematostella_vectensis","Scaffold1",1413885,1414576]
[["NEMVEDRAFT_v1g93027-PA:Nematostella_vectensis","Scaffold1:hit:15164:3.10.0.14"],"blastx_Cnidaria","NEMVEDRAFT_v1g93027-PA:Nematostella_vectensis","Scaffold1",1413948,1414588]
[["NEMVEDRAFT_v1g95129-PA:Nematostella_vectensis","Scaffold1:hit:15242:3.10.0.14"],"blastx_Cnidaria","NEMVEDRAFT_v1g95129-PA:Nematostella_vectensis","Scaffold1",1413966,1414576]
[["NEMVEDRAFT_v1g155794-PA:Nematostella_vectensis","Scaffold1:hit:15167:3.10.0.14"],"blastx_Cnidaria","NEMVEDRAFT_v1g155794-PA:Nematostella_vectensis","Scaffold1",1413966,1414308]
[["NEMVEDRAFT_v1g184645-PA:Nematostella_vectensis","Scaffold1:hit:15246:3.10.0.14"],"blastx_Cnidaria","NEMVEDRAFT_v1g184645-PA:Nematostella_vectensis","Scaffold1",1413972,1414576]
[["NEMVEDRAFT_v1g94804-PA:Nematostella_vectensis","Scaffold1:hit:15122:3.10.0.14"],"blastx_Cnidaria","NEMVEDRAFT_v1g94804-PA:Nematostella_vectensis","Scaffold1",1413975,1414606]
[["NEMVEDRAFT_v1g161733-PA:Nematostella_vectensis","Scaffold1:hit:15206:3.10.0.14"],"blastx_Cnidaria","NEMVEDRAFT_v1g161733-PA:Nematostella_vectensis","Scaffold1",1413975,1414585]
[["NEMVEDRAFT_v1g232331-PA:Nematostella_vectensis","Scaffold1:hit:15298:3.10.0.14"],"blastx_Cnidaria","NEMVEDRAFT_v1g232331-PA:Nematostella_vectensis","Scaffold1",1415619,1418414]
[["NEMVEDRAFT_v1g30373-PA:Nematostella_vectensis","Scaffold1:hit:15331:3.10.0.14"],"blastx_Cnidaria","NEMVEDRAFT_v1g30373-PA:Nematostella_vectensis","Scaffold1",1419703,1422547]
[["NEMVEDRAFT_v1g94893-PA:Nematostella_vectensis","Scaffold1:hit:15836:3.10.0.15"],"blastx_Cnidaria","NEMVEDRAFT_v1g94893-PA:Nematostella_vectensis","Scaffold1",1504675,1509821]
[["NEMVEDRAFT_v1g99775-PA:Nematostella_vectensis","Scaffold1:hit:15880:3.10.0.15"],"blastx_Cnidaria","NEMVEDRAFT_v1g99775-PA:Nematostella_vectensis","Scaffold1",1525853,1528124]
[["NEMVEDRAFT_v1g163801-PA:Nematostella_vectensis","Scaffold1:hit:15900:3.10.0.15"],"blastx_Cnidaria","NEMVEDRAFT_v1g163801-PA:Nematostella_vectensis","Scaffold1",1535444,1539424]
[["NEMVEDRAFT_v1g117546-PA:Nematostella_vectensis","Scaffold1:hit:16016:3.10.0.15"],"blastx_Cnidaria","NEMVEDRAFT_v1g117546-PA:Nematostella_vectensis","Scaffold1",1542895,1544143]
[["NEMVEDRAFT_v1g193399-PA:Nematostella_vectensis","Scaffold1:hit:16006:3.10.0.15"],"blastx_Cnidaria","NEMVEDRAFT_v1g193399-PA:Nematostella_vectensis","Scaffold1",1542910,1543990]
[["NEMVEDRAFT_v1g218982-PA:Nematostella_vectensis","Scaffold1:hit:16011:3.10.0.15"],"blastx_Cnidaria","NEMVEDRAFT_v1g218982-PA:Nematostella_vectensis","Scaffold1",1542916,1544047]
[["NEMVEDRAFT_v1g246040-PA:Nematostella_vectensis","Scaffold1:hit:16073:3.10.0.15"],"blastx_Cnidaria","NEMVEDRAFT_v1g246040-PA:Nematostella_vectensis","Scaffold1",1547075,1547777]
[["NEMVEDRAFT_v1g223278-PA:Nematostella_vectensis","Scaffold1:hit:16162:3.10.0.15"],"blastx_Cnidaria","NEMVEDRAFT_v1g223278-PA:Nematostella_vectensis","Scaffold1",1558104,1558611]
[["NEMVEDRAFT_v1g85930-PA:Nematostella_vectensis","Scaffold1:hit:16202:3.10.0.15"],"blastx_Cnidaria","NEMVEDRAFT_v1g85930-PA:Nematostella_vectensis","Scaffold1",1559643,1561803]
[["NEMVEDRAFT_v1g190019-PA:Nematostella_vectensis","Scaffold1:hit:16588:3.10.0.15"],"blastx_Cnidaria","NEMVEDRAFT_v1g190019-PA:Nematostella_vectensis","Scaffold1",1575498,1576241]
[["NEMVEDRAFT_v1g180651-PA:Nematostella_vectensis","Scaffold1:hit:16648:3.10.0.15"],"blastx_Cnidaria","NEMVEDRAFT_v1g180651-PA:Nematostella_vectensis","Scaffold1",1575498,1576184]
[["NEMVEDRAFT_v1g228590-PA:Nematostella_vectensis","Scaffold1:hit:16367:3.10.0.15"],"blastx_Cnidaria","NEMVEDRAFT_v1g228590-PA:Nematostella_vectensis","Scaffold1",1575498,1576184]
[["NEMVEDRAFT_v1g181181-PA:Nematostella_vectensis","Scaffold1:hit:16293:3.10.0.15"],"blastx_Cnidaria","NEMVEDRAFT_v1g181181-PA:Nematostella_vectensis","Scaffold1",1575498,1576178]
[["NEMVEDRAFT_v1g61624-PA:Nematostella_vectensis","Scaffold1:hit:16446:3.10.0.15"],"blastx_Cnidaria","NEMVEDRAFT_v1g61624-PA:Nematostella_vectensis","Scaffold1",1575519,1576154]
[["NEMVEDRAFT_v1g137579-PA:Nematostella_vectensis","Scaffold1:hit:16599:3.10.0.15"],"blastx_Cnidaria","NEMVEDRAFT_v1g137579-PA:Nematostella_vectensis","Scaffold1",1575525,1576208]
[["NEMVEDRAFT_v1g94679-PA:Nematostella_vectensis","Scaffold1:hit:16320:3.10.0.15"],"blastx_Cnidaria","NEMVEDRAFT_v1g94679-PA:Nematostella_vectensis","Scaffold1",1575525,1576061]
[["NEMVEDRAFT_v1g137586-PA:Nematostella_vectensis","Scaffold1:hit:16467:3.10.0.15"],"blastx_Cnidaria","NEMVEDRAFT_v1g137586-PA:Nematostella_vectensis","Scaffold1",1575546,1576199]
[["NEMVEDRAFT_v1g200667-PA:Nematostella_vectensis","Scaffold1:hit:17218:3.10.0.16"],"blastx_Cnidaria","NEMVEDRAFT_v1g200667-PA:Nematostella_vectensis","Scaffold1",1593376,1595265]
[["NEMVEDRAFT_v1g120202-PA:Nematostella_vectensis","Scaffold1:hit:17159:3.10.0.16"],"blastx_Cnidaria","NEMVEDRAFT_v1g120202-PA:Nematostella_vectensis","Scaffold1",1594248,1595187]
[["NEMVEDRAFT_v1g20898-PA:Nematostella_vectensis","Scaffold1:hit:17227:3.10.0.16"],"blastx_Cnidaria","NEMVEDRAFT_v1g20898-PA:Nematostella_vectensis","Scaffold1",1594296,1595352]
[["NEMVEDRAFT_v1g224475-PA:Nematostella_vectensis","Scaffold1:hit:17239:3.10.0.16"],"blastx_Cnidaria","NEMVEDRAFT_v1g224475-PA:Nematostella_vectensis","Scaffold1",1603404,1603542]
[["NEMVEDRAFT_v1g27085-PA:Nematostella_vectensis","Scaffold1:hit:17240:3.10.0.16"],"blastx_Cnidaria","NEMVEDRAFT_v1g27085-PA:Nematostella_vectensis","Scaffold1",1603428,1603817]
[["NEMVEDRAFT_v1g117252-PA:Nematostella_vectensis","Scaffold1:hit:17282:3.10.0.16"],"blastx_Cnidaria","NEMVEDRAFT_v1g117252-PA:Nematostella_vectensis","Scaffold1",1610850,1611018]
[["NEMVEDRAFT_v1g227192-PA:Nematostella_vectensis","Scaffold1:hit:17339:3.10.0.16"],"blastx_Cnidaria","NEMVEDRAFT_v1g227192-PA:Nematostella_vectensis","Scaffold1",1616383,1616862]
[["NEMVEDRAFT_v1g50340-PA:Nematostella_vectensis","Scaffold1:hit:17417:3.10.0.16"],"blastx_Cnidaria","NEMVEDRAFT_v1g50340-PA:Nematostella_vectensis","Scaffold1",1681386,1682502]
[["NEMVEDRAFT_v1g231022-PA:Nematostella_vectensis","Scaffold1:hit:17456:3.10.0.16"],"blastx_Cnidaria","NEMVEDRAFT_v1g231022-PA:Nematostella_vectensis","Scaffold1",1685162,1686903]
[["NEMVEDRAFT_v1g129991-PA:Nematostella_vectensis","Scaffold1:hit:17796:3.10.0.17"],"blastx_Cnidaria","NEMVEDRAFT_v1g129991-PA:Nematostella_vectensis","Scaffold1",1693909,1695033]
[["NEMVEDRAFT_v1g243273-PA:Nematostella_vectensis","Scaffold1:hit:17835:3.10.0.17"],"blastx_Cnidaria","NEMVEDRAFT_v1g243273-PA:Nematostella_vectensis","Scaffold1",1698497,1705221]
[["NEMVEDRAFT_v1g85993-PA:Nematostella_vectensis","Scaffold1:hit:17895:3.10.0.17"],"blastx_Cnidaria","NEMVEDRAFT_v1g85993-PA:Nematostella_vectensis","Scaffold1",1711024,1712197]
[["NEMVEDRAFT_v1g85345-PA:Nematostella_vectensis","Scaffold1:hit:17875:3.10.0.17"],"blastx_Cnidaria","NEMVEDRAFT_v1g85345-PA:Nematostella_vectensis","Scaffold1",1711024,1712170]
[["NEMVEDRAFT_v1g110126-PA:Nematostella_vectensis","Scaffold1:hit:17950:3.10.0.17"],"blastx_Cnidaria","NEMVEDRAFT_v1g110126-PA:Nematostella_vectensis","Scaffold1",1711024,1712167]
[["NEMVEDRAFT_v1g80257-PA:Nematostella_vectensis","Scaffold1:hit:18012:3.10.0.17"],"blastx_Cnidaria","NEMVEDRAFT_v1g80257-PA:Nematostella_vectensis","Scaffold1",1713658,1713862]
[["NEMVEDRAFT_v1g136105-PA:Nematostella_vectensis","Scaffold1:hit:18048:3.10.0.17"],"blastx_Cnidaria","NEMVEDRAFT_v1g136105-PA:Nematostella_vectensis","Scaffold1",1721626,1721761]
[["NEMVEDRAFT_v1g191566-PA:Nematostella_vectensis","Scaffold1:hit:18080:3.10.0.17"],"blastx_Cnidaria","NEMVEDRAFT_v1g191566-PA:Nematostella_vectensis","Scaffold1",1722190,1727656]
[["NEMVEDRAFT_v1g79816-PA:Nematostella_vectensis","Scaffold1:hit:18093:3.10.0.17"],"blastx_Cnidaria","NEMVEDRAFT_v1g79816-PA:Nematostella_vectensis","Scaffold1",1729241,1729905]
[["NEMVEDRAFT_v1g241055-PA:Nematostella_vectensis","Scaffold1:hit:18100:3.10.0.17"],"blastx_Cnidaria","NEMVEDRAFT_v1g241055-PA:Nematostella_vectensis","Scaffold1",1729253,1732612]
[["NEMVEDRAFT_v1g116562-PA:Nematostella_vectensis","Scaffold1:hit:18129:3.10.0.17"],"blastx_Cnidaria","NEMVEDRAFT_v1g116562-PA:Nematostella_vectensis","Scaffold1",1735582,1736549]
[["NEMVEDRAFT_v1g197000-PA:Nematostella_vectensis","Scaffold1:hit:18251:3.10.0.17"],"blastx_Cnidaria","NEMVEDRAFT_v1g197000-PA:Nematostella_vectensis","Scaffold1",1744256,1745478]
[["NEMVEDRAFT_v1g215593-PA:Nematostella_vectensis","Scaffold1:hit:18246:3.10.0.17"],"blastx_Cnidaria","NEMVEDRAFT_v1g215593-PA:Nematostella_vectensis","Scaffold1",1744256,1745478]
[["NEMVEDRAFT_v1g207743-PA:Nematostella_vectensis","Scaffold1:hit:18301:3.10.0.17"],"blastx_Cnidaria","NEMVEDRAFT_v1g207743-PA:Nematostella_vectensis","Scaffold1",1744584,1745535]
[["NEMVEDRAFT_v1g239568-PA:Nematostella_vectensis","Scaffold1:hit:18258:3.10.0.17"],"blastx_Cnidaria","NEMVEDRAFT_v1g239568-PA:Nematostella_vectensis","Scaffold1",1744584,1745484]
[["NEMVEDRAFT_v1g88035-PA:Nematostella_vectensis","Scaffold1:hit:18300:3.10.0.17"],"blastx_Cnidaria","NEMVEDRAFT_v1g88035-PA:Nematostella_vectensis","Scaffold1",1744584,1745484]
[["NEMVEDRAFT_v1g100576-PA:Nematostella_vectensis","Scaffold1:hit:18247:3.10.0.17"],"blastx_Cnidaria","NEMVEDRAFT_v1g100576-PA:Nematostella_vectensis","Scaffold1",1744584,1745484]
[["NEMVEDRAFT_v1g234345-PA:Nematostella_vectensis","Scaffold1:hit:18199:3.10.0.17"],"blastx_Cnidaria","NEMVEDRAFT_v1g234345-PA:Nematostella_vectensis","Scaffold1",1744584,1745484]
[["NEMVEDRAFT_v1g215592-PA:Nematostella_vectensis","Scaffold1:hit:18296:3.10.0.17"],"blastx_Cnidaria","NEMVEDRAFT_v1g215592-PA:Nematostella_vectensis","Scaffold1",1744584,1745478]
[["NEMVEDRAFT_v1g177762-PA:Nematostella_vectensis","Scaffold1:hit:18355:3.10.0.17"],"blastx_Cnidaria","NEMVEDRAFT_v1g177762-PA:Nematostella_vectensis","Scaffold1",1791427,1792983]
[["NEMVEDRAFT_v1g122745-PA:Nematostella_vectensis","Scaffold1:hit:19306:3.10.0.19"],"blastx_Cnidaria","NEMVEDRAFT_v1g122745-PA:Nematostella_vectensis","Scaffold1",1955451,1955755]
[["NEMVEDRAFT_v1g247537-PA:Nematostella_vectensis","Scaffold1:hit:19299:3.10.0.19"],"blastx_Cnidaria","NEMVEDRAFT_v1g247537-PA:Nematostella_vectensis","Scaffold1",1956196,1959650]
[["NEMVEDRAFT_v1g89298-PA:Nematostella_vectensis","Scaffold1:hit:19359:3.10.0.19"],"blastx_Cnidaria","NEMVEDRAFT_v1g89298-PA:Nematostella_vectensis","Scaffold1",1973433,1976355]
[["NEMVEDRAFT_v1g236562-PA:Nematostella_vectensis","Scaffold1:hit:19427:3.10.0.19"],"blastx_Cnidaria","NEMVEDRAFT_v1g236562-PA:Nematostella_vectensis","Scaffold1",1977373,1977938]
[["NEMVEDRAFT_v1g99837-PA:Nematostella_vectensis","Scaffold1:hit:19404:3.10.0.19"],"blastx_Cnidaria","NEMVEDRAFT_v1g99837-PA:Nematostella_vectensis","Scaffold1",1977391,1977935]
[["NEMVEDRAFT_v1g114642-PA:Nematostella_vectensis","Scaffold1:hit:19399:3.10.0.19"],"blastx_Cnidaria","NEMVEDRAFT_v1g114642-PA:Nematostella_vectensis","Scaffold1",1977397,1977914]
[["NEMVEDRAFT_v1g48919-PA:Nematostella_vectensis","Scaffold1:hit:19422:3.10.0.19"],"blastx_Cnidaria","NEMVEDRAFT_v1g48919-PA:Nematostella_vectensis","Scaffold1",1977406,1977661]
[["NEMVEDRAFT_v1g181123-PA:Nematostella_vectensis","Scaffold1:hit:19458:3.10.0.19"],"blastx_Cnidaria","NEMVEDRAFT_v1g181123-PA:Nematostella_vectensis","Scaffold1",1977409,1977947]
[["NEMVEDRAFT_v1g81972-PA:Nematostella_vectensis","Scaffold1:hit:19387:3.10.0.19"],"blastx_Cnidaria","NEMVEDRAFT_v1g81972-PA:Nematostella_vectensis","Scaffold1",1977439,1977917]
[["NEMVEDRAFT_v1g24847-PA:Nematostella_vectensis","Scaffold1:hit:19482:3.10.0.19"],"blastx_Cnidaria","NEMVEDRAFT_v1g24847-PA:Nematostella_vectensis","Scaffold1",1988301,1989105]
[["NEMVEDRAFT_v1g135623-PA:Nematostella_vectensis","Scaffold1:hit:19480:3.10.0.19"],"blastx_Cnidaria","NEMVEDRAFT_v1g135623-PA:Nematostella_vectensis","Scaffold1",1988301,1988916]
[["NEMVEDRAFT_v1g88037-PA:Nematostella_vectensis","Scaffold1:hit:19736:3.10.0.20"],"blastx_Cnidaria","NEMVEDRAFT_v1g88037-PA:Nematostella_vectensis","Scaffold1",1994236,2004330]
[["NEMVEDRAFT_v1g160416-PA:Nematostella_vectensis","Scaffold1:hit:19932:3.10.0.20"],"blastx_Cnidaria","NEMVEDRAFT_v1g160416-PA:Nematostella_vectensis","Scaffold1",2036705,2038176]
[["NEMVEDRAFT_v1g214798-PA:Nematostella_vectensis","Scaffold1:hit:20000:3.10.0.20"],"blastx_Cnidaria","NEMVEDRAFT_v1g214798-PA:Nematostella_vectensis","Scaffold1",2047552,2052524]
[["NEMVEDRAFT_v1g100191-PA:Nematostella_vectensis","Scaffold1:hit:19996:3.10.0.20"],"blastx_Cnidaria","NEMVEDRAFT_v1g100191-PA:Nematostella_vectensis","Scaffold1",2047558,2052521]
[["NEMVEDRAFT_v1g47988-PA:Nematostella_vectensis","Scaffold1:hit:20037:3.10.0.20"],"blastx_Cnidaria","NEMVEDRAFT_v1g47988-PA:Nematostella_vectensis","Scaffold1",2052287,2052506]
[["NEMVEDRAFT_v1g244707-PA:Nematostella_vectensis","Scaffold1:hit:20107:3.10.0.20"],"blastx_Cnidaria","NEMVEDRAFT_v1g244707-PA:Nematostella_vectensis","Scaffold1",2067316,2079255]
[["NEMVEDRAFT_v1g143532-PA:Nematostella_vectensis","Scaffold1:hit:20412:3.10.0.20"],"blastx_Cnidaria","NEMVEDRAFT_v1g143532-PA:Nematostella_vectensis","Scaffold1",2087867,2088233]
[["NEMVEDRAFT_v1g230928-PA:Nematostella_vectensis","Scaffold1:hit:20678:3.10.0.20"],"blastx_Cnidaria","NEMVEDRAFT_v1g230928-PA:Nematostella_vectensis","Scaffold1",2087888,2088206]
[["NEMVEDRAFT_v1g1783-PA:Nematostella_vectensis","Scaffold1:hit:20286:3.10.0.20"],"blastx_Cnidaria","NEMVEDRAFT_v1g1783-PA:Nematostella_vectensis","Scaffold1",2087921,2088203]
[["NEMVEDRAFT_v1g244929-PA:Nematostella_vectensis","Scaffold1:hit:20559:3.10.0.20"],"blastx_Cnidaria","NEMVEDRAFT_v1g244929-PA:Nematostella_vectensis","Scaffold1",2087927,2088506]
[["NEMVEDRAFT_v1g228271-PA:Nematostella_vectensis","Scaffold1:hit:20839:3.10.0.20"],"blastx_Cnidaria","NEMVEDRAFT_v1g228271-PA:Nematostella_vectensis","Scaffold1",2087930,2088296]
[["NEMVEDRAFT_v1g98639-PA:Nematostella_vectensis","Scaffold1:hit:20579:3.10.0.20"],"blastx_Cnidaria","NEMVEDRAFT_v1g98639-PA:Nematostella_vectensis","Scaffold1",2087930,2088221]
[["NEMVEDRAFT_v1g96522-PA:Nematostella_vectensis","Scaffold1:hit:20348:3.10.0.20"],"blastx_Cnidaria","NEMVEDRAFT_v1g96522-PA:Nematostella_vectensis","Scaffold1",2087936,2088365]
[["NEMVEDRAFT_v1g104327-PA:Nematostella_vectensis","Scaffold1:hit:20216:3.10.0.20"],"blastx_Cnidaria","NEMVEDRAFT_v1g104327-PA:Nematostella_vectensis","Scaffold1",2087936,2088365]
[["NEMVEDRAFT_v1g14714-PA:Nematostella_vectensis","Scaffold1:hit:20895:3.10.0.20"],"blastx_Cnidaria","NEMVEDRAFT_v1g14714-PA:Nematostella_vectensis","Scaffold1",2087936,2088362]
[["NEMVEDRAFT_v1g141921-PA:Nematostella_vectensis","Scaffold1:hit:20470:3.10.0.20"],"blastx_Cnidaria","NEMVEDRAFT_v1g141921-PA:Nematostella_vectensis","Scaffold1",2087936,2088362]
[["NEMVEDRAFT_v1g113856-PA:Nematostella_vectensis","Scaffold1:hit:20482:3.10.0.20"],"blastx_Cnidaria","NEMVEDRAFT_v1g113856-PA:Nematostella_vectensis","Scaffold1",2087936,2088260]
[["NEMVEDRAFT_v1g231585-PA:Nematostella_vectensis","Scaffold1:hit:20523:3.10.0.20"],"blastx_Cnidaria","NEMVEDRAFT_v1g231585-PA:Nematostella_vectensis","Scaffold1",2087936,2088239]
[["NEMVEDRAFT_v1g120836-PA:Nematostella_vectensis","Scaffold1:hit:20785:3.10.0.20"],"blastx_Cnidaria","NEMVEDRAFT_v1g120836-PA:Nematostella_vectensis","Scaffold1",2087936,2088224]
[["NEMVEDRAFT_v1g39805-PA:Nematostella_vectensis","Scaffold1:hit:20662:3.10.0.20"],"blastx_Cnidaria","NEMVEDRAFT_v1g39805-PA:Nematostella_vectensis","Scaffold1",2087936,2088203]
[["NEMVEDRAFT_v1g135766-PA:Nematostella_vectensis","Scaffold1:hit:20231:3.10.0.20"],"blastx_Cnidaria","NEMVEDRAFT_v1g135766-PA:Nematostella_vectensis","Scaffold1",2087936,2088203]
[["NEMVEDRAFT_v1g101900-PA:Nematostella_vectensis","Scaffold1:hit:20847:3.10.0.20"],"blastx_Cnidaria","NEMVEDRAFT_v1g101900-PA:Nematostella_vectensis","Scaffold1",2087936,2088200]
[["NEMVEDRAFT_v1g68554-PA:Nematostella_vectensis","Scaffold1:hit:20609:3.10.0.20"],"blastx_Cnidaria","NEMVEDRAFT_v1g68554-PA:Nematostella_vectensis","Scaffold1",2087936,2088071]
[["NEMVEDRAFT_v1g108729-PA:Nematostella_vectensis","Scaffold1:hit:20818:3.10.0.20"],"blastx_Cnidaria","NEMVEDRAFT_v1g108729-PA:Nematostella_vectensis","Scaffold1",2087939,2088251]
[["NEMVEDRAFT_v1g85918-PA:Nematostella_vectensis","Scaffold1:hit:20826:3.10.0.20"],"blastx_Cnidaria","NEMVEDRAFT_v1g85918-PA:Nematostella_vectensis","Scaffold1",2087939,2088218]
[["NEMVEDRAFT_v1g107193-PA:Nematostella_vectensis","Scaffold1:hit:20353:3.10.0.20"],"blastx_Cnidaria","NEMVEDRAFT_v1g107193-PA:Nematostella_vectensis","Scaffold1",2087942,2088272]
[["NEMVEDRAFT_v1g25237-PA:Nematostella_vectensis","Scaffold1:hit:20754:3.10.0.20"],"blastx_Cnidaria","NEMVEDRAFT_v1g25237-PA:Nematostella_vectensis","Scaffold1",2087945,2088356]
[["NEMVEDRAFT_v1g33694-PA:Nematostella_vectensis","Scaffold1:hit:20535:3.10.0.20"],"blastx_Cnidaria","NEMVEDRAFT_v1g33694-PA:Nematostella_vectensis","Scaffold1",2087945,2088353]
[["NEMVEDRAFT_v1g34342-PA:Nematostella_vectensis","Scaffold1:hit:20449:3.10.0.20"],"blastx_Cnidaria","NEMVEDRAFT_v1g34342-PA:Nematostella_vectensis","Scaffold1",2087945,2088302]
[["NEMVEDRAFT_v1g25267-PA:Nematostella_vectensis","Scaffold1:hit:20201:3.10.0.20"],"blastx_Cnidaria","NEMVEDRAFT_v1g25267-PA:Nematostella_vectensis","Scaffold1",2087945,2088299]
[["NEMVEDRAFT_v1g82548-PA:Nematostella_vectensis","Scaffold1:hit:20658:3.10.0.20"],"blastx_Cnidaria","NEMVEDRAFT_v1g82548-PA:Nematostella_vectensis","Scaffold1",2087945,2088281]
[["NEMVEDRAFT_v1g229565-PA:Nematostella_vectensis","Scaffold1:hit:20875:3.10.0.20"],"blastx_Cnidaria","NEMVEDRAFT_v1g229565-PA:Nematostella_vectensis","Scaffold1",2087945,2088281]
[["NEMVEDRAFT_v1g123933-PA:Nematostella_vectensis","Scaffold1:hit:20567:3.10.0.20"],"blastx_Cnidaria","NEMVEDRAFT_v1g123933-PA:Nematostella_vectensis","Scaffold1",2087945,2088242]
[["NEMVEDRAFT_v1g3320-PA:Nematostella_vectensis","Scaffold1:hit:20388:3.10.0.20"],"blastx_Cnidaria","NEMVEDRAFT_v1g3320-PA:Nematostella_vectensis","Scaffold1",2087945,2088227]
[["NEMVEDRAFT_v1g20538-PA:Nematostella_vectensis","Scaffold1:hit:20667:3.10.0.20"],"blastx_Cnidaria","NEMVEDRAFT_v1g20538-PA:Nematostella_vectensis","Scaffold1",2087945,2088227]
[["NEMVEDRAFT_v1g123077-PA:Nematostella_vectensis","Scaffold1:hit:20917:3.10.0.20"],"blastx_Cnidaria","NEMVEDRAFT_v1g123077-PA:Nematostella_vectensis","Scaffold1",2087945,2088224]
[["NEMVEDRAFT_v1g80425-PA:Nematostella_vectensis","Scaffold1:hit:20327:3.10.0.20"],"blastx_Cnidaria","NEMVEDRAFT_v1g80425-PA:Nematostella_vectensis","Scaffold1",2087945,2088221]
[["NEMVEDRAFT_v1g83807-PA:Nematostella_vectensis","Scaffold1:hit:20505:3.10.0.20"],"blastx_Cnidaria","NEMVEDRAFT_v1g83807-PA:Nematostella_vectensis","Scaffold1",2087945,2088221]
[["NEMVEDRAFT_v1g89106-PA:Nematostella_vectensis","Scaffold1:hit:20708:3.10.0.20"],"blastx_Cnidaria","NEMVEDRAFT_v1g89106-PA:Nematostella_vectensis","Scaffold1",2087945,2088221]
[["NEMVEDRAFT_v1g92831-PA:Nematostella_vectensis","Scaffold1:hit:20644:3.10.0.20"],"blastx_Cnidaria","NEMVEDRAFT_v1g92831-PA:Nematostella_vectensis","Scaffold1",2087945,2088218]
[["NEMVEDRAFT_v1g19278-PA:Nematostella_vectensis","Scaffold1:hit:20682:3.10.0.20"],"blastx_Cnidaria","NEMVEDRAFT_v1g19278-PA:Nematostella_vectensis","Scaffold1",2087945,2088218]
[["NEMVEDRAFT_v1g39461-PA:Nematostella_vectensis","Scaffold1:hit:20530:3.10.0.20"],"blastx_Cnidaria","NEMVEDRAFT_v1g39461-PA:Nematostella_vectensis","Scaffold1",2087945,2088218]
[["NEMVEDRAFT_v1g145714-PA:Nematostella_vectensis","Scaffold1:hit:20726:3.10.0.20"],"blastx_Cnidaria","NEMVEDRAFT_v1g145714-PA:Nematostella_vectensis","Scaffold1",2087945,2088218]
[["NEMVEDRAFT_v1g27142-PA:Nematostella_vectensis","Scaffold1:hit:20194:3.10.0.20"],"blastx_Cnidaria","NEMVEDRAFT_v1g27142-PA:Nematostella_vectensis","Scaffold1",2087945,2088218]
[["NEMVEDRAFT_v1g184315-PA:Nematostella_vectensis","Scaffold1:hit:20614:3.10.0.20"],"blastx_Cnidaria","NEMVEDRAFT_v1g184315-PA:Nematostella_vectensis","Scaffold1",2087945,2088218]
[["NEMVEDRAFT_v1g225627-PA:Nematostella_vectensis","Scaffold1:hit:20915:3.10.0.20"],"blastx_Cnidaria","NEMVEDRAFT_v1g225627-PA:Nematostella_vectensis","Scaffold1",2087945,2088218]
[["NEMVEDRAFT_v1g100176-PA:Nematostella_vectensis","Scaffold1:hit:20937:3.10.0.20"],"blastx_Cnidaria","NEMVEDRAFT_v1g100176-PA:Nematostella_vectensis","Scaffold1",2087945,2088215]
[["NEMVEDRAFT_v1g152262-PA:Nematostella_vectensis","Scaffold1:hit:20730:3.10.0.20"],"blastx_Cnidaria","NEMVEDRAFT_v1g152262-PA:Nematostella_vectensis","Scaffold1",2087945,2088200]
[["NEMVEDRAFT_v1g37085-PA:Nematostella_vectensis","Scaffold1:hit:20274:3.10.0.20"],"blastx_Cnidaria","NEMVEDRAFT_v1g37085-PA:Nematostella_vectensis","Scaffold1",2087945,2088194]
[["NEMVEDRAFT_v1g127253-PA:Nematostella_vectensis","Scaffold1:hit:20686:3.10.0.20"],"blastx_Cnidaria","NEMVEDRAFT_v1g127253-PA:Nematostella_vectensis","Scaffold1",2087945,2088173]
[["NEMVEDRAFT_v1g84782-PA:Nematostella_vectensis","Scaffold1:hit:20796:3.10.0.20"],"blastx_Cnidaria","NEMVEDRAFT_v1g84782-PA:Nematostella_vectensis","Scaffold1",2087951,2088221]
[["NEMVEDRAFT_v1g162421-PA:Nematostella_vectensis","Scaffold1:hit:21472:3.10.0.21"],"blastx_Cnidaria","NEMVEDRAFT_v1g162421-PA:Nematostella_vectensis","Scaffold1",2094775,2100588]
[["NEMVEDRAFT_v1g3943-PA:Nematostella_vectensis","Scaffold1:hit:21510:3.10.0.21"],"blastx_Cnidaria","NEMVEDRAFT_v1g3943-PA:Nematostella_vectensis","Scaffold1",2113486,2113901]
[["NEMVEDRAFT_v1g114254-PA:Nematostella_vectensis","Scaffold1:hit:21585:3.10.0.21"],"blastx_Cnidaria","NEMVEDRAFT_v1g114254-PA:Nematostella_vectensis","Scaffold1",2145626,2146586]
[["NEMVEDRAFT_v1g169697-PA:Nematostella_vectensis","Scaffold1:hit:21648:3.10.0.21"],"blastx_Cnidaria","NEMVEDRAFT_v1g169697-PA:Nematostella_vectensis","Scaffold1",2148065,2148248]
[["NEMVEDRAFT_v1g181003-PA:Nematostella_vectensis","Scaffold1:hit:21635:3.10.0.21"],"blastx_Cnidaria","NEMVEDRAFT_v1g181003-PA:Nematostella_vectensis","Scaffold1",2148065,2148242]
[["NEMVEDRAFT_v1g204860-PA:Nematostella_vectensis","Scaffold1:hit:21651:3.10.0.21"],"blastx_Cnidaria","NEMVEDRAFT_v1g204860-PA:Nematostella_vectensis","Scaffold1",2157214,2158405]
[["NEMVEDRAFT_v1g221515-PA:Nematostella_vectensis","Scaffold1:hit:21721:3.10.0.21"],"blastx_Cnidaria","NEMVEDRAFT_v1g221515-PA:Nematostella_vectensis","Scaffold1",2169807,2171223]
[["NEMVEDRAFT_v1g175414-PA:Nematostella_vectensis","Scaffold1:hit:21749:3.10.0.21"],"blastx_Cnidaria","NEMVEDRAFT_v1g175414-PA:Nematostella_vectensis","Scaffold1",2178894,2186804]
[["NEMVEDRAFT_v1g185477-PA:Nematostella_vectensis","Scaffold1:hit:22072:3.10.0.22"],"blastx_Cnidaria","NEMVEDRAFT_v1g185477-PA:Nematostella_vectensis","Scaffold1",2193667,2195098]
[["NEMVEDRAFT_v1g229686-PA:Nematostella_vectensis","Scaffold1:hit:22065:3.10.0.22"],"blastx_Cnidaria","NEMVEDRAFT_v1g229686-PA:Nematostella_vectensis","Scaffold1",2193697,2195098]
[["NEMVEDRAFT_v1g165971-PA:Nematostella_vectensis","Scaffold1:hit:22123:3.10.0.22"],"blastx_Cnidaria","NEMVEDRAFT_v1g165971-PA:Nematostella_vectensis","Scaffold1",2197370,2197996]
[["NEMVEDRAFT_v1g163012-PA:Nematostella_vectensis","Scaffold1:hit:22170:3.10.0.22"],"blastx_Cnidaria","NEMVEDRAFT_v1g163012-PA:Nematostella_vectensis","Scaffold1",2198547,2199052]
[["NEMVEDRAFT_v1g65453-PA:Nematostella_vectensis","Scaffold1:hit:22137:3.10.0.22"],"blastx_Cnidaria","NEMVEDRAFT_v1g65453-PA:Nematostella_vectensis","Scaffold1",2198700,2199016]
[["NEMVEDRAFT_v1g134675-PA:Nematostella_vectensis","Scaffold1:hit:22207:3.10.0.22"],"blastx_Cnidaria","NEMVEDRAFT_v1g134675-PA:Nematostella_vectensis","Scaffold1",2203909,2204916]
[["NEMVEDRAFT_v1g5735-PA:Nematostella_vectensis","Scaffold1:hit:22202:3.10.0.22"],"blastx_Cnidaria","NEMVEDRAFT_v1g5735-PA:Nematostella_vectensis","Scaffold1",2204236,2204482]
[["NEMVEDRAFT_v1g232572-PA:Nematostella_vectensis","Scaffold1:hit:22312:3.10.0.22"],"blastx_Cnidaria","NEMVEDRAFT_v1g232572-PA:Nematostella_vectensis","Scaffold1",2255229,2255481]
[["NEMVEDRAFT_v1g247094-PA:Nematostella_vectensis","Scaffold1:hit:22349:3.10.0.22"],"blastx_Cnidaria","NEMVEDRAFT_v1g247094-PA:Nematostella_vectensis","Scaffold1",2260537,2261139]
[["NEMVEDRAFT_v1g122269-PA:Nematostella_vectensis","Scaffold1:hit:22409:3.10.0.22"],"blastx_Cnidaria","NEMVEDRAFT_v1g122269-PA:Nematostella_vectensis","Scaffold1",2277012,2277615]
[["NEMVEDRAFT_v1g49419-PA:Nematostella_vectensis","Scaffold1:hit:22763:3.10.0.23"],"blastx_Cnidaria","NEMVEDRAFT_v1g49419-PA:Nematostella_vectensis","Scaffold1",2297204,2297342]
[["NEMVEDRAFT_v1g101334-PA:Nematostella_vectensis","Scaffold1:hit:22756:3.10.0.23"],"blastx_Cnidaria","NEMVEDRAFT_v1g101334-PA:Nematostella_vectensis","Scaffold1",2297207,2297339]
[["NEMVEDRAFT_v1g215928-PA:Nematostella_vectensis","Scaffold1:hit:22796:3.10.0.23"],"blastx_Cnidaria","NEMVEDRAFT_v1g215928-PA:Nematostella_vectensis","Scaffold1",2312655,2317751]
[["NEMVEDRAFT_v1g154689-PA:Nematostella_vectensis","Scaffold1:hit:22822:3.10.0.23"],"blastx_Cnidaria","NEMVEDRAFT_v1g154689-PA:Nematostella_vectensis","Scaffold1",2316330,2316456]
[["NEMVEDRAFT_v1g56347-PA:Nematostella_vectensis","Scaffold1:hit:22915:3.10.0.24"],"blastx_Cnidaria","NEMVEDRAFT_v1g56347-PA:Nematostella_vectensis","Scaffold1",2399445,2399706]
[["NEMVEDRAFT_v1g99878-PA:Nematostella_vectensis","Scaffold1:hit:22955:3.10.0.24"],"blastx_Cnidaria","NEMVEDRAFT_v1g99878-PA:Nematostella_vectensis","Scaffold1",2414682,2415697]
[["NEMVEDRAFT_v1g61545-PA:Nematostella_vectensis","Scaffold1:hit:22972:3.10.0.24"],"blastx_Cnidaria","NEMVEDRAFT_v1g61545-PA:Nematostella_vectensis","Scaffold1",2414682,2415685]
[["NEMVEDRAFT_v1g80169-PA:Nematostella_vectensis","Scaffold1:hit:23070:3.10.0.24"],"blastx_Cnidaria","NEMVEDRAFT_v1g80169-PA:Nematostella_vectensis","Scaffold1",2440257,2442886]
[["NEMVEDRAFT_v1g177384-PA:Nematostella_vectensis","Scaffold1:hit:23145:3.10.0.24"],"blastx_Cnidaria","NEMVEDRAFT_v1g177384-PA:Nematostella_vectensis","Scaffold1",2443313,2445001]
[["NEMVEDRAFT_v1g236271-PA:Nematostella_vectensis","Scaffold1:hit:23120:3.10.0.24"],"blastx_Cnidaria","NEMVEDRAFT_v1g236271-PA:Nematostella_vectensis","Scaffold1",2443313,2444998]
[["NEMVEDRAFT_v1g128612-PA:Nematostella_vectensis","Scaffold1:hit:23293:3.10.0.24"],"blastx_Cnidaria","NEMVEDRAFT_v1g128612-PA:Nematostella_vectensis","Scaffold1",2459767,2460063]
[["NEMVEDRAFT_v1g128552-PA:Nematostella_vectensis","Scaffold1:hit:23278:3.10.0.24"],"blastx_Cnidaria","NEMVEDRAFT_v1g128552-PA:Nematostella_vectensis","Scaffold1",2460802,2466969]
[["NEMVEDRAFT_v1g185314-PA:Nematostella_vectensis","Scaffold1:hit:23330:3.10.0.24"],"blastx_Cnidaria","NEMVEDRAFT_v1g185314-PA:Nematostella_vectensis","Scaffold1",2473268,2477065]
[["NEMVEDRAFT_v1g202761-PA:Nematostella_vectensis","Scaffold1:hit:23481:3.10.0.24"],"blastx_Cnidaria","NEMVEDRAFT_v1g202761-PA:Nematostella_vectensis","Scaffold1",2486158,2490168]
[["NEMVEDRAFT_v1g26678-PA:Nematostella_vectensis","Scaffold1:hit:23493:3.10.0.24"],"blastx_Cnidaria","NEMVEDRAFT_v1g26678-PA:Nematostella_vectensis","Scaffold1",2486185,2490171]
[["NEMVEDRAFT_v1g199162-PA:Nematostella_vectensis","Scaffold1:hit:23463:3.10.0.24"],"blastx_Cnidaria","NEMVEDRAFT_v1g199162-PA:Nematostella_vectensis","Scaffold1",2486254,2490177]
[["NEMVEDRAFT_v1g85456-PA:Nematostella_vectensis","Scaffold1:hit:23471:3.10.0.24"],"blastx_Cnidaria","NEMVEDRAFT_v1g85456-PA:Nematostella_vectensis","Scaffold1",2486254,2490174]
[["NEMVEDRAFT_v1g230980-PA:Nematostella_vectensis","Scaffold1:hit:23436:3.10.0.24"],"blastx_Cnidaria","NEMVEDRAFT_v1g230980-PA:Nematostella_vectensis","Scaffold1",2486260,2490171]
[["NEMVEDRAFT_v1g141808-PA:Nematostella_vectensis","Scaffold1:hit:23500:3.10.0.24"],"blastx_Cnidaria","NEMVEDRAFT_v1g141808-PA:Nematostella_vectensis","Scaffold1",2489794,2489974]
[["NEMVEDRAFT_v1g108976-PA:Nematostella_vectensis","Scaffold1:hit:23510:3.10.0.24"],"blastx_Cnidaria","NEMVEDRAFT_v1g108976-PA:Nematostella_vectensis","Scaffold1",2489851,2490177]
[["NEMVEDRAFT_v1g200609-PA:Nematostella_vectensis","Scaffold1:hit:23901:3.10.0.25"],"blastx_Cnidaria","NEMVEDRAFT_v1g200609-PA:Nematostella_vectensis","Scaffold1",2491074,2496191]
[["NEMVEDRAFT_v1g216270-PA:Nematostella_vectensis","Scaffold1:hit:23947:3.10.0.25"],"blastx_Cnidaria","NEMVEDRAFT_v1g216270-PA:Nematostella_vectensis","Scaffold1",2505729,2506119]
[["NEMVEDRAFT_v1g90580-PA:Nematostella_vectensis","Scaffold1:hit:24006:3.10.0.25"],"blastx_Cnidaria","NEMVEDRAFT_v1g90580-PA:Nematostella_vectensis","Scaffold1",2524105,2524822]
[["NEMVEDRAFT_v1g171734-PA:Nematostella_vectensis","Scaffold1:hit:23999:3.10.0.25"],"blastx_Cnidaria","NEMVEDRAFT_v1g171734-PA:Nematostella_vectensis","Scaffold1",2524525,2530164]
[["NEMVEDRAFT_v1g208105-PA:Nematostella_vectensis","Scaffold1:hit:24073:3.10.0.25"],"blastx_Cnidaria","NEMVEDRAFT_v1g208105-PA:Nematostella_vectensis","Scaffold1",2530774,2531352]
[["NEMVEDRAFT_v1g158628-PA:Nematostella_vectensis","Scaffold1:hit:24082:3.10.0.25"],"blastx_Cnidaria","NEMVEDRAFT_v1g158628-PA:Nematostella_vectensis","Scaffold1",2530789,2531358]
[["NEMVEDRAFT_v1g143837-PA:Nematostella_vectensis","Scaffold1:hit:24357:3.10.0.27"],"blastx_Cnidaria","NEMVEDRAFT_v1g143837-PA:Nematostella_vectensis","Scaffold1",2750297,2752127]
[["NEMVEDRAFT_v1g167880-PA:Nematostella_vectensis","Scaffold1:hit:24367:3.10.0.27"],"blastx_Cnidaria","NEMVEDRAFT_v1g167880-PA:Nematostella_vectensis","Scaffold1",2756060,2759747]
[["NEMVEDRAFT_v1g94673-PA:Nematostella_vectensis","Scaffold1:hit:24410:3.10.0.27"],"blastx_Cnidaria","NEMVEDRAFT_v1g94673-PA:Nematostella_vectensis","Scaffold1",2756060,2756282]
[["NEMVEDRAFT_v1g134436-PA:Nematostella_vectensis","Scaffold1:hit:24447:3.10.0.27"],"blastx_Cnidaria","NEMVEDRAFT_v1g134436-PA:Nematostella_vectensis","Scaffold1",2756063,2759599]
[["NEMVEDRAFT_v1g169225-PA:Nematostella_vectensis","Scaffold1:hit:24476:3.10.0.27"],"blastx_Cnidaria","NEMVEDRAFT_v1g169225-PA:Nematostella_vectensis","Scaffold1",2756066,2759759]
[["NEMVEDRAFT_v1g209681-PA:Nematostella_vectensis","Scaffold1:hit:24434:3.10.0.27"],"blastx_Cnidaria","NEMVEDRAFT_v1g209681-PA:Nematostella_vectensis","Scaffold1",2756069,2759789]
[["NEMVEDRAFT_v1g242271-PA:Nematostella_vectensis","Scaffold1:hit:24483:3.10.0.27"],"blastx_Cnidaria","NEMVEDRAFT_v1g242271-PA:Nematostella_vectensis","Scaffold1",2756069,2759780]
[["NEMVEDRAFT_v1g114090-PA:Nematostella_vectensis","Scaffold1:hit:24395:3.10.0.27"],"blastx_Cnidaria","NEMVEDRAFT_v1g114090-PA:Nematostella_vectensis","Scaffold1",2756069,2759759]
[["NEMVEDRAFT_v1g189134-PA:Nematostella_vectensis","Scaffold1:hit:24412:3.10.0.27"],"blastx_Cnidaria","NEMVEDRAFT_v1g189134-PA:Nematostella_vectensis","Scaffold1",2756069,2759599]
[["NEMVEDRAFT_v1g165424-PA:Nematostella_vectensis","Scaffold1:hit:24448:3.10.0.27"],"blastx_Cnidaria","NEMVEDRAFT_v1g165424-PA:Nematostella_vectensis","Scaffold1",2756069,2759599]
[["NEMVEDRAFT_v1g200737-PA:Nematostella_vectensis","Scaffold1:hit:24513:3.10.0.27"],"blastx_Cnidaria","NEMVEDRAFT_v1g200737-PA:Nematostella_vectensis","Scaffold1",2761998,2766510]
[["NEMVEDRAFT_v1g167183-PA:Nematostella_vectensis","Scaffold1:hit:24551:3.10.0.27"],"blastx_Cnidaria","NEMVEDRAFT_v1g167183-PA:Nematostella_vectensis","Scaffold1",2766939,2768670]
[["NEMVEDRAFT_v1g135617-PA:Nematostella_vectensis","Scaffold1:hit:24618:3.10.0.27"],"blastx_Cnidaria","NEMVEDRAFT_v1g135617-PA:Nematostella_vectensis","Scaffold1",2782988,2784108]
[["NEMVEDRAFT_v1g79914-PA:Nematostella_vectensis","Scaffold1:hit:24938:3.10.0.28"],"blastx_Cnidaria","NEMVEDRAFT_v1g79914-PA:Nematostella_vectensis","Scaffold1",2802335,2805744]
[["NEMVEDRAFT_v1g221755-PA:Nematostella_vectensis","Scaffold1:hit:24932:3.10.0.28"],"blastx_Cnidaria","NEMVEDRAFT_v1g221755-PA:Nematostella_vectensis","Scaffold1",2802890,2803205]
[["NEMVEDRAFT_v1g233285-PA:Nematostella_vectensis","Scaffold1:hit:25043:3.10.0.28"],"blastx_Cnidaria","NEMVEDRAFT_v1g233285-PA:Nematostella_vectensis","Scaffold1",2817312,2817987]
[["NEMVEDRAFT_v1g152475-PA:Nematostella_vectensis","Scaffold1:hit:25011:3.10.0.28"],"blastx_Cnidaria","NEMVEDRAFT_v1g152475-PA:Nematostella_vectensis","Scaffold1",2817771,2817987]
[["NEMVEDRAFT_v1g241879-PA:Nematostella_vectensis","Scaffold1:hit:25122:3.10.0.28"],"blastx_Cnidaria","NEMVEDRAFT_v1g241879-PA:Nematostella_vectensis","Scaffold1",2834872,2835346]
[["NEMVEDRAFT_v1g161560-PA:Nematostella_vectensis","Scaffold1:hit:25106:3.10.0.28"],"blastx_Cnidaria","NEMVEDRAFT_v1g161560-PA:Nematostella_vectensis","Scaffold1",2834875,2836363]
[["NEMVEDRAFT_v1g242628-PA:Nematostella_vectensis","Scaffold1:hit:25134:3.10.0.28"],"blastx_Cnidaria","NEMVEDRAFT_v1g242628-PA:Nematostella_vectensis","Scaffold1",2840442,2840854]
[["NEMVEDRAFT_v1g242628-PA:Nematostella_vectensis","Scaffold1:hit:25160:3.10.0.28"],"blastx_Cnidaria","NEMVEDRAFT_v1g242628-PA:Nematostella_vectensis","Scaffold1",2851530,2852136]
[["NEMVEDRAFT_v1g145494-PA:Nematostella_vectensis","Scaffold1:hit:25259:3.10.0.28"],"blastx_Cnidaria","NEMVEDRAFT_v1g145494-PA:Nematostella_vectensis","Scaffold1",2861484,2863498]
[["NEMVEDRAFT_v1g13642-PA:Nematostella_vectensis","Scaffold1:hit:25220:3.10.0.28"],"blastx_Cnidaria","NEMVEDRAFT_v1g13642-PA:Nematostella_vectensis","Scaffold1",2861493,2863900]
[["NEMVEDRAFT_v1g20971-PA:Nematostella_vectensis","Scaffold1:hit:25242:3.10.0.28"],"blastx_Cnidaria","NEMVEDRAFT_v1g20971-PA:Nematostella_vectensis","Scaffold1",2861493,2863873]
[["NEMVEDRAFT_v1g78835-PA:Nematostella_vectensis","Scaffold1:hit:25226:3.10.0.28"],"blastx_Cnidaria","NEMVEDRAFT_v1g78835-PA:Nematostella_vectensis","Scaffold1",2861493,2863870]
[["NEMVEDRAFT_v1g24490-PA:Nematostella_vectensis","Scaffold1:hit:25255:3.10.0.28"],"blastx_Cnidaria","NEMVEDRAFT_v1g24490-PA:Nematostella_vectensis","Scaffold1",2861493,2863870]
[["NEMVEDRAFT_v1g133486-PA:Nematostella_vectensis","Scaffold1:hit:25210:3.10.0.28"],"blastx_Cnidaria","NEMVEDRAFT_v1g133486-PA:Nematostella_vectensis","Scaffold1",2861493,2863495]
[["NEMVEDRAFT_v1g81203-PA:Nematostella_vectensis","Scaffold1:hit:25243:3.10.0.28"],"blastx_Cnidaria","NEMVEDRAFT_v1g81203-PA:Nematostella_vectensis","Scaffold1",2861493,2863486]
[["NEMVEDRAFT_v1g25584-PA:Nematostella_vectensis","Scaffold1:hit:25228:3.10.0.28"],"blastx_Cnidaria","NEMVEDRAFT_v1g25584-PA:Nematostella_vectensis","Scaffold1",2863163,2863870]
[["NEMVEDRAFT_v1g98237-PA:Nematostella_vectensis","Scaffold1:hit:25206:3.10.0.28"],"blastx_Cnidaria","NEMVEDRAFT_v1g98237-PA:Nematostella_vectensis","Scaffold1",2863426,2863870]
[["NEMVEDRAFT_v1g90006-PA:Nematostella_vectensis","Scaffold1:hit:25235:3.10.0.28"],"blastx_Cnidaria","NEMVEDRAFT_v1g90006-PA:Nematostella_vectensis","Scaffold1",2863426,2863858]
[["NEMVEDRAFT_v1g139162-PA:Nematostella_vectensis","Scaffold1:hit:25247:3.10.0.28"],"blastx_Cnidaria","NEMVEDRAFT_v1g139162-PA:Nematostella_vectensis","Scaffold1",2863426,2863819]
[["NEMVEDRAFT_v1g109363-PA:Nematostella_vectensis","Scaffold1:hit:25549:3.10.0.29"],"blastx_Cnidaria","NEMVEDRAFT_v1g109363-PA:Nematostella_vectensis","Scaffold1",2924708,2925342]
[["NEMVEDRAFT_v1g127212-PA:Nematostella_vectensis","Scaffold1:hit:25751:3.10.0.29"],"blastx_Cnidaria","NEMVEDRAFT_v1g127212-PA:Nematostella_vectensis","Scaffold1",2948627,2949023]
[["NEMVEDRAFT_v1g238489-PA:Nematostella_vectensis","Scaffold1:hit:25853:3.10.0.29"],"blastx_Cnidaria","NEMVEDRAFT_v1g238489-PA:Nematostella_vectensis","Scaffold1",2953658,2959719]
[["NEMVEDRAFT_v1g200396-PA:Nematostella_vectensis","Scaffold1:hit:25881:3.10.0.29"],"blastx_Cnidaria","NEMVEDRAFT_v1g200396-PA:Nematostella_vectensis","Scaffold1",2953805,2958568]
[["NEMVEDRAFT_v1g88037-PA:Nematostella_vectensis","Scaffold1:hit:25907:3.10.0.29"],"blastx_Cnidaria","NEMVEDRAFT_v1g88037-PA:Nematostella_vectensis","Scaffold1",2967505,2976019]
[["NEMVEDRAFT_v1g122516-PA:Nematostella_vectensis","Scaffold1:hit:26000:3.10.0.29"],"blastx_Cnidaria","NEMVEDRAFT_v1g122516-PA:Nematostella_vectensis","Scaffold1",2971677,2975845]
[["NEMVEDRAFT_v1g138733-PA:Nematostella_vectensis","Scaffold1:hit:25909:3.10.0.29"],"blastx_Cnidaria","NEMVEDRAFT_v1g138733-PA:Nematostella_vectensis","Scaffold1",2971906,2972327]
[["NEMVEDRAFT_v1g228721-PA:Nematostella_vectensis","Scaffold1:hit:26201:3.10.0.29"],"blastx_Cnidaria","NEMVEDRAFT_v1g228721-PA:Nematostella_vectensis","Scaffold1",2979360,2981364]
[["NEMVEDRAFT_v1g112320-PA:Nematostella_vectensis","Scaffold1:hit:26710:3.10.0.31"],"blastx_Cnidaria","NEMVEDRAFT_v1g112320-PA:Nematostella_vectensis","Scaffold1",3105000,3106569]
[["NEMVEDRAFT_v1g153628-PA:Nematostella_vectensis","Scaffold1:hit:26959:3.10.0.31"],"blastx_Cnidaria","NEMVEDRAFT_v1g153628-PA:Nematostella_vectensis","Scaffold1",3162946,3163102]
[["NEMVEDRAFT_v1g39668-PA:Nematostella_vectensis","Scaffold1:hit:26943:3.10.0.31"],"blastx_Cnidaria","NEMVEDRAFT_v1g39668-PA:Nematostella_vectensis","Scaffold1",3162949,3163120]
[["NEMVEDRAFT_v1g135948-PA:Nematostella_vectensis","Scaffold1:hit:26929:3.10.0.31"],"blastx_Cnidaria","NEMVEDRAFT_v1g135948-PA:Nematostella_vectensis","Scaffold1",3162949,3163111]
[["NEMVEDRAFT_v1g80187-PA:Nematostella_vectensis","Scaffold1:hit:26996:3.10.0.31"],"blastx_Cnidaria","NEMVEDRAFT_v1g80187-PA:Nematostella_vectensis","Scaffold1",3162949,3163102]
[["NEMVEDRAFT_v1g113102-PA:Nematostella_vectensis","Scaffold1:hit:26909:3.10.0.31"],"blastx_Cnidaria","NEMVEDRAFT_v1g113102-PA:Nematostella_vectensis","Scaffold1",3162949,3163102]
[["NEMVEDRAFT_v1g79707-PA:Nematostella_vectensis","Scaffold1:hit:26973:3.10.0.31"],"blastx_Cnidaria","NEMVEDRAFT_v1g79707-PA:Nematostella_vectensis","Scaffold1",3162949,3163093]
[["NEMVEDRAFT_v1g113172-PA:Nematostella_vectensis","Scaffold1:hit:26944:3.10.0.31"],"blastx_Cnidaria","NEMVEDRAFT_v1g113172-PA:Nematostella_vectensis","Scaffold1",3162949,3163093]
[["NEMVEDRAFT_v1g110792-PA:Nematostella_vectensis","Scaffold1:hit:26935:3.10.0.31"],"blastx_Cnidaria","NEMVEDRAFT_v1g110792-PA:Nematostella_vectensis","Scaffold1",3162949,3163093]
[["NEMVEDRAFT_v1g121827-PA:Nematostella_vectensis","Scaffold1:hit:26997:3.10.0.31"],"blastx_Cnidaria","NEMVEDRAFT_v1g121827-PA:Nematostella_vectensis","Scaffold1",3162949,3163093]
[["NEMVEDRAFT_v1g119152-PA:Nematostella_vectensis","Scaffold1:hit:26953:3.10.0.31"],"blastx_Cnidaria","NEMVEDRAFT_v1g119152-PA:Nematostella_vectensis","Scaffold1",3162949,3163093]
[["NEMVEDRAFT_v1g105595-PA:Nematostella_vectensis","Scaffold1:hit:26988:3.10.0.31"],"blastx_Cnidaria","NEMVEDRAFT_v1g105595-PA:Nematostella_vectensis","Scaffold1",3162949,3163093]
[["NEMVEDRAFT_v1g99140-PA:Nematostella_vectensis","Scaffold1:hit:26979:3.10.0.31"],"blastx_Cnidaria","NEMVEDRAFT_v1g99140-PA:Nematostella_vectensis","Scaffold1",3162949,3163090]
[["NEMVEDRAFT_v1g59594-PA:Nematostella_vectensis","Scaffold1:hit:26939:3.10.0.31"],"blastx_Cnidaria","NEMVEDRAFT_v1g59594-PA:Nematostella_vectensis","Scaffold1",3162949,3163090]
[["NEMVEDRAFT_v1g18446-PA:Nematostella_vectensis","Scaffold1:hit:26977:3.10.0.31"],"blastx_Cnidaria","NEMVEDRAFT_v1g18446-PA:Nematostella_vectensis","Scaffold1",3162949,3163087]
[["NEMVEDRAFT_v1g94003-PA:Nematostella_vectensis","Scaffold1:hit:26922:3.10.0.31"],"blastx_Cnidaria","NEMVEDRAFT_v1g94003-PA:Nematostella_vectensis","Scaffold1",3162949,3163087]
[["NEMVEDRAFT_v1g93991-PA:Nematostella_vectensis","Scaffold1:hit:26942:3.10.0.31"],"blastx_Cnidaria","NEMVEDRAFT_v1g93991-PA:Nematostella_vectensis","Scaffold1",3162949,3163084]
[["NEMVEDRAFT_v1g48861-PA:Nematostella_vectensis","Scaffold1:hit:26917:3.10.0.31"],"blastx_Cnidaria","NEMVEDRAFT_v1g48861-PA:Nematostella_vectensis","Scaffold1",3162949,3163069]
[["NEMVEDRAFT_v1g135948-PA:Nematostella_vectensis","Scaffold1:hit:27273:3.10.0.32"],"blastx_Cnidaria","NEMVEDRAFT_v1g135948-PA:Nematostella_vectensis","Scaffold1",3240233,3240440]
[["NEMVEDRAFT_v1g39668-PA:Nematostella_vectensis","Scaffold1:hit:27284:3.10.0.32"],"blastx_Cnidaria","NEMVEDRAFT_v1g39668-PA:Nematostella_vectensis","Scaffold1",3240257,3240440]
[["NEMVEDRAFT_v1g110792-PA:Nematostella_vectensis","Scaffold1:hit:27278:3.10.0.32"],"blastx_Cnidaria","NEMVEDRAFT_v1g110792-PA:Nematostella_vectensis","Scaffold1",3240275,3240440]
[["NEMVEDRAFT_v1g18446-PA:Nematostella_vectensis","Scaffold1:hit:27326:3.10.0.32"],"blastx_Cnidaria","NEMVEDRAFT_v1g18446-PA:Nematostella_vectensis","Scaffold1",3240281,3240440]
[["NEMVEDRAFT_v1g113172-PA:Nematostella_vectensis","Scaffold1:hit:27285:3.10.0.32"],"blastx_Cnidaria","NEMVEDRAFT_v1g113172-PA:Nematostella_vectensis","Scaffold1",3240290,3240476]
[["NEMVEDRAFT_v1g80187-PA:Nematostella_vectensis","Scaffold1:hit:27346:3.10.0.32"],"blastx_Cnidaria","NEMVEDRAFT_v1g80187-PA:Nematostella_vectensis","Scaffold1",3240290,3240440]
[["NEMVEDRAFT_v1g69041-PA:Nematostella_vectensis","Scaffold1:hit:27322:3.10.0.32"],"blastx_Cnidaria","NEMVEDRAFT_v1g69041-PA:Nematostella_vectensis","Scaffold1",3240290,3240440]
[["NEMVEDRAFT_v1g121827-PA:Nematostella_vectensis","Scaffold1:hit:27348:3.10.0.32"],"blastx_Cnidaria","NEMVEDRAFT_v1g121827-PA:Nematostella_vectensis","Scaffold1",3240293,3240440]
[["NEMVEDRAFT_v1g79707-PA:Nematostella_vectensis","Scaffold1:hit:27320:3.10.0.32"],"blastx_Cnidaria","NEMVEDRAFT_v1g79707-PA:Nematostella_vectensis","Scaffold1",3240293,3240440]
[["NEMVEDRAFT_v1g119152-PA:Nematostella_vectensis","Scaffold1:hit:27297:3.10.0.32"],"blastx_Cnidaria","NEMVEDRAFT_v1g119152-PA:Nematostella_vectensis","Scaffold1",3240293,3240440]
[["NEMVEDRAFT_v1g113057-PA:Nematostella_vectensis","Scaffold1:hit:27289:3.10.0.32"],"blastx_Cnidaria","NEMVEDRAFT_v1g113057-PA:Nematostella_vectensis","Scaffold1",3240296,3240476]
[["NEMVEDRAFT_v1g105595-PA:Nematostella_vectensis","Scaffold1:hit:27341:3.10.0.32"],"blastx_Cnidaria","NEMVEDRAFT_v1g105595-PA:Nematostella_vectensis","Scaffold1",3240296,3240440]
[["NEMVEDRAFT_v1g113102-PA:Nematostella_vectensis","Scaffold1:hit:27255:3.10.0.32"],"blastx_Cnidaria","NEMVEDRAFT_v1g113102-PA:Nematostella_vectensis","Scaffold1",3240296,3240440]
[["NEMVEDRAFT_v1g153628-PA:Nematostella_vectensis","Scaffold1:hit:27303:3.10.0.32"],"blastx_Cnidaria","NEMVEDRAFT_v1g153628-PA:Nematostella_vectensis","Scaffold1",3240296,3240440]
[["NEMVEDRAFT_v1g99140-PA:Nematostella_vectensis","Scaffold1:hit:27330:3.10.0.32"],"blastx_Cnidaria","NEMVEDRAFT_v1g99140-PA:Nematostella_vectensis","Scaffold1",3240302,3240476]
[["NEMVEDRAFT_v1g59594-PA:Nematostella_vectensis","Scaffold1:hit:27281:3.10.0.32"],"blastx_Cnidaria","NEMVEDRAFT_v1g59594-PA:Nematostella_vectensis","Scaffold1",3240302,3240440]
[["NEMVEDRAFT_v1g93991-PA:Nematostella_vectensis","Scaffold1:hit:27286:3.10.0.32"],"blastx_Cnidaria","NEMVEDRAFT_v1g93991-PA:Nematostella_vectensis","Scaffold1",3240305,3240440]
[["NEMVEDRAFT_v1g48861-PA:Nematostella_vectensis","Scaffold1:hit:27262:3.10.0.32"],"blastx_Cnidaria","NEMVEDRAFT_v1g48861-PA:Nematostella_vectensis","Scaffold1",3240320,3240440]
[["NEMVEDRAFT_v1g165614-PA:Nematostella_vectensis","Scaffold1:hit:27444:3.10.0.32"],"blastx_Cnidaria","NEMVEDRAFT_v1g165614-PA:Nematostella_vectensis","Scaffold1",3299650,3304231]
[["NEMVEDRAFT_v1g153628-PA:Nematostella_vectensis","Scaffold1:hit:27405:3.10.0.32"],"blastx_Cnidaria","NEMVEDRAFT_v1g153628-PA:Nematostella_vectensis","Scaffold1",3304051,3304207]
[["NEMVEDRAFT_v1g113102-PA:Nematostella_vectensis","Scaffold1:hit:27360:3.10.0.32"],"blastx_Cnidaria","NEMVEDRAFT_v1g113102-PA:Nematostella_vectensis","Scaffold1",3304054,3304240]
[["NEMVEDRAFT_v1g110792-PA:Nematostella_vectensis","Scaffold1:hit:27382:3.10.0.32"],"blastx_Cnidaria","NEMVEDRAFT_v1g110792-PA:Nematostella_vectensis","Scaffold1",3304054,3304228]
[["NEMVEDRAFT_v1g39668-PA:Nematostella_vectensis","Scaffold1:hit:27387:3.10.0.32"],"blastx_Cnidaria","NEMVEDRAFT_v1g39668-PA:Nematostella_vectensis","Scaffold1",3304054,3304216]
[["NEMVEDRAFT_v1g135948-PA:Nematostella_vectensis","Scaffold1:hit:27375:3.10.0.32"],"blastx_Cnidaria","NEMVEDRAFT_v1g135948-PA:Nematostella_vectensis","Scaffold1",3304054,3304216]
[["NEMVEDRAFT_v1g80187-PA:Nematostella_vectensis","Scaffold1:hit:27442:3.10.0.32"],"blastx_Cnidaria","NEMVEDRAFT_v1g80187-PA:Nematostella_vectensis","Scaffold1",3304054,3304216]
[["NEMVEDRAFT_v1g121827-PA:Nematostella_vectensis","Scaffold1:hit:27445:3.10.0.32"],"blastx_Cnidaria","NEMVEDRAFT_v1g121827-PA:Nematostella_vectensis","Scaffold1",3304054,3304201]
[["NEMVEDRAFT_v1g18446-PA:Nematostella_vectensis","Scaffold1:hit:27425:3.10.0.32"],"blastx_Cnidaria","NEMVEDRAFT_v1g18446-PA:Nematostella_vectensis","Scaffold1",3304054,3304201]
[["NEMVEDRAFT_v1g113172-PA:Nematostella_vectensis","Scaffold1:hit:27388:3.10.0.32"],"blastx_Cnidaria","NEMVEDRAFT_v1g113172-PA:Nematostella_vectensis","Scaffold1",3304054,3304201]
[["NEMVEDRAFT_v1g119152-PA:Nematostella_vectensis","Scaffold1:hit:27399:3.10.0.32"],"blastx_Cnidaria","NEMVEDRAFT_v1g119152-PA:Nematostella_vectensis","Scaffold1",3304054,3304201]
[["NEMVEDRAFT_v1g79707-PA:Nematostella_vectensis","Scaffold1:hit:27420:3.10.0.32"],"blastx_Cnidaria","NEMVEDRAFT_v1g79707-PA:Nematostella_vectensis","Scaffold1",3304054,3304201]
[["NEMVEDRAFT_v1g105595-PA:Nematostella_vectensis","Scaffold1:hit:27435:3.10.0.32"],"blastx_Cnidaria","NEMVEDRAFT_v1g105595-PA:Nematostella_vectensis","Scaffold1",3304054,3304198]
[["NEMVEDRAFT_v1g99140-PA:Nematostella_vectensis","Scaffold1:hit:27427:3.10.0.32"],"blastx_Cnidaria","NEMVEDRAFT_v1g99140-PA:Nematostella_vectensis","Scaffold1",3304054,3304192]
[["NEMVEDRAFT_v1g59594-PA:Nematostella_vectensis","Scaffold1:hit:27385:3.10.0.32"],"blastx_Cnidaria","NEMVEDRAFT_v1g59594-PA:Nematostella_vectensis","Scaffold1",3304054,3304192]
[["NEMVEDRAFT_v1g93991-PA:Nematostella_vectensis","Scaffold1:hit:27389:3.10.0.32"],"blastx_Cnidaria","NEMVEDRAFT_v1g93991-PA:Nematostella_vectensis","Scaffold1",3304054,3304189]
[["NEMVEDRAFT_v1g241916-PA:Nematostella_vectensis","Scaffold1:hit:27458:3.10.0.32"],"blastx_Cnidaria","NEMVEDRAFT_v1g241916-PA:Nematostella_vectensis","Scaffold1",3335051,3339730]
[["NEMVEDRAFT_v1g91851-PA:Nematostella_vectensis","Scaffold1:hit:27529:3.10.0.32"],"blastx_Cnidaria","NEMVEDRAFT_v1g91851-PA:Nematostella_vectensis","Scaffold1",3344319,3345041]
[["NEMVEDRAFT_v1g170313-PA:Nematostella_vectensis","Scaffold1:hit:27560:3.10.0.32"],"blastx_Cnidaria","NEMVEDRAFT_v1g170313-PA:Nematostella_vectensis","Scaffold1",3349381,3350366]
[["NEMVEDRAFT_v1g165919-PA:Nematostella_vectensis","Scaffold1:hit:27582:3.10.0.32"],"blastx_Cnidaria","NEMVEDRAFT_v1g165919-PA:Nematostella_vectensis","Scaffold1",3352426,3354569]
[["NEMVEDRAFT_v1g129806-PA:Nematostella_vectensis","Scaffold1:hit:27598:3.10.0.32"],"blastx_Cnidaria","NEMVEDRAFT_v1g129806-PA:Nematostella_vectensis","Scaffold1",3354137,3354402]
[["NEMVEDRAFT_v1g236543-PA:Nematostella_vectensis","Scaffold1:hit:27634:3.10.0.32"],"blastx_Cnidaria","NEMVEDRAFT_v1g236543-PA:Nematostella_vectensis","Scaffold1",3354249,3354402]
