[["tr|E3LRL3|E3LRL3_CAERE:Caenorhabditis_remanei","Scaffold19:hit:9173:3.10.0.0"],"blastx_Nemata","tr|E3LRL3|E3LRL3_CAERE:Caenorhabditis_remanei","Scaffold19",61256,62005]
[["tr|H3FMC6|H3FMC6_PRIPA:Pristionchus_pacificus","Scaffold19:hit:9308:3.10.0.0"],"blastx_Nemata","tr|H3FMC6|H3FMC6_PRIPA:Pristionchus_pacificus","Scaffold19",61256,61990]
[["EFO18231.1:Loa_loa","Scaffold19:hit:9211:3.10.0.0"],"blastx_Nemata","EFO18231.1:Loa_loa","Scaffold19",61256,61975]
[["T25G12.4:Caenorhabditis_elegans","Scaffold19:hit:9205:3.10.0.0"],"blastx_Nemata","T25G12.4:Caenorhabditis_elegans","Scaffold19",61376,61960]
[["K09A9.2.1:Caenorhabditis_elegans","Scaffold19:hit:9133:3.10.0.0"],"blastx_Nemata","K09A9.2.1:Caenorhabditis_elegans","Scaffold19",61379,61996]
[["tr|F1L0W7|F1L0W7_ASCSU:Ascaris_suum","Scaffold19:hit:9051:3.10.0.0"],"blastx_Nemata","tr|F1L0W7|F1L0W7_ASCSU:Ascaris_suum","Scaffold19",61379,61975]
[["tr|F1LD79|F1LD79_ASCSU:Ascaris_suum","Scaffold19:hit:9029:3.10.0.0"],"blastx_Nemata","tr|F1LD79|F1LD79_ASCSU:Ascaris_suum","Scaffold19",61379,61972]
[["tr|E5SDE7|E5SDE7_TRISP:Trichinella_spiralis","Scaffold19:hit:9087:3.10.0.0"],"blastx_Nemata","tr|E5SDE7|E5SDE7_TRISP:Trichinella_spiralis","Scaffold19",61379,61966]
[["F53F10.4.1:Caenorhabditis_elegans","Scaffold19:hit:9055:3.10.0.0"],"blastx_Nemata","F53F10.4.1:Caenorhabditis_elegans","Scaffold19",61379,61966]
[["tr|A8QB97|A8QB97_BRUMA:Brugia_malayi","Scaffold19:hit:9025:3.10.0.0"],"blastx_Nemata","tr|A8QB97|A8QB97_BRUMA:Brugia_malayi","Scaffold19",61379,61761]
[["tr|F1LAQ0|F1LAQ0_ASCSU:Ascaris_suum","Scaffold19:hit:9247:3.10.0.0"],"blastx_Nemata","tr|F1LAQ0|F1LAQ0_ASCSU:Ascaris_suum","Scaffold19",61548,61966]
[["tr|A8QF62|A8QF62_BRUMA:Brugia_malayi","Scaffold19:hit:9241:3.10.0.0"],"blastx_Nemata","tr|A8QF62|A8QF62_BRUMA:Brugia_malayi","Scaffold19",61548,61966]
[["tr|E3LFY8|E3LFY8_CAERE:Caenorhabditis_remanei","Scaffold19:hit:9339:3.10.0.0"],"blastx_Nemata","tr|E3LFY8|E3LFY8_CAERE:Caenorhabditis_remanei","Scaffold19",61560,61975]
[["tr|E5SNR1|E5SNR1_TRISP:Trichinella_spiralis","Scaffold19:hit:9387:3.10.0.0"],"blastx_Nemata","tr|E5SNR1|E5SNR1_TRISP:Trichinella_spiralis","Scaffold19",61560,61975]
[["tr|F1LDT0|F1LDT0_ASCSU:Ascaris_suum","Scaffold19:hit:9102:3.10.0.0"],"blastx_Nemata","tr|F1LDT0|F1LDT0_ASCSU:Ascaris_suum","Scaffold19",61560,61969]
[["Y92C3B.3b:Caenorhabditis_elegans","Scaffold19:hit:9350:3.10.0.0"],"blastx_Nemata","Y92C3B.3b:Caenorhabditis_elegans","Scaffold19",61560,61969]
[["EFO19615.1:Loa_loa","Scaffold19:hit:9381:3.10.0.0"],"blastx_Nemata","EFO19615.1:Loa_loa","Scaffold19",61560,61969]
[["tr|K7GV64|K7GV64_CAEJA:Caenorhabditis_japonica","Scaffold19:hit:9140:3.10.0.0"],"blastx_Nemata","tr|K7GV64|K7GV64_CAEJA:Caenorhabditis_japonica","Scaffold19",61560,61966]
[["tr|H3DYJ6|H3DYJ6_PRIPA:Pristionchus_pacificus","Scaffold19:hit:9156:3.10.0.0"],"blastx_Nemata","tr|H3DYJ6|H3DYJ6_PRIPA:Pristionchus_pacificus","Scaffold19",61560,61966]
[["tr|E5T399|E5T399_TRISP:Trichinella_spiralis","Scaffold19:hit:9305:3.10.0.0"],"blastx_Nemata","tr|E5T399|E5T399_TRISP:Trichinella_spiralis","Scaffold19",61560,61963]
[["tr|E5SYK1|E5SYK1_TRISP:Trichinella_spiralis","Scaffold19:hit:9147:3.10.0.0"],"blastx_Nemata","tr|E5SYK1|E5SYK1_TRISP:Trichinella_spiralis","Scaffold19",61560,61954]
[["EFO27043.2:Loa_loa","Scaffold19:hit:9136:3.10.0.0"],"blastx_Nemata","EFO27043.2:Loa_loa","Scaffold19",61563,62008]
[["tr|A8QBU7|A8QBU7_BRUMA:Brugia_malayi","Scaffold19:hit:9201:3.10.0.0"],"blastx_Nemata","tr|A8QBU7|A8QBU7_BRUMA:Brugia_malayi","Scaffold19",61563,61996]
[["tr|F1LBM9|F1LBM9_ASCSU:Ascaris_suum","Scaffold19:hit:9217:3.10.0.0"],"blastx_Nemata","tr|F1LBM9|F1LBM9_ASCSU:Ascaris_suum","Scaffold19",61563,61984]
[["tr|F1L4K2|F1L4K2_ASCSU:Ascaris_suum","Scaffold19:hit:9219:3.10.0.0"],"blastx_Nemata","tr|F1L4K2|F1L4K2_ASCSU:Ascaris_suum","Scaffold19",61563,61981]
[["tr|E5SN08|E5SN08_TRISP:Trichinella_spiralis","Scaffold19:hit:9281:3.10.0.0"],"blastx_Nemata","tr|E5SN08|E5SN08_TRISP:Trichinella_spiralis","Scaffold19",61563,61978]
[["tr|G0NT45|G0NT45_CAEBE:Caenorhabditis_brenneri","Scaffold19:hit:9368:3.10.0.0"],"blastx_Nemata","tr|G0NT45|G0NT45_CAEBE:Caenorhabditis_brenneri","Scaffold19",61563,61975]
[["W01H2.3b:Caenorhabditis_elegans","Scaffold19:hit:9044:3.10.0.0"],"blastx_Nemata","W01H2.3b:Caenorhabditis_elegans","Scaffold19",61563,61969]
[["tr|F1LCS4|F1LCS4_ASCSU:Ascaris_suum","Scaffold19:hit:9177:3.10.0.0"],"blastx_Nemata","tr|F1LCS4|F1LCS4_ASCSU:Ascaris_suum","Scaffold19",61563,61966]
[["F53G12.1.1:Caenorhabditis_elegans","Scaffold19:hit:9151:3.10.0.0"],"blastx_Nemata","F53G12.1.1:Caenorhabditis_elegans","Scaffold19",61563,61966]
[["tr|H3E612|H3E612_PRIPA:Pristionchus_pacificus","Scaffold19:hit:9353:3.10.0.0"],"blastx_Nemata","tr|H3E612|H3E612_PRIPA:Pristionchus_pacificus","Scaffold19",61563,61966]
[["tr|E5S5Q6|E5S5Q6_TRISP:Trichinella_spiralis","Scaffold19:hit:9039:3.10.0.0"],"blastx_Nemata","tr|E5S5Q6|E5S5Q6_TRISP:Trichinella_spiralis","Scaffold19",61563,61966]
[["C39F7.4.1:Caenorhabditis_elegans","Scaffold19:hit:9311:3.10.0.0"],"blastx_Nemata","C39F7.4.1:Caenorhabditis_elegans","Scaffold19",61563,61966]
[["tr|E5SLH0|E5SLH0_TRISP:Trichinella_spiralis","Scaffold19:hit:9110:3.10.0.0"],"blastx_Nemata","tr|E5SLH0|E5SLH0_TRISP:Trichinella_spiralis","Scaffold19",61563,61966]
[["T23H2.5.1:Caenorhabditis_elegans","Scaffold19:hit:9233:3.10.0.0"],"blastx_Nemata","T23H2.5.1:Caenorhabditis_elegans","Scaffold19",61563,61966]
[["tr|A8XTK7|A8XTK7_CAEBR:Caenorhabditis_briggsae","Scaffold19:hit:9323:3.10.0.0"],"blastx_Nemata","tr|A8XTK7|A8XTK7_CAEBR:Caenorhabditis_briggsae","Scaffold19",61563,61966]
[["tr|H3EZW6|H3EZW6_PRIPA:Pristionchus_pacificus","Scaffold19:hit:9248:3.10.0.0"],"blastx_Nemata","tr|H3EZW6|H3EZW6_PRIPA:Pristionchus_pacificus","Scaffold19",61563,61966]
[["tr|H3E613|H3E613_PRIPA:Pristionchus_pacificus","Scaffold19:hit:9275:3.10.0.0"],"blastx_Nemata","tr|H3E613|H3E613_PRIPA:Pristionchus_pacificus","Scaffold19",61563,61966]
[["D1037.4:Caenorhabditis_elegans","Scaffold19:hit:9064:3.10.0.0"],"blastx_Nemata","D1037.4:Caenorhabditis_elegans","Scaffold19",61563,61966]
[["tr|E3LEL5|E3LEL5_CAERE:Caenorhabditis_remanei","Scaffold19:hit:9296:3.10.0.0"],"blastx_Nemata","tr|E3LEL5|E3LEL5_CAERE:Caenorhabditis_remanei","Scaffold19",61563,61963]
[["tr|H8WH16|H8WH16_CAEBR:Caenorhabditis_briggsae","Scaffold19:hit:9059:3.10.0.0"],"blastx_Nemata","tr|H8WH16|H8WH16_CAEBR:Caenorhabditis_briggsae","Scaffold19",61563,61957]
[["tr|A8XHA6|A8XHA6_CAEBR:Caenorhabditis_briggsae","Scaffold19:hit:9263:3.10.0.0"],"blastx_Nemata","tr|A8XHA6|A8XHA6_CAEBR:Caenorhabditis_briggsae","Scaffold19",61575,61966]
[["tr|H2WG34|H2WG34_CAEJA:Caenorhabditis_japonica","Scaffold19:hit:9255:3.10.0.0"],"blastx_Nemata","tr|H2WG34|H2WG34_CAEJA:Caenorhabditis_japonica","Scaffold19",61581,61975]
[["tr|E5S2H6|E5S2H6_TRISP:Trichinella_spiralis","Scaffold19:hit:9204:3.10.0.0"],"blastx_Nemata","tr|E5S2H6|E5S2H6_TRISP:Trichinella_spiralis","Scaffold19",61611,61966]
[["EFO27359.2:Loa_loa","Scaffold19:hit:9257:3.10.0.0"],"blastx_Nemata","EFO27359.2:Loa_loa","Scaffold19",61626,62008]
[["tr|E5SJG2|E5SJG2_TRISP:Trichinella_spiralis","Scaffold19:hit:9290:3.10.0.0"],"blastx_Nemata","tr|E5SJG2|E5SJG2_TRISP:Trichinella_spiralis","Scaffold19",61632,61975]
[["tr|H3FLC4|H3FLC4_PRIPA:Pristionchus_pacificus","Scaffold19:hit:9392:3.10.0.0"],"blastx_Nemata","tr|H3FLC4|H3FLC4_PRIPA:Pristionchus_pacificus","Scaffold19",61635,62005]
[["tr|E5SP64|E5SP64_TRISP:Trichinella_spiralis","Scaffold19:hit:9083:3.10.0.0"],"blastx_Nemata","tr|E5SP64|E5SP64_TRISP:Trichinella_spiralis","Scaffold19",61635,61966]
[["tr|H3FH16|H3FH16_PRIPA:Pristionchus_pacificus","Scaffold19:hit:9390:3.10.0.0"],"blastx_Nemata","tr|H3FH16|H3FH16_PRIPA:Pristionchus_pacificus","Scaffold19",61659,62005]
[["tr|B6IHN6|B6IHN6_CAEBR:Caenorhabditis_briggsae","Scaffold19:hit:9360:3.10.0.0"],"blastx_Nemata","tr|B6IHN6|B6IHN6_CAEBR:Caenorhabditis_briggsae","Scaffold19",61671,61963]
[["tr|A8PSY7|A8PSY7_BRUMA:Brugia_malayi","Scaffold19:hit:9062:3.10.0.0"],"blastx_Nemata","tr|A8PSY7|A8PSY7_BRUMA:Brugia_malayi","Scaffold19",61671,61960]
[["EFO22948.1:Loa_loa","Scaffold19:hit:9085:3.10.0.0"],"blastx_Nemata","EFO22948.1:Loa_loa","Scaffold19",61804,61966]
[["tr|Q94146|Q94146_CAEEL:Caenorhabditis_elegans","Scaffold19:hit:9371:3.10.0.0"],"blastx_Nemata","tr|Q94146|Q94146_CAEEL:Caenorhabditis_elegans","Scaffold19",61807,61990]
[["tr|E5SIW8|E5SIW8_TRISP:Trichinella_spiralis","Scaffold19:hit:9411:3.10.0.0"],"blastx_Nemata","tr|E5SIW8|E5SIW8_TRISP:Trichinella_spiralis","Scaffold19",69480,69705]
[["tr|E3NNG1|E3NNG1_CAERE:Caenorhabditis_remanei","Scaffold19:hit:9406:3.10.0.0"],"blastx_Nemata","tr|E3NNG1|E3NNG1_CAERE:Caenorhabditis_remanei","Scaffold19",69480,69657]
[["tr|A8QGX2|A8QGX2_BRUMA:Brugia_malayi","Scaffold19:hit:9413:3.10.0.0"],"blastx_Nemata","tr|A8QGX2|A8QGX2_BRUMA:Brugia_malayi","Scaffold19",69480,69657]
[["EFO15674.1:Loa_loa","Scaffold19:hit:9440:3.10.0.0"],"blastx_Nemata","EFO15674.1:Loa_loa","Scaffold19",69480,69648]
[["tr|J9EN12|J9EN12_WUCBA:Wuchereria_bancrofti","Scaffold19:hit:9479:3.10.0.0"],"blastx_Nemata","tr|J9EN12|J9EN12_WUCBA:Wuchereria_bancrofti","Scaffold19",69480,69648]
[["tr|J9F1C1|J9F1C1_WUCBA:Wuchereria_bancrofti","Scaffold19:hit:9462:3.10.0.0"],"blastx_Nemata","tr|J9F1C1|J9F1C1_WUCBA:Wuchereria_bancrofti","Scaffold19",69480,69615]
[["tr|H3G2M5|H3G2M5_PRIPA:Pristionchus_pacificus","Scaffold19:hit:9480:3.10.0.0"],"blastx_Nemata","tr|H3G2M5|H3G2M5_PRIPA:Pristionchus_pacificus","Scaffold19",69504,69648]
[["tr|H3FN28|H3FN28_PRIPA:Pristionchus_pacificus","Scaffold19:hit:9450:3.10.0.0"],"blastx_Nemata","tr|H3FN28|H3FN28_PRIPA:Pristionchus_pacificus","Scaffold19",69582,69687]
[["tr|A8WQU7|A8WQU7_CAEBR:Caenorhabditis_briggsae","Scaffold19:hit:9490:3.10.0.0"],"blastx_Nemata","tr|A8WQU7|A8WQU7_CAEBR:Caenorhabditis_briggsae","Scaffold19",81278,82761]
[["tr|G0NTG6|G0NTG6_CAEBE:Caenorhabditis_brenneri","Scaffold19:hit:9504:3.10.0.0"],"blastx_Nemata","tr|G0NTG6|G0NTG6_CAEBE:Caenorhabditis_brenneri","Scaffold19",81296,82761]
[["tr|E3M687|E3M687_CAERE:Caenorhabditis_remanei","Scaffold19:hit:9515:3.10.0.0"],"blastx_Nemata","tr|E3M687|E3M687_CAERE:Caenorhabditis_remanei","Scaffold19",81302,82761]
[["tr|H2W6B1|H2W6B1_CAEJA:Caenorhabditis_japonica","Scaffold19:hit:9505:3.10.0.0"],"blastx_Nemata","tr|H2W6B1|H2W6B1_CAEJA:Caenorhabditis_japonica","Scaffold19",81392,81910]
[["tr|F1LF92|F1LF92_ASCSU:Ascaris_suum","Scaffold19:hit:9967:3.10.0.1"],"blastx_Nemata","tr|F1LF92|F1LF92_ASCSU:Ascaris_suum","Scaffold19",95474,96746]
[["tr|H2VZS4|H2VZS4_CAEJA:Caenorhabditis_japonica","Scaffold19:hit:9956:3.10.0.1"],"blastx_Nemata","tr|H2VZS4|H2VZS4_CAEJA:Caenorhabditis_japonica","Scaffold19",95474,95735]
[["tr|H3EUI5|H3EUI5_PRIPA:Pristionchus_pacificus","Scaffold19:hit:9944:3.10.0.1"],"blastx_Nemata","tr|H3EUI5|H3EUI5_PRIPA:Pristionchus_pacificus","Scaffold19",95531,95735]
[["tr|A8X507|A8X507_CAEBR:Caenorhabditis_briggsae","Scaffold19:hit:9958:3.10.0.1"],"blastx_Nemata","tr|A8X507|A8X507_CAEBR:Caenorhabditis_briggsae","Scaffold19",95534,95735]
[["C31E10.7.1:Caenorhabditis_elegans","Scaffold19:hit:9979:3.10.0.1"],"blastx_Nemata","C31E10.7.1:Caenorhabditis_elegans","Scaffold19",95534,95735]
[["EFO26121.2:Loa_loa","Scaffold19:hit:9949:3.10.0.1"],"blastx_Nemata","EFO26121.2:Loa_loa","Scaffold19",95534,95735]
[["tr|E3ME85|E3ME85_CAERE:Caenorhabditis_remanei","Scaffold19:hit:9959:3.10.0.1"],"blastx_Nemata","tr|E3ME85|E3ME85_CAERE:Caenorhabditis_remanei","Scaffold19",95534,95735]
[["tr|H3FN49|H3FN49_PRIPA:Pristionchus_pacificus","Scaffold19:hit:9952:3.10.0.1"],"blastx_Nemata","tr|H3FN49|H3FN49_PRIPA:Pristionchus_pacificus","Scaffold19",95540,95735]
[["EFO17101.1:Loa_loa","Scaffold19:hit:9964:3.10.0.1"],"blastx_Nemata","EFO17101.1:Loa_loa","Scaffold19",95543,96746]
[["tr|J9FF36|J9FF36_WUCBA:Wuchereria_bancrofti","Scaffold19:hit:9937:3.10.0.1"],"blastx_Nemata","tr|J9FF36|J9FF36_WUCBA:Wuchereria_bancrofti","Scaffold19",95558,96746]
[["tr|F1LDY4|F1LDY4_ASCSU:Ascaris_suum","Scaffold19:hit:9948:3.10.0.1"],"blastx_Nemata","tr|F1LDY4|F1LDY4_ASCSU:Ascaris_suum","Scaffold19",95582,95735]
[["tr|F1KZ18|F1KZ18_ASCSU:Ascaris_suum","Scaffold19:hit:10025:3.10.0.1"],"blastx_Nemata","tr|F1KZ18|F1KZ18_ASCSU:Ascaris_suum","Scaffold19",99637,101359]
[["F01F1.6.1:Caenorhabditis_elegans","Scaffold19:hit:10028:3.10.0.1"],"blastx_Nemata","F01F1.6.1:Caenorhabditis_elegans","Scaffold19",99637,101341]
[["tr|Q8MUI1|Q8MUI1_STEFE:Steinernema_feltiae","Scaffold19:hit:10023:3.10.0.1"],"blastx_Nemata","tr|Q8MUI1|Q8MUI1_STEFE:Steinernema_feltiae","Scaffold19",99637,101341]
[["tr|K7GWC9|K7GWC9_CAEJA:Caenorhabditis_japonica","Scaffold19:hit:10036:3.10.0.1"],"blastx_Nemata","tr|K7GWC9|K7GWC9_CAEJA:Caenorhabditis_japonica","Scaffold19",99637,101078]
[["tr|H3EX33|H3EX33_PRIPA:Pristionchus_pacificus","Scaffold19:hit:10041:3.10.0.1"],"blastx_Nemata","tr|H3EX33|H3EX33_PRIPA:Pristionchus_pacificus","Scaffold19",99637,101057]
[["tr|F1KZA6|F1KZA6_ASCSU:Ascaris_suum","Scaffold19:hit:9989:3.10.0.1"],"blastx_Nemata","tr|F1KZA6|F1KZA6_ASCSU:Ascaris_suum","Scaffold19",100097,101359]
[["tr|H2XEH7|H2XEH7_CAEJA:Caenorhabditis_japonica","Scaffold19:hit:10111:3.10.0.1"],"blastx_Nemata","tr|H2XEH7|H2XEH7_CAEJA:Caenorhabditis_japonica","Scaffold19",113265,119614]
[["tr|F1KSS7|F1KSS7_ASCSU:Ascaris_suum","Scaffold19:hit:10166:3.10.0.1"],"blastx_Nemata","tr|F1KSS7|F1KSS7_ASCSU:Ascaris_suum","Scaffold19",113265,119545]
[["EFO13147.2:Loa_loa","Scaffold19:hit:10141:3.10.0.1"],"blastx_Nemata","EFO13147.2:Loa_loa","Scaffold19",113265,117413]
[["tr|G0NCN1|G0NCN1_CAEBE:Caenorhabditis_brenneri","Scaffold19:hit:10073:3.10.0.1"],"blastx_Nemata","tr|G0NCN1|G0NCN1_CAEBE:Caenorhabditis_brenneri","Scaffold19",113307,119620]
[["tr|J9EC48|J9EC48_WUCBA:Wuchereria_bancrofti","Scaffold19:hit:10157:3.10.0.1"],"blastx_Nemata","tr|J9EC48|J9EC48_WUCBA:Wuchereria_bancrofti","Scaffold19",113307,117422]
[["tr|A8P463|A8P463_BRUMA:Brugia_malayi","Scaffold19:hit:10090:3.10.0.1"],"blastx_Nemata","tr|A8P463|A8P463_BRUMA:Brugia_malayi","Scaffold19",113866,119620]
[["tr|K7GZC8|K7GZC8_CAEJA:Caenorhabditis_japonica","Scaffold19:hit:10169:3.10.0.1"],"blastx_Nemata","tr|K7GZC8|K7GZC8_CAEJA:Caenorhabditis_japonica","Scaffold19",113866,118891]
[["tr|A8Y4R4|A8Y4R4_CAEBR:Caenorhabditis_briggsae","Scaffold19:hit:10079:3.10.0.1"],"blastx_Nemata","tr|A8Y4R4|A8Y4R4_CAEBR:Caenorhabditis_briggsae","Scaffold19",113881,119296]
[["tr|E3MTQ7|E3MTQ7_CAERE:Caenorhabditis_remanei","Scaffold19:hit:10110:3.10.0.1"],"blastx_Nemata","tr|E3MTQ7|E3MTQ7_CAERE:Caenorhabditis_remanei","Scaffold19",113881,118891]
[["tr|K7I0P8|K7I0P8_CAEJA:Caenorhabditis_japonica","Scaffold19:hit:10267:3.10.0.1"],"blastx_Nemata","tr|K7I0P8|K7I0P8_CAEJA:Caenorhabditis_japonica","Scaffold19",135493,135920]
[["tr|H3EEM7|H3EEM7_PRIPA:Pristionchus_pacificus","Scaffold19:hit:10278:3.10.0.1"],"blastx_Nemata","tr|H3EEM7|H3EEM7_PRIPA:Pristionchus_pacificus","Scaffold19",135703,136432]
[["tr|F1LF82|F1LF82_ASCSU:Ascaris_suum","Scaffold19:hit:10219:3.10.0.1"],"blastx_Nemata","tr|F1LF82|F1LF82_ASCSU:Ascaris_suum","Scaffold19",135839,136441]
[["tr|F1L5S8|F1L5S8_ASCSU:Ascaris_suum","Scaffold19:hit:10466:3.10.0.1"],"blastx_Nemata","tr|F1L5S8|F1L5S8_ASCSU:Ascaris_suum","Scaffold19",164407,164965]
[["tr|B4X6X4|B4X6X4_MELIC:Meloidogyne_incognita","Scaffold19:hit:10556:3.10.0.1"],"blastx_Nemata","tr|B4X6X4|B4X6X4_MELIC:Meloidogyne_incognita","Scaffold19",164452,164953]
[["tr|E5SMR2|E5SMR2_TRISP:Trichinella_spiralis","Scaffold19:hit:10468:3.10.0.1"],"blastx_Nemata","tr|E5SMR2|E5SMR2_TRISP:Trichinella_spiralis","Scaffold19",164467,165013]
[["tr|A8WUM6|A8WUM6_CAEBR:Caenorhabditis_briggsae","Scaffold19:hit:10606:3.10.0.1"],"blastx_Nemata","tr|A8WUM6|A8WUM6_CAEBR:Caenorhabditis_briggsae","Scaffold19",164473,164953]
[["ZK546.15:Caenorhabditis_elegans","Scaffold19:hit:10638:3.10.0.1"],"blastx_Nemata","ZK546.15:Caenorhabditis_elegans","Scaffold19",164473,164953]
[["tr|G0PF86|G0PF86_CAEBE:Caenorhabditis_brenneri","Scaffold19:hit:10520:3.10.0.1"],"blastx_Nemata","tr|G0PF86|G0PF86_CAEBE:Caenorhabditis_brenneri","Scaffold19",164473,164953]
[["tr|H3DZL7|H3DZL7_PRIPA:Pristionchus_pacificus","Scaffold19:hit:10542:3.10.0.1"],"blastx_Nemata","tr|H3DZL7|H3DZL7_PRIPA:Pristionchus_pacificus","Scaffold19",164473,164932]
[["tr|H2XE52|H2XE52_CAEJA:Caenorhabditis_japonica","Scaffold19:hit:10487:3.10.0.1"],"blastx_Nemata","tr|H2XE52|H2XE52_CAEJA:Caenorhabditis_japonica","Scaffold19",164488,164812]
[["EFO17822.2:Loa_loa","Scaffold19:hit:10642:3.10.0.1"],"blastx_Nemata","EFO17822.2:Loa_loa","Scaffold19",164632,164953]
[["tr|F1KVN0|F1KVN0_ASCSU:Ascaris_suum","Scaffold19:hit:10795:3.10.0.1"],"blastx_Nemata","tr|F1KVN0|F1KVN0_ASCSU:Ascaris_suum","Scaffold19",172141,174082]
[["EFO26602.1:Loa_loa","Scaffold19:hit:10814:3.10.0.1"],"blastx_Nemata","EFO26602.1:Loa_loa","Scaffold19",172150,174109]
[["tr|H3DYS6|H3DYS6_PRIPA:Pristionchus_pacificus","Scaffold19:hit:10762:3.10.0.1"],"blastx_Nemata","tr|H3DYS6|H3DYS6_PRIPA:Pristionchus_pacificus","Scaffold19",172150,174082]
[["sp|P29190|PCKG_HAECO:Haemonchus_contortus","Scaffold19:hit:10826:3.10.0.1"],"blastx_Nemata","sp|P29190|PCKG_HAECO:Haemonchus_contortus","Scaffold19",172150,173939]
[["tr|F1L041|F1L041_ASCSU:Ascaris_suum","Scaffold19:hit:10701:3.10.0.1"],"blastx_Nemata","tr|F1L041|F1L041_ASCSU:Ascaris_suum","Scaffold19",172153,174076]
[["EFO18265.2:Loa_loa","Scaffold19:hit:10838:3.10.0.1"],"blastx_Nemata","EFO18265.2:Loa_loa","Scaffold19",172153,174052]
[["tr|F1KXJ0|F1KXJ0_ASCSU:Ascaris_suum","Scaffold19:hit:10722:3.10.0.1"],"blastx_Nemata","tr|F1KXJ0|F1KXJ0_ASCSU:Ascaris_suum","Scaffold19",172153,173666]
[["tr|H3DT83|H3DT83_PRIPA:Pristionchus_pacificus","Scaffold19:hit:10686:3.10.0.1"],"blastx_Nemata","tr|H3DT83|H3DT83_PRIPA:Pristionchus_pacificus","Scaffold19",172153,172495]
[["tr|F1KZ26|F1KZ26_ASCSU:Ascaris_suum","Scaffold19:hit:10663:3.10.0.1"],"blastx_Nemata","tr|F1KZ26|F1KZ26_ASCSU:Ascaris_suum","Scaffold19",172156,174145]
[["tr|F1KZ99|F1KZ99_ASCSU:Ascaris_suum","Scaffold19:hit:10846:3.10.0.1"],"blastx_Nemata","tr|F1KZ99|F1KZ99_ASCSU:Ascaris_suum","Scaffold19",172156,174139]
[["tr|E5SLA7|E5SLA7_TRISP:Trichinella_spiralis","Scaffold19:hit:10788:3.10.0.1"],"blastx_Nemata","tr|E5SLA7|E5SLA7_TRISP:Trichinella_spiralis","Scaffold19",172156,174127]
[["tr|A8PGZ3|A8PGZ3_BRUMA:Brugia_malayi","Scaffold19:hit:10690:3.10.0.1"],"blastx_Nemata","tr|A8PGZ3|A8PGZ3_BRUMA:Brugia_malayi","Scaffold19",172156,174094]
[["tr|E3MSQ2|E3MSQ2_CAERE:Caenorhabditis_remanei","Scaffold19:hit:10789:3.10.0.1"],"blastx_Nemata","tr|E3MSQ2|E3MSQ2_CAERE:Caenorhabditis_remanei","Scaffold19",172156,174082]
[["tr|G0PD74|G0PD74_CAEBE:Caenorhabditis_brenneri","Scaffold19:hit:10774:3.10.0.1"],"blastx_Nemata","tr|G0PD74|G0PD74_CAEBE:Caenorhabditis_brenneri","Scaffold19",172156,173939]
[["tr|F1KYY2|F1KYY2_ASCSU:Ascaris_suum","Scaffold19:hit:10664:3.10.0.1"],"blastx_Nemata","tr|F1KYY2|F1KYY2_ASCSU:Ascaris_suum","Scaffold19",172156,173906]
[["tr|F1L1D0|F1L1D0_ASCSU:Ascaris_suum","Scaffold19:hit:10719:3.10.0.1"],"blastx_Nemata","tr|F1L1D0|F1L1D0_ASCSU:Ascaris_suum","Scaffold19",172156,172747]
[["tr|F1KSI5|F1KSI5_ASCSU:Ascaris_suum","Scaffold19:hit:10812:3.10.0.1"],"blastx_Nemata","tr|F1KSI5|F1KSI5_ASCSU:Ascaris_suum","Scaffold19",172312,173846]
[["tr|J9EED3|J9EED3_WUCBA:Wuchereria_bancrofti","Scaffold19:hit:10777:3.10.0.1"],"blastx_Nemata","tr|J9EED3|J9EED3_WUCBA:Wuchereria_bancrofti","Scaffold19",172387,173900]
[["tr|B2ZT27|B2ZT27_9BILA:Heterorhabditis_zealandica","Scaffold19:hit:10755:3.10.0.1"],"blastx_Nemata","tr|B2ZT27|B2ZT27_9BILA:Heterorhabditis_zealandica","Scaffold19",172459,172573]
[["tr|H3DT82|H3DT82_PRIPA:Pristionchus_pacificus","Scaffold19:hit:10723:3.10.0.1"],"blastx_Nemata","tr|H3DT82|H3DT82_PRIPA:Pristionchus_pacificus","Scaffold19",172507,173939]
[["tr|E3NVM2|E3NVM2_CAERE:Caenorhabditis_remanei","Scaffold19:hit:10729:3.10.0.1"],"blastx_Nemata","tr|E3NVM2|E3NVM2_CAERE:Caenorhabditis_remanei","Scaffold19",172606,173846]
[["tr|F1KZ65|F1KZ65_ASCSU:Ascaris_suum","Scaffold19:hit:10819:3.10.0.1"],"blastx_Nemata","tr|F1KZ65|F1KZ65_ASCSU:Ascaris_suum","Scaffold19",173089,173804]
[["F33H1.2:Caenorhabditis_elegans","Scaffold19:hit:11542:3.10.0.2"],"blastx_Nemata","F33H1.2:Caenorhabditis_elegans","Scaffold19",221522,222568]
[["tr|A8Q3K1|A8Q3K1_BRUMA:Brugia_malayi","Scaffold19:hit:11476:3.10.0.2"],"blastx_Nemata","tr|A8Q3K1|A8Q3K1_BRUMA:Brugia_malayi","Scaffold19",221522,222565]
[["tr|H3ESL5|H3ESL5_PRIPA:Pristionchus_pacificus","Scaffold19:hit:11589:3.10.0.2"],"blastx_Nemata","tr|H3ESL5|H3ESL5_PRIPA:Pristionchus_pacificus","Scaffold19",221522,222565]
[["EJD75047.1:Loa_loa","Scaffold19:hit:11581:3.10.0.2"],"blastx_Nemata","EJD75047.1:Loa_loa","Scaffold19",221522,222565]
[["tr|F1L340|F1L340_ASCSU:Ascaris_suum","Scaffold19:hit:11501:3.10.0.2"],"blastx_Nemata","tr|F1L340|F1L340_ASCSU:Ascaris_suum","Scaffold19",221522,222565]
[["tr|H6WVX3|H6WVX3_HAECO:Haemonchus_contortus","Scaffold19:hit:11601:3.10.0.2"],"blastx_Nemata","tr|H6WVX3|H6WVX3_HAECO:Haemonchus_contortus","Scaffold19",221522,222565]
[["EJD75049.1:Loa_loa","Scaffold19:hit:11537:3.10.0.2"],"blastx_Nemata","EJD75049.1:Loa_loa","Scaffold19",221522,222565]
[["K10B3.7.1:Caenorhabditis_elegans","Scaffold19:hit:11557:3.10.0.2"],"blastx_Nemata","K10B3.7.1:Caenorhabditis_elegans","Scaffold19",221522,222562]
[["tr|A8NVT1|A8NVT1_BRUMA:Brugia_malayi","Scaffold19:hit:11477:3.10.0.2"],"blastx_Nemata","tr|A8NVT1|A8NVT1_BRUMA:Brugia_malayi","Scaffold19",221522,222262]
[["tr|G0NQ37|G0NQ37_CAEBE:Caenorhabditis_brenneri","Scaffold19:hit:11527:3.10.0.2"],"blastx_Nemata","tr|G0NQ37|G0NQ37_CAEBE:Caenorhabditis_brenneri","Scaffold19",221531,222568]
[["tr|F1LBJ9|F1LBJ9_ASCSU:Ascaris_suum","Scaffold19:hit:11584:3.10.0.2"],"blastx_Nemata","tr|F1LBJ9|F1LBJ9_ASCSU:Ascaris_suum","Scaffold19",221531,222565]
[["sp|O16027|G3P1_GLORO:Globodera_rostochiensis","Scaffold19:hit:11575:3.10.0.2"],"blastx_Nemata","sp|O16027|G3P1_GLORO:Globodera_rostochiensis","Scaffold19",221570,222565]
[["tr|G0NLC9|G0NLC9_CAEBE:Caenorhabditis_brenneri","Scaffold19:hit:11583:3.10.0.2"],"blastx_Nemata","tr|G0NLC9|G0NLC9_CAEBE:Caenorhabditis_brenneri","Scaffold19",221872,222106]
[["EFO12430.1:Loa_loa","Scaffold19:hit:11488:3.10.0.2"],"blastx_Nemata","EFO12430.1:Loa_loa","Scaffold19",221899,222193]
[["tr|Q8WR91|Q8WR91_9BILA:Trichinella_nelsoni","Scaffold19:hit:11543:3.10.0.2"],"blastx_Nemata","tr|Q8WR91|Q8WR91_9BILA:Trichinella_nelsoni","Scaffold19",221947,222493]
[["tr|B0LJ58|B0LJ58_DICVI:Dictyocaulus_viviparus","Scaffold19:hit:11472:3.10.0.2"],"blastx_Nemata","tr|B0LJ58|B0LJ58_DICVI:Dictyocaulus_viviparus","Scaffold19",222097,222427]
[["tr|A8QHM7|A8QHM7_BRUMA:Brugia_malayi","Scaffold19:hit:11479:3.10.0.2"],"blastx_Nemata","tr|A8QHM7|A8QHM7_BRUMA:Brugia_malayi","Scaffold19",222373,222565]
[["tr|F1LIH8|F1LIH8_ASCSU:Ascaris_suum","Scaffold19:hit:11578:3.10.0.2"],"blastx_Nemata","tr|F1LIH8|F1LIH8_ASCSU:Ascaris_suum","Scaffold19",222403,222565]
[["tr|F1LHA6|F1LHA6_ASCSU:Ascaris_suum","Scaffold19:hit:11634:3.10.0.2"],"blastx_Nemata","tr|F1LHA6|F1LHA6_ASCSU:Ascaris_suum","Scaffold19",223814,224246]
[["EFO17796.2:Loa_loa","Scaffold19:hit:11607:3.10.0.2"],"blastx_Nemata","EFO17796.2:Loa_loa","Scaffold19",223868,224474]
[["tr|C7BVM9|C7BVM9_9BILA:Angiostrongylus_cantonensis","Scaffold19:hit:11647:3.10.0.2"],"blastx_Nemata","tr|C7BVM9|C7BVM9_9BILA:Angiostrongylus_cantonensis","Scaffold19",223874,224474]
[["tr|H3FHA6|H3FHA6_PRIPA:Pristionchus_pacificus","Scaffold19:hit:11642:3.10.0.2"],"blastx_Nemata","tr|H3FHA6|H3FHA6_PRIPA:Pristionchus_pacificus","Scaffold19",223901,224471]
[["C09D4.5.1:Caenorhabditis_elegans","Scaffold19:hit:11652:3.10.0.2"],"blastx_Nemata","C09D4.5.1:Caenorhabditis_elegans","Scaffold19",223913,224474]
[["tr|E5SHV7|E5SHV7_TRISP:Trichinella_spiralis","Scaffold19:hit:11633:3.10.0.2"],"blastx_Nemata","tr|E5SHV7|E5SHV7_TRISP:Trichinella_spiralis","Scaffold19",223928,224348]
[["tr|F1LEL6|F1LEL6_ASCSU:Ascaris_suum","Scaffold19:hit:11631:3.10.0.2"],"blastx_Nemata","tr|F1LEL6|F1LEL6_ASCSU:Ascaris_suum","Scaffold19",223967,224246]
[["tr|E5T2E7|E5T2E7_TRISP:Trichinella_spiralis","Scaffold19:hit:11638:3.10.0.2"],"blastx_Nemata","tr|E5T2E7|E5T2E7_TRISP:Trichinella_spiralis","Scaffold19",224201,224468]
[["EFO27858.1:Loa_loa","Scaffold19:hit:11689:3.10.0.2"],"blastx_Nemata","EFO27858.1:Loa_loa","Scaffold19",234240,235305]
[["tr|A8QB70|A8QB70_BRUMA:Brugia_malayi","Scaffold19:hit:11708:3.10.0.2"],"blastx_Nemata","tr|A8QB70|A8QB70_BRUMA:Brugia_malayi","Scaffold19",234309,235365]
[["tr|H2VQI6|H2VQI6_CAEJA:Caenorhabditis_japonica","Scaffold19:hit:11664:3.10.0.2"],"blastx_Nemata","tr|H2VQI6|H2VQI6_CAEJA:Caenorhabditis_japonica","Scaffold19",234531,235527]
[["tr|J9E643|J9E643_WUCBA:Wuchereria_bancrofti","Scaffold19:hit:11701:3.10.0.2"],"blastx_Nemata","tr|J9E643|J9E643_WUCBA:Wuchereria_bancrofti","Scaffold19",234783,234918]
[["EFO27721.2:Loa_loa","Scaffold19:hit:11746:3.10.0.2"],"blastx_Nemata","EFO27721.2:Loa_loa","Scaffold19",256449,256920]
[["EFO22069.1:Loa_loa","Scaffold19:hit:11824:3.10.0.2"],"blastx_Nemata","EFO22069.1:Loa_loa","Scaffold19",258026,259281]
[["C02F5.3.1:Caenorhabditis_elegans","Scaffold19:hit:11830:3.10.0.2"],"blastx_Nemata","C02F5.3.1:Caenorhabditis_elegans","Scaffold19",258026,259281]
[["tr|F1LH53|F1LH53_ASCSU:Ascaris_suum","Scaffold19:hit:11807:3.10.0.2"],"blastx_Nemata","tr|F1LH53|F1LH53_ASCSU:Ascaris_suum","Scaffold19",258026,258582]
[["T28D6.6a:Caenorhabditis_elegans","Scaffold19:hit:11832:3.10.0.2"],"blastx_Nemata","T28D6.6a:Caenorhabditis_elegans","Scaffold19",258141,259281]
[["tr|F1LBB1|F1LBB1_ASCSU:Ascaris_suum","Scaffold19:hit:11829:3.10.0.2"],"blastx_Nemata","tr|F1LBB1|F1LBB1_ASCSU:Ascaris_suum","Scaffold19",258141,259281]
[["tr|E5SX20|E5SX20_TRISP:Trichinella_spiralis","Scaffold19:hit:11817:3.10.0.2"],"blastx_Nemata","tr|E5SX20|E5SX20_TRISP:Trichinella_spiralis","Scaffold19",258141,259278]
[["tr|O02458|O02458_TELCI:Teladorsagia_circumcincta","Scaffold19:hit:11814:3.10.0.2"],"blastx_Nemata","tr|O02458|O02458_TELCI:Teladorsagia_circumcincta","Scaffold19",258141,258549]
[["EFO27203.1:Loa_loa","Scaffold19:hit:11774:3.10.0.2"],"blastx_Nemata","EFO27203.1:Loa_loa","Scaffold19",258141,258282]
[["tr|J9BC42|J9BC42_WUCBA:Wuchereria_bancrofti","Scaffold19:hit:11790:3.10.0.2"],"blastx_Nemata","tr|J9BC42|J9BC42_WUCBA:Wuchereria_bancrofti","Scaffold19",258141,258282]
[["tr|H3F5A1|H3F5A1_PRIPA:Pristionchus_pacificus","Scaffold19:hit:11825:3.10.0.2"],"blastx_Nemata","tr|H3F5A1|H3F5A1_PRIPA:Pristionchus_pacificus","Scaffold19",258141,258279]
[["tr|J9F2N3|J9F2N3_WUCBA:Wuchereria_bancrofti","Scaffold19:hit:11833:3.10.0.2"],"blastx_Nemata","tr|J9F2N3|J9F2N3_WUCBA:Wuchereria_bancrofti","Scaffold19",258267,259290]
[["tr|E3MI75|E3MI75_CAERE:Caenorhabditis_remanei","Scaffold19:hit:11810:3.10.0.2"],"blastx_Nemata","tr|E3MI75|E3MI75_CAERE:Caenorhabditis_remanei","Scaffold19",258282,259281]
[["tr|H3F5A3|H3F5A3_PRIPA:Pristionchus_pacificus","Scaffold19:hit:11767:3.10.0.2"],"blastx_Nemata","tr|H3F5A3|H3F5A3_PRIPA:Pristionchus_pacificus","Scaffold19",258330,258534]
[["tr|H3F5A4|H3F5A4_PRIPA:Pristionchus_pacificus","Scaffold19:hit:11806:3.10.0.2"],"blastx_Nemata","tr|H3F5A4|H3F5A4_PRIPA:Pristionchus_pacificus","Scaffold19",258600,259281]
[["tr|F1LI11|F1LI11_ASCSU:Ascaris_suum","Scaffold19:hit:11823:3.10.0.2"],"blastx_Nemata","tr|F1LI11|F1LI11_ASCSU:Ascaris_suum","Scaffold19",259002,259281]
[["C52E12.2a:Caenorhabditis_elegans","Scaffold19:hit:11966:3.10.0.2"],"blastx_Nemata","C52E12.2a:Caenorhabditis_elegans","Scaffold19",269377,282210]
[["C52E12.2b:Caenorhabditis_elegans","Scaffold19:hit:11897:3.10.0.2"],"blastx_Nemata","C52E12.2b:Caenorhabditis_elegans","Scaffold19",269377,282210]
[["tr|E5SRA6|E5SRA6_TRISP:Trichinella_spiralis","Scaffold19:hit:11999:3.10.0.2"],"blastx_Nemata","tr|E5SRA6|E5SRA6_TRISP:Trichinella_spiralis","Scaffold19",269434,280769]
[["EJD76458.1:Loa_loa","Scaffold19:hit:11990:3.10.0.2"],"blastx_Nemata","EJD76458.1:Loa_loa","Scaffold19",269449,282210]
[["tr|H3FKN2|H3FKN2_PRIPA:Pristionchus_pacificus","Scaffold19:hit:11953:3.10.0.2"],"blastx_Nemata","tr|H3FKN2|H3FKN2_PRIPA:Pristionchus_pacificus","Scaffold19",269449,280775]
[["tr|J9BCR4|J9BCR4_WUCBA:Wuchereria_bancrofti","Scaffold19:hit:11905:3.10.0.2"],"blastx_Nemata","tr|J9BCR4|J9BCR4_WUCBA:Wuchereria_bancrofti","Scaffold19",269449,275828]
[["tr|F1L3R2|F1L3R2_ASCSU:Ascaris_suum","Scaffold19:hit:11900:3.10.0.2"],"blastx_Nemata","tr|F1L3R2|F1L3R2_ASCSU:Ascaris_suum","Scaffold19",269449,271333]
[["tr|H3G0R8|H3G0R8_PRIPA:Pristionchus_pacificus","Scaffold19:hit:11884:3.10.0.2"],"blastx_Nemata","tr|H3G0R8|H3G0R8_PRIPA:Pristionchus_pacificus","Scaffold19",269455,280775]
[["tr|K7H9C8|K7H9C8_CAEJA:Caenorhabditis_japonica","Scaffold19:hit:11954:3.10.0.2"],"blastx_Nemata","tr|K7H9C8|K7H9C8_CAEJA:Caenorhabditis_japonica","Scaffold19",269503,280781]
[["tr|K7H9C6|K7H9C6_CAEJA:Caenorhabditis_japonica","Scaffold19:hit:11877:3.10.0.2"],"blastx_Nemata","tr|K7H9C6|K7H9C6_CAEJA:Caenorhabditis_japonica","Scaffold19",269503,280781]
[["tr|A8XCP6|A8XCP6_CAEBR:Caenorhabditis_briggsae","Scaffold19:hit:11985:3.10.0.2"],"blastx_Nemata","tr|A8XCP6|A8XCP6_CAEBR:Caenorhabditis_briggsae","Scaffold19",269518,282210]
[["tr|F1LG28|F1LG28_ASCSU:Ascaris_suum","Scaffold19:hit:11976:3.10.0.2"],"blastx_Nemata","tr|F1LG28|F1LG28_ASCSU:Ascaris_suum","Scaffold19",273116,275353]
[["tr|F1L5J7|F1L5J7_ASCSU:Ascaris_suum","Scaffold19:hit:12049:3.10.0.2"],"blastx_Nemata","tr|F1L5J7|F1L5J7_ASCSU:Ascaris_suum","Scaffold19",276017,280382]
[["tr|K7HKN4|K7HKN4_CAEJA:Caenorhabditis_japonica","Scaffold19:hit:11842:3.10.0.2"],"blastx_Nemata","tr|K7HKN4|K7HKN4_CAEJA:Caenorhabditis_japonica","Scaffold19",276068,276623]
[["tr|H3FCN3|H3FCN3_PRIPA:Pristionchus_pacificus","Scaffold19:hit:11850:3.10.0.2"],"blastx_Nemata","tr|H3FCN3|H3FCN3_PRIPA:Pristionchus_pacificus","Scaffold19",276272,280778]
[["tr|H2X0Y1|H2X0Y1_CAEJA:Caenorhabditis_japonica","Scaffold19:hit:11914:3.10.0.2"],"blastx_Nemata","tr|H2X0Y1|H2X0Y1_CAEJA:Caenorhabditis_japonica","Scaffold19",279764,280775]
[["EFO16338.2:Loa_loa","Scaffold19:hit:11894:3.10.0.2"],"blastx_Nemata","EFO16338.2:Loa_loa","Scaffold19",279764,280763]
[["tr|H2VJT8|H2VJT8_CAEJA:Caenorhabditis_japonica","Scaffold19:hit:11931:3.10.0.2"],"blastx_Nemata","tr|H2VJT8|H2VJT8_CAEJA:Caenorhabditis_japonica","Scaffold19",279764,280763]
[["tr|H3FMG5|H3FMG5_PRIPA:Pristionchus_pacificus","Scaffold19:hit:11935:3.10.0.2"],"blastx_Nemata","tr|H3FMG5|H3FMG5_PRIPA:Pristionchus_pacificus","Scaffold19",279767,280646]
[["tr|K7H7V5|K7H7V5_CAEJA:Caenorhabditis_japonica","Scaffold19:hit:11991:3.10.0.2"],"blastx_Nemata","tr|K7H7V5|K7H7V5_CAEJA:Caenorhabditis_japonica","Scaffold19",280097,280781]
[["tr|K7IFY3|K7IFY3_CAEJA:Caenorhabditis_japonica","Scaffold19:hit:11923:3.10.0.2"],"blastx_Nemata","tr|K7IFY3|K7IFY3_CAEJA:Caenorhabditis_japonica","Scaffold19",280151,280526]
[["tr|A8NIP2|A8NIP2_BRUMA:Brugia_malayi","Scaffold19:hit:11896:3.10.0.2"],"blastx_Nemata","tr|A8NIP2|A8NIP2_BRUMA:Brugia_malayi","Scaffold19",280358,280688]
[["tr|E5T579|E5T579_TRISP:Trichinella_spiralis","Scaffold19:hit:11997:3.10.0.2"],"blastx_Nemata","tr|E5T579|E5T579_TRISP:Trichinella_spiralis","Scaffold19",280487,280745]
[["tr|F1LHA3|F1LHA3_ASCSU:Ascaris_suum","Scaffold19:hit:12033:3.10.0.2"],"blastx_Nemata","tr|F1LHA3|F1LHA3_ASCSU:Ascaris_suum","Scaffold19",280565,280814]
[["tr|E3LRY3|E3LRY3_CAERE:Caenorhabditis_remanei","Scaffold19:hit:12082:3.10.0.2"],"blastx_Nemata","tr|E3LRY3|E3LRY3_CAERE:Caenorhabditis_remanei","Scaffold19",287557,291925]
[["tr|G0MKJ3|G0MKJ3_CAEBE:Caenorhabditis_brenneri","Scaffold19:hit:12062:3.10.0.2"],"blastx_Nemata","tr|G0MKJ3|G0MKJ3_CAEBE:Caenorhabditis_brenneri","Scaffold19",287647,291925]
[["tr|F1KSZ1|F1KSZ1_ASCSU:Ascaris_suum","Scaffold19:hit:12068:3.10.0.2"],"blastx_Nemata","tr|F1KSZ1|F1KSZ1_ASCSU:Ascaris_suum","Scaffold19",287647,291925]
[["EFO18599.1:Loa_loa","Scaffold19:hit:12076:3.10.0.2"],"blastx_Nemata","EFO18599.1:Loa_loa","Scaffold19",287659,291925]
[["tr|K7H968|K7H968_CAEJA:Caenorhabditis_japonica","Scaffold19:hit:12104:3.10.0.2"],"blastx_Nemata","tr|K7H968|K7H968_CAEJA:Caenorhabditis_japonica","Scaffold19",287980,288653]
[["tr|F1KW66|F1KW66_ASCSU:Ascaris_suum","Scaffold19:hit:12085:3.10.0.2"],"blastx_Nemata","tr|F1KW66|F1KW66_ASCSU:Ascaris_suum","Scaffold19",288106,291889]
[["tr|H3ET96|H3ET96_PRIPA:Pristionchus_pacificus","Scaffold19:hit:12058:3.10.0.2"],"blastx_Nemata","tr|H3ET96|H3ET96_PRIPA:Pristionchus_pacificus","Scaffold19",288491,291892]
[["tr|F1KZU4|F1KZU4_ASCSU:Ascaris_suum","Scaffold19:hit:12643:3.10.0.3"],"blastx_Nemata","tr|F1KZU4|F1KZU4_ASCSU:Ascaris_suum","Scaffold19",298932,300699]
[["tr|E3LYQ4|E3LYQ4_CAERE:Caenorhabditis_remanei","Scaffold19:hit:12652:3.10.0.3"],"blastx_Nemata","tr|E3LYQ4|E3LYQ4_CAERE:Caenorhabditis_remanei","Scaffold19",298986,300690]
[["tr|H2WW96|H2WW96_CAEJA:Caenorhabditis_japonica","Scaffold19:hit:12609:3.10.0.3"],"blastx_Nemata","tr|H2WW96|H2WW96_CAEJA:Caenorhabditis_japonica","Scaffold19",298998,299595]
[["F25B5.5.1:Caenorhabditis_elegans","Scaffold19:hit:12649:3.10.0.3"],"blastx_Nemata","F25B5.5.1:Caenorhabditis_elegans","Scaffold19",299001,300663]
[["tr|G0MLK3|G0MLK3_CAEBE:Caenorhabditis_brenneri","Scaffold19:hit:12648:3.10.0.3"],"blastx_Nemata","tr|G0MLK3|G0MLK3_CAEBE:Caenorhabditis_brenneri","Scaffold19",299007,300663]
[["EFO19966.2:Loa_loa","Scaffold19:hit:12646:3.10.0.3"],"blastx_Nemata","EFO19966.2:Loa_loa","Scaffold19",299022,300699]
[["tr|E5SMJ9|E5SMJ9_TRISP:Trichinella_spiralis","Scaffold19:hit:12654:3.10.0.3"],"blastx_Nemata","tr|E5SMJ9|E5SMJ9_TRISP:Trichinella_spiralis","Scaffold19",299382,300669]
[["tr|K7I581|K7I581_CAEJA:Caenorhabditis_japonica","Scaffold19:hit:12611:3.10.0.3"],"blastx_Nemata","tr|K7I581|K7I581_CAEJA:Caenorhabditis_japonica","Scaffold19",299388,299595]
[["tr|H2W781|H2W781_CAEJA:Caenorhabditis_japonica","Scaffold19:hit:12655:3.10.0.3"],"blastx_Nemata","tr|H2W781|H2W781_CAEJA:Caenorhabditis_japonica","Scaffold19",299655,300663]
[["tr|E5S6F0|E5S6F0_TRISP:Trichinella_spiralis","Scaffold19:hit:12674:3.10.0.3"],"blastx_Nemata","tr|E5S6F0|E5S6F0_TRISP:Trichinella_spiralis","Scaffold19",306102,308630]
[["tr|K7IA99|K7IA99_CAEJA:Caenorhabditis_japonica","Scaffold19:hit:12686:3.10.0.3"],"blastx_Nemata","tr|K7IA99|K7IA99_CAEJA:Caenorhabditis_japonica","Scaffold19",306114,308693]
[["F40G9.17:Caenorhabditis_elegans","Scaffold19:hit:12722:3.10.0.3"],"blastx_Nemata","F40G9.17:Caenorhabditis_elegans","Scaffold19",306114,308651]
[["tr|A8PRF0|A8PRF0_BRUMA:Brugia_malayi","Scaffold19:hit:12708:3.10.0.3"],"blastx_Nemata","tr|A8PRF0|A8PRF0_BRUMA:Brugia_malayi","Scaffold19",306117,308825]
[["tr|F1LER8|F1LER8_ASCSU:Ascaris_suum","Scaffold19:hit:12729:3.10.0.3"],"blastx_Nemata","tr|F1LER8|F1LER8_ASCSU:Ascaris_suum","Scaffold19",313332,313767]
[["C39B10.6a:Caenorhabditis_elegans","Scaffold19:hit:12776:3.10.0.3"],"blastx_Nemata","C39B10.6a:Caenorhabditis_elegans","Scaffold19",337617,337806]
[["tr|K7HU62|K7HU62_CAEJA:Caenorhabditis_japonica","Scaffold19:hit:12760:3.10.0.3"],"blastx_Nemata","tr|K7HU62|K7HU62_CAEJA:Caenorhabditis_japonica","Scaffold19",337638,337818]
[["tr|A8P172|A8P172_BRUMA:Brugia_malayi","Scaffold19:hit:12774:3.10.0.3"],"blastx_Nemata","tr|A8P172|A8P172_BRUMA:Brugia_malayi","Scaffold19",337638,337797]
[["tr|H3EQQ7|H3EQQ7_PRIPA:Pristionchus_pacificus","Scaffold19:hit:12812:3.10.0.3"],"blastx_Nemata","tr|H3EQQ7|H3EQQ7_PRIPA:Pristionchus_pacificus","Scaffold19",339912,340116]
[["tr|J9F664|J9F664_WUCBA:Wuchereria_bancrofti","Scaffold19:hit:12892:3.10.0.3"],"blastx_Nemata","tr|J9F664|J9F664_WUCBA:Wuchereria_bancrofti","Scaffold19",360231,364879]
[["tr|A8PNE4|A8PNE4_BRUMA:Brugia_malayi","Scaffold19:hit:12831:3.10.0.3"],"blastx_Nemata","tr|A8PNE4|A8PNE4_BRUMA:Brugia_malayi","Scaffold19",360231,364879]
[["C06G4.2d:Caenorhabditis_elegans","Scaffold19:hit:12906:3.10.0.3"],"blastx_Nemata","C06G4.2d:Caenorhabditis_elegans","Scaffold19",360231,364879]
[["tr|F1KZB1|F1KZB1_ASCSU:Ascaris_suum","Scaffold19:hit:12907:3.10.0.3"],"blastx_Nemata","tr|F1KZB1|F1KZB1_ASCSU:Ascaris_suum","Scaffold19",360231,364879]
[["EJD74713.1:Loa_loa","Scaffold19:hit:12884:3.10.0.3"],"blastx_Nemata","EJD74713.1:Loa_loa","Scaffold19",360282,364879]
[["tr|H2W7C9|H2W7C9_CAEJA:Caenorhabditis_japonica","Scaffold19:hit:12871:3.10.0.3"],"blastx_Nemata","tr|H2W7C9|H2W7C9_CAEJA:Caenorhabditis_japonica","Scaffold19",363528,364924]
[["tr|H3FP35|H3FP35_PRIPA:Pristionchus_pacificus","Scaffold19:hit:12868:3.10.0.3"],"blastx_Nemata","tr|H3FP35|H3FP35_PRIPA:Pristionchus_pacificus","Scaffold19",363528,364616]
[["tr|F1KY41|F1KY41_ASCSU:Ascaris_suum","Scaffold19:hit:12893:3.10.0.3"],"blastx_Nemata","tr|F1KY41|F1KY41_ASCSU:Ascaris_suum","Scaffold19",363531,364676]
[["tr|G0NUR0|G0NUR0_CAEBE:Caenorhabditis_brenneri","Scaffold19:hit:13382:3.10.0.4"],"blastx_Nemata","tr|G0NUR0|G0NUR0_CAEBE:Caenorhabditis_brenneri","Scaffold19",467901,468871]
[["K04D7.2a.1:Caenorhabditis_elegans","Scaffold19:hit:13415:3.10.0.4"],"blastx_Nemata","K04D7.2a.1:Caenorhabditis_elegans","Scaffold19",468118,468871]
[["EFO23730.1:Loa_loa","Scaffold19:hit:13416:3.10.0.4"],"blastx_Nemata","EFO23730.1:Loa_loa","Scaffold19",468127,469015]
[["tr|F1KW06|F1KW06_ASCSU:Ascaris_suum","Scaffold19:hit:13347:3.10.0.4"],"blastx_Nemata","tr|F1KW06|F1KW06_ASCSU:Ascaris_suum","Scaffold19",468136,469021]
[["tr|E3NRW9|E3NRW9_CAERE:Caenorhabditis_remanei","Scaffold19:hit:13398:3.10.0.4"],"blastx_Nemata","tr|E3NRW9|E3NRW9_CAERE:Caenorhabditis_remanei","Scaffold19",468136,468841]
[["tr|E5SS71|E5SS71_TRISP:Trichinella_spiralis","Scaffold19:hit:13410:3.10.0.4"],"blastx_Nemata","tr|E5SS71|E5SS71_TRISP:Trichinella_spiralis","Scaffold19",468184,468871]
[["tr|H3EWE8|H3EWE8_PRIPA:Pristionchus_pacificus","Scaffold19:hit:13384:3.10.0.4"],"blastx_Nemata","tr|H3EWE8|H3EWE8_PRIPA:Pristionchus_pacificus","Scaffold19",468241,468970]
[["tr|H3E5A4|H3E5A4_PRIPA:Pristionchus_pacificus","Scaffold19:hit:13388:3.10.0.4"],"blastx_Nemata","tr|H3E5A4|H3E5A4_PRIPA:Pristionchus_pacificus","Scaffold19",468316,468871]
[["tr|H3DW08|H3DW08_PRIPA:Pristionchus_pacificus","Scaffold19:hit:13493:3.10.0.4"],"blastx_Nemata","tr|H3DW08|H3DW08_PRIPA:Pristionchus_pacificus","Scaffold19",493908,494631]
[["tr|H3ECA0|H3ECA0_PRIPA:Pristionchus_pacificus","Scaffold19:hit:13565:3.10.0.4"],"blastx_Nemata","tr|H3ECA0|H3ECA0_PRIPA:Pristionchus_pacificus","Scaffold19",493977,494631]
[["EJD73308.1:Loa_loa","Scaffold19:hit:13508:3.10.0.4"],"blastx_Nemata","EJD73308.1:Loa_loa","Scaffold19",494115,494631]
[["EFO13338.1:Loa_loa","Scaffold19:hit:13481:3.10.0.4"],"blastx_Nemata","EFO13338.1:Loa_loa","Scaffold19",494124,494508]
[["EFO12271.1:Loa_loa","Scaffold19:hit:13543:3.10.0.4"],"blastx_Nemata","EFO12271.1:Loa_loa","Scaffold19",494148,494631]
[["EFO12559.1:Loa_loa","Scaffold19:hit:13529:3.10.0.4"],"blastx_Nemata","EFO12559.1:Loa_loa","Scaffold19",494148,494589]
[["tr|J9DQT5|J9DQT5_WUCBA:Wuchereria_bancrofti","Scaffold19:hit:13541:3.10.0.4"],"blastx_Nemata","tr|J9DQT5|J9DQT5_WUCBA:Wuchereria_bancrofti","Scaffold19",494148,494316]
[["tr|J9EJN3|J9EJN3_WUCBA:Wuchereria_bancrofti","Scaffold19:hit:13548:3.10.0.4"],"blastx_Nemata","tr|J9EJN3|J9EJN3_WUCBA:Wuchereria_bancrofti","Scaffold19",494187,494382]
[["tr|J9FF03|J9FF03_WUCBA:Wuchereria_bancrofti","Scaffold19:hit:13525:3.10.0.4"],"blastx_Nemata","tr|J9FF03|J9FF03_WUCBA:Wuchereria_bancrofti","Scaffold19",494232,494391]
[["tr|F1L5E3|F1L5E3_ASCSU:Ascaris_suum","Scaffold19:hit:13944:3.10.0.5"],"blastx_Nemata","tr|F1L5E3|F1L5E3_ASCSU:Ascaris_suum","Scaffold19",499419,500157]
[["tr|F1LGQ1|F1LGQ1_ASCSU:Ascaris_suum","Scaffold19:hit:13887:3.10.0.5"],"blastx_Nemata","tr|F1LGQ1|F1LGQ1_ASCSU:Ascaris_suum","Scaffold19",499482,499884]
[["tr|F1LDS8|F1LDS8_ASCSU:Ascaris_suum","Scaffold19:hit:13936:3.10.0.5"],"blastx_Nemata","tr|F1LDS8|F1LDS8_ASCSU:Ascaris_suum","Scaffold19",499485,500277]
[["tr|F1KQ21|F1KQ21_ASCSU:Ascaris_suum","Scaffold19:hit:14010:3.10.0.5"],"blastx_Nemata","tr|F1KQ21|F1KQ21_ASCSU:Ascaris_suum","Scaffold19",501112,512483]
[["tr|A8P3A3|A8P3A3_BRUMA:Brugia_malayi","Scaffold19:hit:14003:3.10.0.5"],"blastx_Nemata","tr|A8P3A3|A8P3A3_BRUMA:Brugia_malayi","Scaffold19",501112,512444]
[["EFO21246.1:Loa_loa","Scaffold19:hit:14013:3.10.0.5"],"blastx_Nemata","EFO21246.1:Loa_loa","Scaffold19",501112,512444]
[["tr|A8XHC1|A8XHC1_CAEBR:Caenorhabditis_briggsae","Scaffold19:hit:13995:3.10.0.5"],"blastx_Nemata","tr|A8XHC1|A8XHC1_CAEBR:Caenorhabditis_briggsae","Scaffold19",501112,512432]
[["C24H11.7a:Caenorhabditis_elegans","Scaffold19:hit:14012:3.10.0.5"],"blastx_Nemata","C24H11.7a:Caenorhabditis_elegans","Scaffold19",501112,512432]
[["tr|K7H003|K7H003_CAEJA:Caenorhabditis_japonica","Scaffold19:hit:14043:3.10.0.5"],"blastx_Nemata","tr|K7H003|K7H003_CAEJA:Caenorhabditis_japonica","Scaffold19",501112,505852]
[["tr|E5SD40|E5SD40_TRISP:Trichinella_spiralis","Scaffold19:hit:14024:3.10.0.5"],"blastx_Nemata","tr|E5SD40|E5SD40_TRISP:Trichinella_spiralis","Scaffold19",501112,503666]
[["tr|H3EDA3|H3EDA3_PRIPA:Pristionchus_pacificus","Scaffold19:hit:14050:3.10.0.5"],"blastx_Nemata","tr|H3EDA3|H3EDA3_PRIPA:Pristionchus_pacificus","Scaffold19",502438,512444]
[["tr|J9AJR4|J9AJR4_WUCBA:Wuchereria_bancrofti","Scaffold19:hit:14001:3.10.0.5"],"blastx_Nemata","tr|J9AJR4|J9AJR4_WUCBA:Wuchereria_bancrofti","Scaffold19",503027,503327]
[["tr|J9EC54|J9EC54_WUCBA:Wuchereria_bancrofti","Scaffold19:hit:14046:3.10.0.5"],"blastx_Nemata","tr|J9EC54|J9EC54_WUCBA:Wuchereria_bancrofti","Scaffold19",503261,506653]
[["tr|A8NP65|A8NP65_BRUMA:Brugia_malayi","Scaffold19:hit:13988:3.10.0.5"],"blastx_Nemata","tr|A8NP65|A8NP65_BRUMA:Brugia_malayi","Scaffold19",512033,512348]
[["tr|H3F4R2|H3F4R2_PRIPA:Pristionchus_pacificus","Scaffold19:hit:14059:3.10.0.5"],"blastx_Nemata","tr|H3F4R2|H3F4R2_PRIPA:Pristionchus_pacificus","Scaffold19",513654,514020]
[["tr|F1L7F2|F1L7F2_ASCSU:Ascaris_suum","Scaffold19:hit:14106:3.10.0.5"],"blastx_Nemata","tr|F1L7F2|F1L7F2_ASCSU:Ascaris_suum","Scaffold19",515949,516389]
[["tr|G0N215|G0N215_CAEBE:Caenorhabditis_brenneri","Scaffold19:hit:14071:3.10.0.5"],"blastx_Nemata","tr|G0N215|G0N215_CAEBE:Caenorhabditis_brenneri","Scaffold19",515973,516398]
[["C11H1.7:Caenorhabditis_elegans","Scaffold19:hit:14070:3.10.0.5"],"blastx_Nemata","C11H1.7:Caenorhabditis_elegans","Scaffold19",515973,516386]
[["tr|E3MUY8|E3MUY8_CAERE:Caenorhabditis_remanei","Scaffold19:hit:14104:3.10.0.5"],"blastx_Nemata","tr|E3MUY8|E3MUY8_CAERE:Caenorhabditis_remanei","Scaffold19",515973,516386]
[["EFO28377.1:Loa_loa","Scaffold19:hit:14099:3.10.0.5"],"blastx_Nemata","EFO28377.1:Loa_loa","Scaffold19",515979,516389]
[["tr|A8PRH6|A8PRH6_BRUMA:Brugia_malayi","Scaffold19:hit:14094:3.10.0.5"],"blastx_Nemata","tr|A8PRH6|A8PRH6_BRUMA:Brugia_malayi","Scaffold19",515979,516389]
[["tr|H2VVP8|H2VVP8_CAEJA:Caenorhabditis_japonica","Scaffold19:hit:14105:3.10.0.5"],"blastx_Nemata","tr|H2VVP8|H2VVP8_CAEJA:Caenorhabditis_japonica","Scaffold19",516033,516389]
[["tr|E5S5Z5|E5S5Z5_TRISP:Trichinella_spiralis","Scaffold19:hit:14108:3.10.0.5"],"blastx_Nemata","tr|E5S5Z5|E5S5Z5_TRISP:Trichinella_spiralis","Scaffold19",516540,516828]
[["EFO28400.1:Loa_loa","Scaffold19:hit:14126:3.10.0.5"],"blastx_Nemata","EFO28400.1:Loa_loa","Scaffold19",516552,516861]
[["tr|F1L6I1|F1L6I1_ASCSU:Ascaris_suum","Scaffold19:hit:14132:3.10.0.5"],"blastx_Nemata","tr|F1L6I1|F1L6I1_ASCSU:Ascaris_suum","Scaffold19",516552,516825]
[["Y92C3B.2c:Caenorhabditis_elegans","Scaffold19:hit:14154:3.10.0.5"],"blastx_Nemata","Y92C3B.2c:Caenorhabditis_elegans","Scaffold19",524418,531856]
[["tr|H3FSV1|H3FSV1_PRIPA:Pristionchus_pacificus","Scaffold19:hit:14159:3.10.0.5"],"blastx_Nemata","tr|H3FSV1|H3FSV1_PRIPA:Pristionchus_pacificus","Scaffold19",524418,531856]
[["Y92C3B.2a:Caenorhabditis_elegans","Scaffold19:hit:14173:3.10.0.5"],"blastx_Nemata","Y92C3B.2a:Caenorhabditis_elegans","Scaffold19",524418,531856]
[["tr|E3MSH5|E3MSH5_CAERE:Caenorhabditis_remanei","Scaffold19:hit:14175:3.10.0.5"],"blastx_Nemata","tr|E3MSH5|E3MSH5_CAERE:Caenorhabditis_remanei","Scaffold19",524418,531856]
[["tr|F1KU75|F1KU75_ASCSU:Ascaris_suum","Scaffold19:hit:14167:3.10.0.5"],"blastx_Nemata","tr|F1KU75|F1KU75_ASCSU:Ascaris_suum","Scaffold19",524418,531856]
[["EJD75480.1:Loa_loa","Scaffold19:hit:14190:3.10.0.5"],"blastx_Nemata","EJD75480.1:Loa_loa","Scaffold19",524418,531856]
[["tr|E5SDP2|E5SDP2_TRISP:Trichinella_spiralis","Scaffold19:hit:14161:3.10.0.5"],"blastx_Nemata","tr|E5SDP2|E5SDP2_TRISP:Trichinella_spiralis","Scaffold19",524418,531853]
[["tr|H2W8P1|H2W8P1_CAEJA:Caenorhabditis_japonica","Scaffold19:hit:14143:3.10.0.5"],"blastx_Nemata","tr|H2W8P1|H2W8P1_CAEJA:Caenorhabditis_japonica","Scaffold19",524418,531850]
[["EJD75448.1:Loa_loa","Scaffold19:hit:14201:3.10.0.5"],"blastx_Nemata","EJD75448.1:Loa_loa","Scaffold19",537694,538335]
[["tr|A8PYW4|A8PYW4_BRUMA:Brugia_malayi","Scaffold19:hit:14209:3.10.0.5"],"blastx_Nemata","tr|A8PYW4|A8PYW4_BRUMA:Brugia_malayi","Scaffold19",537694,537934]
[["tr|F1L1V0|F1L1V0_ASCSU:Ascaris_suum","Scaffold19:hit:14204:3.10.0.5"],"blastx_Nemata","tr|F1L1V0|F1L1V0_ASCSU:Ascaris_suum","Scaffold19",537736,538335]
[["tr|A8Y435|A8Y435_CAEBR:Caenorhabditis_briggsae","Scaffold19:hit:14287:3.10.0.5"],"blastx_Nemata","tr|A8Y435|A8Y435_CAEBR:Caenorhabditis_briggsae","Scaffold19",558151,560864]
[["tr|A8NT69|A8NT69_BRUMA:Brugia_malayi","Scaffold19:hit:14298:3.10.0.5"],"blastx_Nemata","tr|A8NT69|A8NT69_BRUMA:Brugia_malayi","Scaffold19",558299,561222]
[["EFO19166.2:Loa_loa","Scaffold19:hit:14283:3.10.0.5"],"blastx_Nemata","EFO19166.2:Loa_loa","Scaffold19",558299,560864]
[["tr|K7GWR6|K7GWR6_CAEJA:Caenorhabditis_japonica","Scaffold19:hit:14284:3.10.0.5"],"blastx_Nemata","tr|K7GWR6|K7GWR6_CAEJA:Caenorhabditis_japonica","Scaffold19",558487,560864]
[["tr|H3FVM5|H3FVM5_PRIPA:Pristionchus_pacificus","Scaffold19:hit:14301:3.10.0.5"],"blastx_Nemata","tr|H3FVM5|H3FVM5_PRIPA:Pristionchus_pacificus","Scaffold19",558794,560864]
[["tr|H2X5I0|H2X5I0_CAEJA:Caenorhabditis_japonica","Scaffold19:hit:14356:3.10.0.5"],"blastx_Nemata","tr|H2X5I0|H2X5I0_CAEJA:Caenorhabditis_japonica","Scaffold19",574115,575376]
[["tr|K7H9Q8|K7H9Q8_CAEJA:Caenorhabditis_japonica","Scaffold19:hit:14369:3.10.0.5"],"blastx_Nemata","tr|K7H9Q8|K7H9Q8_CAEJA:Caenorhabditis_japonica","Scaffold19",583779,584696]
[["tr|E5T0N0|E5T0N0_TRISP:Trichinella_spiralis","Scaffold19:hit:14368:3.10.0.5"],"blastx_Nemata","tr|E5T0N0|E5T0N0_TRISP:Trichinella_spiralis","Scaffold19",583968,584900]
[["tr|H3FN08|H3FN08_PRIPA:Pristionchus_pacificus","Scaffold19:hit:14374:3.10.0.5"],"blastx_Nemata","tr|H3FN08|H3FN08_PRIPA:Pristionchus_pacificus","Scaffold19",584366,584570]
[["tr|A8PCX0|A8PCX0_BRUMA:Brugia_malayi","Scaffold19:hit:14376:3.10.0.5"],"blastx_Nemata","tr|A8PCX0|A8PCX0_BRUMA:Brugia_malayi","Scaffold19",584369,584666]
[["tr|H2X1C6|H2X1C6_CAEJA:Caenorhabditis_japonica","Scaffold19:hit:14373:3.10.0.5"],"blastx_Nemata","tr|H2X1C6|H2X1C6_CAEJA:Caenorhabditis_japonica","Scaffold19",584696,584894]
[["tr|F1L9P4|F1L9P4_ASCSU:Ascaris_suum","Scaffold19:hit:14493:3.10.0.5"],"blastx_Nemata","tr|F1L9P4|F1L9P4_ASCSU:Ascaris_suum","Scaffold19",659029,659927]
[["tr|A8XG08|A8XG08_CAEBR:Caenorhabditis_briggsae","Scaffold19:hit:14517:3.10.0.5"],"blastx_Nemata","tr|A8XG08|A8XG08_CAEBR:Caenorhabditis_briggsae","Scaffold19",659029,659921]
[["T09B4.10.1:Caenorhabditis_elegans","Scaffold19:hit:14516:3.10.0.5"],"blastx_Nemata","T09B4.10.1:Caenorhabditis_elegans","Scaffold19",659029,659921]
[["tr|A8PR50|A8PR50_BRUMA:Brugia_malayi","Scaffold19:hit:14522:3.10.0.5"],"blastx_Nemata","tr|A8PR50|A8PR50_BRUMA:Brugia_malayi","Scaffold19",659029,659888]
[["tr|G0NK46|G0NK46_CAEBE:Caenorhabditis_brenneri","Scaffold19:hit:14497:3.10.0.5"],"blastx_Nemata","tr|G0NK46|G0NK46_CAEBE:Caenorhabditis_brenneri","Scaffold19",659035,659921]
[["tr|J9EYZ6|J9EYZ6_WUCBA:Wuchereria_bancrofti","Scaffold19:hit:14499:3.10.0.5"],"blastx_Nemata","tr|J9EYZ6|J9EYZ6_WUCBA:Wuchereria_bancrofti","Scaffold19",659158,659885]
[["EJD76554.1:Loa_loa","Scaffold19:hit:14509:3.10.0.5"],"blastx_Nemata","EJD76554.1:Loa_loa","Scaffold19",659637,659888]
[["tr|H3FCB2|H3FCB2_PRIPA:Pristionchus_pacificus","Scaffold19:hit:14496:3.10.0.5"],"blastx_Nemata","tr|H3FCB2|H3FCB2_PRIPA:Pristionchus_pacificus","Scaffold19",659643,659924]
