[["species:rnd-3_family-218|genus:Simple_repeat","Scaffold888:hit:8788:1.3.0.0"],"repeatmasker","species:rnd-3_family-218|genus:Simple_repeat","Scaffold888",0,121]
[["species:rnd-3_family-218|genus:Simple_repeat","Scaffold888:hit:8789:1.3.0.0"],"repeatmasker","species:rnd-3_family-218|genus:Simple_repeat","Scaffold888",141,1669]
[["species:rnd-4_family-1003|genus:DNA/TcMar-Tc1","Scaffold888:hit:8800:1.3.0.0"],"repeatmasker","species:rnd-4_family-1003|genus:DNA/TcMar-Tc1","Scaffold888",2623,2669]
[["species:AT_rich|genus:Low_complexity","Scaffold888:hit:8796:1.3.0.0"],"repeatmasker","species:AT_rich|genus:Low_complexity","Scaffold888",2688,2729]
[["species:rnd-6_family-104|genus:Unknown","Scaffold888:hit:8801:1.3.0.0"],"repeatmasker","species:rnd-6_family-104|genus:Unknown","Scaffold888",2740,2804]
[["species:rnd-6_family-104|genus:Unknown","Scaffold888:hit:8802:1.3.0.0"],"repeatmasker","species:rnd-6_family-104|genus:Unknown","Scaffold888",4744,5449]
[["species:rnd-4_family-1003|genus:DNA/TcMar-Tc1","Scaffold888:hit:8803:1.3.0.0"],"repeatmasker","species:rnd-4_family-1003|genus:DNA/TcMar-Tc1","Scaffold888",6600,6646]
[["species:AT_rich|genus:Low_complexity","Scaffold888:hit:8797:1.3.0.0"],"repeatmasker","species:AT_rich|genus:Low_complexity","Scaffold888",6665,6706]
[["species:rnd-6_family-104|genus:Unknown","Scaffold888:hit:8804:1.3.0.0"],"repeatmasker","species:rnd-6_family-104|genus:Unknown","Scaffold888",6718,7670]
[["species:rnd-6_family-104|genus:Unknown","Scaffold888:hit:8805:1.3.0.0"],"repeatmasker","species:rnd-6_family-104|genus:Unknown","Scaffold888",7858,8228]
[["species:rnd-3_family-352|genus:Unknown","Scaffold888:hit:8806:1.3.0.0"],"repeatmasker","species:rnd-3_family-352|genus:Unknown","Scaffold888",9298,9343]
[["species:rnd-3_family-46|genus:Unknown","Scaffold888:hit:8807:1.3.0.0"],"repeatmasker","species:rnd-3_family-46|genus:Unknown","Scaffold888",11494,12723]
[["species:rnd-3_family-46|genus:Unknown","Scaffold888:hit:8808:1.3.0.0"],"repeatmasker","species:rnd-3_family-46|genus:Unknown","Scaffold888",12875,13422]
[["species:rnd-3_family-46|genus:Unknown","Scaffold888:hit:8809:1.3.0.0"],"repeatmasker","species:rnd-3_family-46|genus:Unknown","Scaffold888",13775,15643]
[["species:rnd-3_family-46|genus:Unknown","Scaffold888:hit:8810:1.3.0.0"],"repeatmasker","species:rnd-3_family-46|genus:Unknown","Scaffold888",17398,18028]
[["species:rnd-3_family-46|genus:Unknown","Scaffold888:hit:8811:1.3.0.0"],"repeatmasker","species:rnd-3_family-46|genus:Unknown","Scaffold888",18354,18689]
[["species:rnd-5_family-1234|genus:Unknown","Scaffold888:hit:8812:1.3.0.0"],"repeatmasker","species:rnd-5_family-1234|genus:Unknown","Scaffold888",19897,20456]
[["species:rnd-3_family-218|genus:Simple_repeat","Scaffold888:hit:8790:1.3.0.0"],"repeatmasker","species:rnd-3_family-218|genus:Simple_repeat","Scaffold888",20627,21072]
[["species:rnd-3_family-218|genus:Simple_repeat","Scaffold888:hit:8791:1.3.0.0"],"repeatmasker","species:rnd-3_family-218|genus:Simple_repeat","Scaffold888",21171,22150]
[["species:rnd-5_family-3051|genus:Unknown","Scaffold888:hit:8813:1.3.0.0"],"repeatmasker","species:rnd-5_family-3051|genus:Unknown","Scaffold888",22055,22162]
[["species:rnd-4_family-626|genus:Unknown","Scaffold888:hit:8814:1.3.0.0"],"repeatmasker","species:rnd-4_family-626|genus:Unknown","Scaffold888",22221,22338]
[["species:rnd-3_family-218|genus:Simple_repeat","Scaffold888:hit:8792:1.3.0.0"],"repeatmasker","species:rnd-3_family-218|genus:Simple_repeat","Scaffold888",22326,22680]
[["species:rnd-3_family-218|genus:Simple_repeat","Scaffold888:hit:8793:1.3.0.0"],"repeatmasker","species:rnd-3_family-218|genus:Simple_repeat","Scaffold888",22749,23069]
[["species:rnd-3_family-218|genus:Simple_repeat","Scaffold888:hit:8794:1.3.0.0"],"repeatmasker","species:rnd-3_family-218|genus:Simple_repeat","Scaffold888",23176,23493]
[["species:rnd-3_family-218|genus:Simple_repeat","Scaffold888:hit:8795:1.3.0.0"],"repeatmasker","species:rnd-3_family-218|genus:Simple_repeat","Scaffold888",24580,25418]
[["species:AT_rich|genus:Low_complexity","Scaffold888:hit:8798:1.3.0.0"],"repeatmasker","species:AT_rich|genus:Low_complexity","Scaffold888",25707,25745]
[["species:AT_rich|genus:Low_complexity","Scaffold888:hit:8799:1.3.0.0"],"repeatmasker","species:AT_rich|genus:Low_complexity","Scaffold888",25915,25956]
