[["tr|E0VPJ7|E0VPJ7_PEDHC:Pediculus_humanus_subsp_corporis","Scaffold888:hit:8834:3.10.0.0"],"blastx_Arthropoda","tr|E0VPJ7|E0VPJ7_PEDHC:Pediculus_humanus_subsp_corporis","Scaffold888",1956,10318]
[["tr|N6T0Y0|N6T0Y0_9CUCU:Dendroctonus_ponderosae","Scaffold888:hit:8837:3.10.0.0"],"blastx_Arthropoda","tr|N6T0Y0|N6T0Y0_9CUCU:Dendroctonus_ponderosae","Scaffold888",1959,6167]
[["tr|J9JJ34|J9JJ34_ACYPI:Acyrthosiphon_pisum","Scaffold888:hit:8831:3.10.0.0"],"blastx_Arthropoda","tr|J9JJ34|J9JJ34_ACYPI:Acyrthosiphon_pisum","Scaffold888",1977,10321]
[["tr|H9HJB5|H9HJB5_ATTCE:Atta_cephalotes","Scaffold888:hit:8827:3.10.0.0"],"blastx_Arthropoda","tr|H9HJB5|H9HJB5_ATTCE:Atta_cephalotes","Scaffold888",1977,6164]
[["tr|B4GLJ5|B4GLJ5_DROPE:Drosophila_persimilis","Scaffold888:hit:8835:3.10.0.0"],"blastx_Arthropoda","tr|B4GLJ5|B4GLJ5_DROPE:Drosophila_persimilis","Scaffold888",1977,6140]
[["tr|G6DG15|G6DG15_DANPL:Danaus_plexippus","Scaffold888:hit:8828:3.10.0.0"],"blastx_Arthropoda","tr|G6DG15|G6DG15_DANPL:Danaus_plexippus","Scaffold888",1983,10333]
[["tr|E2A5V1|E2A5V1_CAMFO:Camponotus_floridanus","Scaffold888:hit:8829:3.10.0.0"],"blastx_Arthropoda","tr|E2A5V1|E2A5V1_CAMFO:Camponotus_floridanus","Scaffold888",1983,10288]
[["tr|D6WBN0|D6WBN0_TRICA:Tribolium_castaneum","Scaffold888:hit:8819:3.10.0.0"],"blastx_Arthropoda","tr|D6WBN0|D6WBN0_TRICA:Tribolium_castaneum","Scaffold888",1983,10288]
[["tr|N6UW88|N6UW88_9CUCU:Dendroctonus_ponderosae","Scaffold888:hit:8818:3.10.0.0"],"blastx_Arthropoda","tr|N6UW88|N6UW88_9CUCU:Dendroctonus_ponderosae","Scaffold888",1983,6161]
[["tr|B5DX79|B5DX79_DROPS:Drosophila_pseudoobscura_pseudoobscura","Scaffold888:hit:8822:3.10.0.0"],"blastx_Arthropoda","tr|B5DX79|B5DX79_DROPS:Drosophila_pseudoobscura_pseudoobscura","Scaffold888",1983,6140]
[["tr|B4QV28|B4QV28_DROSI:Drosophila_simulans","Scaffold888:hit:8816:3.10.0.0"],"blastx_Arthropoda","tr|B4QV28|B4QV28_DROSI:Drosophila_simulans","Scaffold888",2358,10330]
[["tr|F6KSN4|F6KSN4_CULPI:Culex_pipiens","Scaffold888:hit:8815:3.10.0.0"],"blastx_Arthropoda","tr|F6KSN4|F6KSN4_CULPI:Culex_pipiens","Scaffold888",2358,10321]
