[["tr|E2BXB4|E2BXB4_HARSA:Harpegnathos_saltator","Scaffold5318:hit:5241:3.10.0.0"],"blastx_Arthropoda","tr|E2BXB4|E2BXB4_HARSA:Harpegnathos_saltator","Scaffold5318",1822,3773]
[["tr|J9WJ73|J9WJ73_9DIPT:Belgica_antarctica","Scaffold5318:hit:5386:3.10.0.0"],"blastx_Arthropoda","tr|J9WJ73|J9WJ73_9DIPT:Belgica_antarctica","Scaffold5318",1831,3794]
[["tr|B0WUR7|B0WUR7_CULQU:Culex_quinquefasciatus","Scaffold5318:hit:5355:3.10.0.0"],"blastx_Arthropoda","tr|B0WUR7|B0WUR7_CULQU:Culex_quinquefasciatus","Scaffold5318",1849,3794]
[["tr|E0VPY4|E0VPY4_PEDHC:Pediculus_humanus_subsp_corporis","Scaffold5318:hit:5290:3.10.0.0"],"blastx_Arthropoda","tr|E0VPY4|E0VPY4_PEDHC:Pediculus_humanus_subsp_corporis","Scaffold5318",1855,3794]
[["tr|B3NMU2|B3NMU2_DROER:Drosophila_erecta","Scaffold5318:hit:5269:3.10.0.0"],"blastx_Arthropoda","tr|B3NMU2|B3NMU2_DROER:Drosophila_erecta","Scaffold5318",1867,3791]
[["tr|B0WUR8|B0WUR8_CULQU:Culex_quinquefasciatus","Scaffold5318:hit:5328:3.10.0.0"],"blastx_Arthropoda","tr|B0WUR8|B0WUR8_CULQU:Culex_quinquefasciatus","Scaffold5318",1885,3788]
[["tr|E3X2Y6|E3X2Y6_ANODA:Anopheles_darlingi","Scaffold5318:hit:5302:3.10.0.0"],"blastx_Arthropoda","tr|E3X2Y6|E3X2Y6_ANODA:Anopheles_darlingi","Scaffold5318",1906,3794]
[["tr|B4N5X1|B4N5X1_DROWI:Drosophila_willistoni","Scaffold5318:hit:5235:3.10.0.0"],"blastx_Arthropoda","tr|B4N5X1|B4N5X1_DROWI:Drosophila_willistoni","Scaffold5318",1906,3794]
[["tr|B4GGS1|B4GGS1_DROPE:Drosophila_persimilis","Scaffold5318:hit:5249:3.10.0.0"],"blastx_Arthropoda","tr|B4GGS1|B4GGS1_DROPE:Drosophila_persimilis","Scaffold5318",1906,3791]
[["tr|B3MDF9|B3MDF9_DROAN:Drosophila_ananassae","Scaffold5318:hit:5364:3.10.0.0"],"blastx_Arthropoda","tr|B3MDF9|B3MDF9_DROAN:Drosophila_ananassae","Scaffold5318",1906,3791]
[["tr|B4KTB0|B4KTB0_DROMO:Drosophila_mojavensis","Scaffold5318:hit:5303:3.10.0.0"],"blastx_Arthropoda","tr|B4KTB0|B4KTB0_DROMO:Drosophila_mojavensis","Scaffold5318",1906,3791]
[["tr|Q0C735|Q0C735_AEDAE:Aedes_aegypti","Scaffold5318:hit:5415:3.10.0.0"],"blastx_Arthropoda","tr|Q0C735|Q0C735_AEDAE:Aedes_aegypti","Scaffold5318",1921,3794]
[["tr|B0WUS0|B0WUS0_CULQU:Culex_quinquefasciatus","Scaffold5318:hit:5291:3.10.0.0"],"blastx_Arthropoda","tr|B0WUS0|B0WUS0_CULQU:Culex_quinquefasciatus","Scaffold5318",1921,3794]
[["tr|D6WPH9|D6WPH9_TRICA:Tribolium_castaneum","Scaffold5318:hit:5380:3.10.0.0"],"blastx_Arthropoda","tr|D6WPH9|D6WPH9_TRICA:Tribolium_castaneum","Scaffold5318",1921,3791]
[["tr|J3JXL1|J3JXL1_9CUCU:Dendroctonus_ponderosae","Scaffold5318:hit:5405:3.10.0.0"],"blastx_Arthropoda","tr|J3JXL1|J3JXL1_9CUCU:Dendroctonus_ponderosae","Scaffold5318",1921,3785]
[["tr|B4GGS0|B4GGS0_DROPE:Drosophila_persimilis","Scaffold5318:hit:5340:3.10.0.0"],"blastx_Arthropoda","tr|B4GGS0|B4GGS0_DROPE:Drosophila_persimilis","Scaffold5318",1927,3791]
[["tr|B4JW28|B4JW28_DROGR:Drosophila_grimshawi","Scaffold5318:hit:5416:3.10.0.0"],"blastx_Arthropoda","tr|B4JW28|B4JW28_DROGR:Drosophila_grimshawi","Scaffold5318",1927,3791]
[["tr|D3TQU4|D3TQU4_GLOMM:Glossina_morsitans_morsitans","Scaffold5318:hit:5358:3.10.0.0"],"blastx_Arthropoda","tr|D3TQU4|D3TQU4_GLOMM:Glossina_morsitans_morsitans","Scaffold5318",1927,3791]
[["tr|B4JW27|B4JW27_DROGR:Drosophila_grimshawi","Scaffold5318:hit:5276:3.10.0.0"],"blastx_Arthropoda","tr|B4JW27|B4JW27_DROGR:Drosophila_grimshawi","Scaffold5318",1927,3791]
[["sp|P20007|PCKG_DROME:Drosophila_melanogaster","Scaffold5318:hit:5281:3.10.0.0"],"blastx_Arthropoda","sp|P20007|PCKG_DROME:Drosophila_melanogaster","Scaffold5318",1927,3788]
[["tr|J9JP04|J9JP04_ACYPI:Acyrthosiphon_pisum","Scaffold5318:hit:5262:3.10.0.0"],"blastx_Arthropoda","tr|J9JP04|J9JP04_ACYPI:Acyrthosiphon_pisum","Scaffold5318",1942,3797]
[["tr|I3RRT2|I3RRT2_HELAM:Helicoverpa_armigera","Scaffold5318:hit:5242:3.10.0.0"],"blastx_Arthropoda","tr|I3RRT2|I3RRT2_HELAM:Helicoverpa_armigera","Scaffold5318",1942,3794]
[["tr|K7J8E0|K7J8E0_NASVI:Nasonia_vitripennis","Scaffold5318:hit:5414:3.10.0.0"],"blastx_Arthropoda","tr|K7J8E0|K7J8E0_NASVI:Nasonia_vitripennis","Scaffold5318",1942,3794]
[["tr|G6DG24|G6DG24_DANPL:Danaus_plexippus","Scaffold5318:hit:5307:3.10.0.0"],"blastx_Arthropoda","tr|G6DG24|G6DG24_DANPL:Danaus_plexippus","Scaffold5318",1942,3794]
[["tr|E9IFE7|E9IFE7_SOLIN:Solenopsis_invicta","Scaffold5318:hit:5308:3.10.0.0"],"blastx_Arthropoda","tr|E9IFE7|E9IFE7_SOLIN:Solenopsis_invicta","Scaffold5318",1942,3791]
[["tr|E2ATI7|E2ATI7_CAMFO:Camponotus_floridanus","Scaffold5318:hit:5359:3.10.0.0"],"blastx_Arthropoda","tr|E2ATI7|E2ATI7_CAMFO:Camponotus_floridanus","Scaffold5318",1942,3791]
[["tr|F4WWE3|F4WWE3_ACREC:Acromyrmex_echinatior","Scaffold5318:hit:5338:3.10.0.0"],"blastx_Arthropoda","tr|F4WWE3|F4WWE3_ACREC:Acromyrmex_echinatior","Scaffold5318",1942,3791]
[["tr|H9J438|H9J438_BOMMO:Bombyx_mori","Scaffold5318:hit:5321:3.10.0.0"],"blastx_Arthropoda","tr|H9J438|H9J438_BOMMO:Bombyx_mori","Scaffold5318",1942,3788]
[["tr|L7WFG5|L7WFG5_COLME:Colias_meadii","Scaffold5318:hit:5330:3.10.0.0"],"blastx_Arthropoda","tr|L7WFG5|L7WFG5_COLME:Colias_meadii","Scaffold5318",1942,3788]
[["tr|H9KGL3|H9KGL3_APIME:Apis_mellifera","Scaffold5318:hit:5425:3.10.0.0"],"blastx_Arthropoda","tr|H9KGL3|H9KGL3_APIME:Apis_mellifera","Scaffold5318",1942,3770]
[["tr|R4G5V5|R4G5V5_RHOPR:Rhodnius_prolixus","Scaffold5318:hit:5329:3.10.0.0"],"blastx_Arthropoda","tr|R4G5V5|R4G5V5_RHOPR:Rhodnius_prolixus","Scaffold5318",1951,3788]
[["tr|R4UJN8|R4UJN8_COPFO:Coptotermes_formosanus","Scaffold5318:hit:5279:3.10.0.0"],"blastx_Arthropoda","tr|R4UJN8|R4UJN8_COPFO:Coptotermes_formosanus","Scaffold5318",2138,2903]
[["tr|R4UMF0|R4UMF0_COPFO:Coptotermes_formosanus","Scaffold5318:hit:5343:3.10.0.0"],"blastx_Arthropoda","tr|R4UMF0|R4UMF0_COPFO:Coptotermes_formosanus","Scaffold5318",2159,2852]
[["tr|R4WUF0|R4WUF0_9HEMI:Riptortus_pedestris","Scaffold5318:hit:5393:3.10.0.0"],"blastx_Arthropoda","tr|R4WUF0|R4WUF0_9HEMI:Riptortus_pedestris","Scaffold5318",2159,2702]
[["tr|Q06AG2|Q06AG2_9HYME:Chalcura_sp_CD014","Scaffold5318:hit:5341:3.10.0.0"],"blastx_Arthropoda","tr|Q06AG2|Q06AG2_9HYME:Chalcura_sp_CD014","Scaffold5318",2357,3383]
[["tr|Q06AE5|Q06AE5_9HYME:Platygaster_sp_CD032","Scaffold5318:hit:5293:3.10.0.0"],"blastx_Arthropoda","tr|Q06AE5|Q06AE5_9HYME:Platygaster_sp_CD032","Scaffold5318",2357,3383]
[["tr|Q06AF0|Q06AF0_9HYME:Gonatocerus_sp_CD026","Scaffold5318:hit:5306:3.10.0.0"],"blastx_Arthropoda","tr|Q06AF0|Q06AF0_9HYME:Gonatocerus_sp_CD026","Scaffold5318",2357,3383]
[["tr|Q06AE1|Q06AE1_9HYME:Scelio_sp_CD036","Scaffold5318:hit:5236:3.10.0.0"],"blastx_Arthropoda","tr|Q06AE1|Q06AE1_9HYME:Scelio_sp_CD036","Scaffold5318",2357,3383]
[["tr|Q06AD6|Q06AD6_9HYME:Thaumasura_sp_CD041","Scaffold5318:hit:5408:3.10.0.0"],"blastx_Arthropoda","tr|Q06AD6|Q06AD6_9HYME:Thaumasura_sp_CD041","Scaffold5318",2357,3383]
[["tr|Q06AG9|Q06AG9_9HYME:Aphanogmus_sp_CD005","Scaffold5318:hit:5396:3.10.0.0"],"blastx_Arthropoda","tr|Q06AG9|Q06AG9_9HYME:Aphanogmus_sp_CD005","Scaffold5318",2357,2861]
[["tr|B4YT56|B4YT56_9COLE:Chauliognathus_opacus","Scaffold5318:hit:5312:3.10.0.0"],"blastx_Arthropoda","tr|B4YT56|B4YT56_9COLE:Chauliognathus_opacus","Scaffold5318",2642,3353]
[["tr|B4YT65|B4YT65_CALSB:Calosoma_scrutator","Scaffold5318:hit:5420:3.10.0.0"],"blastx_Arthropoda","tr|B4YT65|B4YT65_CALSB:Calosoma_scrutator","Scaffold5318",2642,3344]
[["tr|B4YT70|B4YT70_9CARA:Asaphidion_yukonense","Scaffold5318:hit:5313:3.10.0.0"],"blastx_Arthropoda","tr|B4YT70|B4YT70_9CARA:Asaphidion_yukonense","Scaffold5318",2642,3341]
[["tr|B4YT69|B4YT69_METCO:Metrius_contractus","Scaffold5318:hit:5314:3.10.0.0"],"blastx_Arthropoda","tr|B4YT69|B4YT69_METCO:Metrius_contractus","Scaffold5318",2642,3308]
[["tr|R4WRK8|R4WRK8_9HEMI:Riptortus_pedestris","Scaffold5318:hit:5253:3.10.0.0"],"blastx_Arthropoda","tr|R4WRK8|R4WRK8_9HEMI:Riptortus_pedestris","Scaffold5318",2726,3533]
[["tr|Q06AH3|Q06AH3_9HYME:Dipara_trilineatus","Scaffold5318:hit:5365:3.10.0.0"],"blastx_Arthropoda","tr|Q06AH3|Q06AH3_9HYME:Dipara_trilineatus","Scaffold5318",2726,3383]
[["tr|B4YT60|B4YT60_9DYTI:Laccophilus_pictus","Scaffold5318:hit:5409:3.10.0.0"],"blastx_Arthropoda","tr|B4YT60|B4YT60_9DYTI:Laccophilus_pictus","Scaffold5318",2729,3353]
[["tr|B4YT58|B4YT58_9COLE:Tenomerga_cinerea","Scaffold5318:hit:5263:3.10.0.0"],"blastx_Arthropoda","tr|B4YT58|B4YT58_9COLE:Tenomerga_cinerea","Scaffold5318",2729,3344]
[["tr|K9LIH9|K9LIH9_9CARA:Nebria_ingens","Scaffold5318:hit:5378:3.10.0.0"],"blastx_Arthropoda","tr|K9LIH9|K9LIH9_9CARA:Nebria_ingens","Scaffold5318",2729,3308]
[["tr|B4YT71|B4YT71_9CARA:Sirdenus_grayii","Scaffold5318:hit:5294:3.10.0.0"],"blastx_Arthropoda","tr|B4YT71|B4YT71_9CARA:Sirdenus_grayii","Scaffold5318",2729,3308]
[["tr|B4YT55|B4YT55_9NEOP:Sialis_sp_ALW-2008","Scaffold5318:hit:5351:3.10.0.0"],"blastx_Arthropoda","tr|B4YT55|B4YT55_9NEOP:Sialis_sp_ALW-2008","Scaffold5318",2732,3344]
[["tr|B4YT59|B4YT59_9COLE:Prolixocupes_lobiceps","Scaffold5318:hit:5353:3.10.0.0"],"blastx_Arthropoda","tr|B4YT59|B4YT59_9COLE:Prolixocupes_lobiceps","Scaffold5318",2732,3287]
[["tr|B4YT57|B4YT57_9SCAR:Dynastes_granti","Scaffold5318:hit:5265:3.10.0.0"],"blastx_Arthropoda","tr|B4YT57|B4YT57_9SCAR:Dynastes_granti","Scaffold5318",2732,3287]
[["tr|M4IZP2|M4IZP2_BOMTE:Bombus_terrestris_dalmatinus","Scaffold5318:hit:5404:3.10.0.0"],"blastx_Arthropoda","tr|M4IZP2|M4IZP2_BOMTE:Bombus_terrestris_dalmatinus","Scaffold5318",2732,3110]
[["tr|Q95UC7|Q95UC7_9CUCU:Platyphora_amabilis","Scaffold5318:hit:5369:3.10.0.0"],"blastx_Arthropoda","tr|Q95UC7|Q95UC7_9CUCU:Platyphora_amabilis","Scaffold5318",2732,3098]
[["tr|A5JEB4|A5JEB4_9HYME:Eulaema_boliviensis","Scaffold5318:hit:5349:3.10.0.0"],"blastx_Arthropoda","tr|A5JEB4|A5JEB4_9HYME:Eulaema_boliviensis","Scaffold5318",2732,3065]
[["tr|Q27816|Q27816_9DIPT:Tipula_paterifera","Scaffold5318:hit:5323:3.10.0.0"],"blastx_Arthropoda","tr|Q27816|Q27816_9DIPT:Tipula_paterifera","Scaffold5318",2738,3356]
[["tr|Q27455|Q27455_9NEOP:Brachycentrus_nigrosoma","Scaffold5318:hit:5238:3.10.0.0"],"blastx_Arthropoda","tr|Q27455|Q27455_9NEOP:Brachycentrus_nigrosoma","Scaffold5318",2738,3356]
[["tr|Q27790|Q27790_9NEOP:Coptotriche_citrinipennella","Scaffold5318:hit:5277:3.10.0.0"],"blastx_Arthropoda","tr|Q27790|Q27790_9NEOP:Coptotriche_citrinipennella","Scaffold5318",2738,3356]
[["tr|Q27668|Q27668_9NEOP:Heterobathmia_pseuderiocrania","Scaffold5318:hit:5264:3.10.0.0"],"blastx_Arthropoda","tr|Q27668|Q27668_9NEOP:Heterobathmia_pseuderiocrania","Scaffold5318",2738,3356]
[["tr|Q27639|Q27639_9NEOP:Epimartyria_auricrinella","Scaffold5318:hit:5372:3.10.0.0"],"blastx_Arthropoda","tr|Q27639|Q27639_9NEOP:Epimartyria_auricrinella","Scaffold5318",2738,3356]
[["tr|Q27672|Q27672_9NEOP:Korscheltellus_gracilis","Scaffold5318:hit:5256:3.10.0.0"],"blastx_Arthropoda","tr|Q27672|Q27672_9NEOP:Korscheltellus_gracilis","Scaffold5318",2738,3356]
[["tr|Q27439|Q27439_APTAP:Apterobittacus_apterus","Scaffold5318:hit:5390:3.10.0.0"],"blastx_Arthropoda","tr|Q27439|Q27439_APTAP:Apterobittacus_apterus","Scaffold5318",2738,3350]
[["tr|Q27568|Q27568_9NEOP:Dyseriocrania_griseocapitella","Scaffold5318:hit:5352:3.10.0.0"],"blastx_Arthropoda","tr|Q27568|Q27568_9NEOP:Dyseriocrania_griseocapitella","Scaffold5318",2738,3335]
[["tr|Q27654|Q27654_9NEOP:Eriocrania_semipurpurella","Scaffold5318:hit:5421:3.10.0.0"],"blastx_Arthropoda","tr|Q27654|Q27654_9NEOP:Eriocrania_semipurpurella","Scaffold5318",2744,3356]
[["tr|Q27544|Q27544_CTEFE:Ctenocephalides_felis","Scaffold5318:hit:5345:3.10.0.0"],"blastx_Arthropoda","tr|Q27544|Q27544_CTEFE:Ctenocephalides_felis","Scaffold5318",2744,3335]
[["tr|A5JEB2|A5JEB2_9HYME:Plebeia_frontalis","Scaffold5318:hit:5260:3.10.0.0"],"blastx_Arthropoda","tr|A5JEB2|A5JEB2_9HYME:Plebeia_frontalis","Scaffold5318",2744,3110]
[["tr|Q27704|Q27704_9NEOP:Macronema_zebratum","Scaffold5318:hit:5382:3.10.0.0"],"blastx_Arthropoda","tr|Q27704|Q27704_9NEOP:Macronema_zebratum","Scaffold5318",2756,3356]
[["tr|Q27690|Q27690_9NEOP:Micropterix_calthella","Scaffold5318:hit:5392:3.10.0.0"],"blastx_Arthropoda","tr|Q27690|Q27690_9NEOP:Micropterix_calthella","Scaffold5318",2762,3332]
[["tr|Q27445|Q27445_9NEOP:Agathiphaga_queenslandensis","Scaffold5318:hit:5315:3.10.0.0"],"blastx_Arthropoda","tr|Q27445|Q27445_9NEOP:Agathiphaga_queenslandensis","Scaffold5318",2804,3356]
[["tr|I6NZM1|I6NZM1_9CARA:Carabus_rumelicus_libanoticus","Scaffold5318:hit:5237:3.10.0.0"],"blastx_Arthropoda","tr|I6NZM1|I6NZM1_9CARA:Carabus_rumelicus_libanoticus","Scaffold5318",2816,3461]
[["tr|Q647C0|Q647C0_9CARA:Pamborus_guerinii","Scaffold5318:hit:5255:3.10.0.0"],"blastx_Arthropoda","tr|Q647C0|Q647C0_9CARA:Pamborus_guerinii","Scaffold5318",2819,3434]
[["tr|M9QU91|M9QU91_9CUCU:Stips_stali","Scaffold5318:hit:5336:3.10.0.0"],"blastx_Arthropoda","tr|M9QU91|M9QU91_9CUCU:Stips_stali","Scaffold5318",2849,3341]
[["tr|B4YT61|B4YT61_9DYTI:Copelatus_distinctus","Scaffold5318:hit:5399:3.10.0.0"],"blastx_Arthropoda","tr|B4YT61|B4YT61_9DYTI:Copelatus_distinctus","Scaffold5318",2849,3281]
[["tr|B3XX71|B3XX71_NICOR:Nicrophorus_orbicollis","Scaffold5318:hit:5258:3.10.0.0"],"blastx_Arthropoda","tr|B3XX71|B3XX71_NICOR:Nicrophorus_orbicollis","Scaffold5318",2870,3329]
[["tr|B3XX73|B3XX73_9COLE:Agelosus_carinatus","Scaffold5318:hit:5316:3.10.0.0"],"blastx_Arthropoda","tr|B3XX73|B3XX73_9COLE:Agelosus_carinatus","Scaffold5318",2870,3329]
[["tr|B3XX58|B3XX58_9COLE:Oiceoptoma_thoracicum","Scaffold5318:hit:5384:3.10.0.0"],"blastx_Arthropoda","tr|B3XX58|B3XX58_9COLE:Oiceoptoma_thoracicum","Scaffold5318",2873,3329]
[["tr|B1B327|B1B327_9NEOP:Kimochrysa_sp_Kimsp1ZA","Scaffold5318:hit:5373:3.10.0.0"],"blastx_Arthropoda","tr|B1B327|B1B327_9NEOP:Kimochrysa_sp_Kimsp1ZA","Scaffold5318",2879,3356]
[["tr|B1B321|B1B321_9NEOP:Anapochrysa_voeltzkowi","Scaffold5318:hit:5274:3.10.0.0"],"blastx_Arthropoda","tr|B1B321|B1B321_9NEOP:Anapochrysa_voeltzkowi","Scaffold5318",2879,3356]
[["tr|B1B248|B1B248_9NEOP:Italochrysa_nigrovenosa","Scaffold5318:hit:5285:3.10.0.0"],"blastx_Arthropoda","tr|B1B248|B1B248_9NEOP:Italochrysa_nigrovenosa","Scaffold5318",2879,3356]
[["tr|B1B215|B1B215_9NEOP:Micromus_linearis","Scaffold5318:hit:5361:3.10.0.0"],"blastx_Arthropoda","tr|B1B215|B1B215_9NEOP:Micromus_linearis","Scaffold5318",2879,3356]
[["tr|B4YT66|B4YT66_9CARA:Scaphinotus_petersi","Scaffold5318:hit:5300:3.10.0.0"],"blastx_Arthropoda","tr|B4YT66|B4YT66_9CARA:Scaphinotus_petersi","Scaffold5318",2879,3308]
[["tr|B4YT64|B4YT64_9COLE:Macrogyrus_oblongus","Scaffold5318:hit:5411:3.10.0.0"],"blastx_Arthropoda","tr|B4YT64|B4YT64_9COLE:Macrogyrus_oblongus","Scaffold5318",2879,3308]
[["tr|Q9NK07|Q9NK07_9DIPT:Thaumalea_gillespieae","Scaffold5318:hit:5410:3.10.0.0"],"blastx_Arthropoda","tr|Q9NK07|Q9NK07_9DIPT:Thaumalea_gillespieae","Scaffold5318",2903,3437]
[["tr|Q9NK08|Q9NK08_9DIPT:Cardiocladius_sp","Scaffold5318:hit:5429:3.10.0.0"],"blastx_Arthropoda","tr|Q9NK08|Q9NK08_9DIPT:Cardiocladius_sp","Scaffold5318",2903,3437]
[["tr|Q9NK06|Q9NK06_9DIPT:Parasimulium_crosskeyi","Scaffold5318:hit:5366:3.10.0.0"],"blastx_Arthropoda","tr|Q9NK06|Q9NK06_9DIPT:Parasimulium_crosskeyi","Scaffold5318",2903,3434]
[["tr|Q9NK01|Q9NK01_9DIPT:Cnephia_strenua","Scaffold5318:hit:5342:3.10.0.0"],"blastx_Arthropoda","tr|Q9NK01|Q9NK01_9DIPT:Cnephia_strenua","Scaffold5318",2906,3434]
[["tr|E9M5U7|E9M5U7_9CARA:Trechus_magistretti","Scaffold5318:hit:5278:3.10.0.0"],"blastx_Arthropoda","tr|E9M5U7|E9M5U7_9CARA:Trechus_magistretti","Scaffold5318",2906,3431]
[["tr|B2KZ69|B2KZ69_9CUCU:Amorphocerini_sp_1_DAD-2008","Scaffold5318:hit:5422:3.10.0.0"],"blastx_Arthropoda","tr|B2KZ69|B2KZ69_9CUCU:Amorphocerini_sp_1_DAD-2008","Scaffold5318",2906,3344]
[["tr|B2KZ60|B2KZ60_9CUCU:Porthetes_sp_n_1_DAD-2008","Scaffold5318:hit:5259:3.10.0.0"],"blastx_Arthropoda","tr|B2KZ60|B2KZ60_9CUCU:Porthetes_sp_n_1_DAD-2008","Scaffold5318",2906,3344]
[["tr|B4YT63|B4YT63_9COLE:Dineutus_sublineatus","Scaffold5318:hit:5375:3.10.0.0"],"blastx_Arthropoda","tr|B4YT63|B4YT63_9COLE:Dineutus_sublineatus","Scaffold5318",2948,3281]
[["tr|F6K905|F6K905_9INSE:Rhithrogena_sp_1_LV-2010","Scaffold5318:hit:5267:3.10.0.0"],"blastx_Arthropoda","tr|F6K905|F6K905_9INSE:Rhithrogena_sp_1_LV-2010","Scaffold5318",2972,3329]
[["tr|Q9GS75|Q9GS75_9HYME:Brevineura_rufitarsis","Scaffold5318:hit:5295:3.10.0.0"],"blastx_Arthropoda","tr|Q9GS75|Q9GS75_9HYME:Brevineura_rufitarsis","Scaffold5318",2981,3437]
[["tr|Q9GS56|Q9GS56_9HYME:Xylocopa_latipes","Scaffold5318:hit:5403:3.10.0.0"],"blastx_Arthropoda","tr|Q9GS56|Q9GS56_9HYME:Xylocopa_latipes","Scaffold5318",2981,3437]
[["tr|Q9GS53|Q9GS53_9HYME:Xylocopa_micheneri_micheneri","Scaffold5318:hit:5401:3.10.0.0"],"blastx_Arthropoda","tr|Q9GS53|Q9GS53_9HYME:Xylocopa_micheneri_micheneri","Scaffold5318",2990,3350]
[["tr|K7ZHX4|K7ZHX4_9MUSC:Phytomyza_ilicicola","Scaffold5318:hit:5296:3.10.0.0"],"blastx_Arthropoda","tr|K7ZHX4|K7ZHX4_9MUSC:Phytomyza_ilicicola","Scaffold5318",3023,3479]
[["tr|K7Z2Y3|K7Z2Y3_HAEPU:Haematopota_pluvialis","Scaffold5318:hit:5325:3.10.0.0"],"blastx_Arthropoda","tr|K7Z2Y3|K7Z2Y3_HAEPU:Haematopota_pluvialis","Scaffold5318",3023,3479]
[["tr|K7ZHX3|K7ZHX3_MEGSC:Megaselia_scalaris","Scaffold5318:hit:5317:3.10.0.0"],"blastx_Arthropoda","tr|K7ZHX3|K7ZHX3_MEGSC:Megaselia_scalaris","Scaffold5318",3023,3479]
[["tr|K7YX04|K7YX04_9DIPT:Coboldia_fuscipes","Scaffold5318:hit:5299:3.10.0.0"],"blastx_Arthropoda","tr|K7YX04|K7YX04_9DIPT:Coboldia_fuscipes","Scaffold5318",3023,3479]
[["tr|K7Z2Y9|K7Z2Y9_CERCA:Ceratitis_capitata","Scaffold5318:hit:5398:3.10.0.0"],"blastx_Arthropoda","tr|K7Z2Y9|K7Z2Y9_CERCA:Ceratitis_capitata","Scaffold5318",3023,3479]
[["tr|K7Z2X6|K7Z2X6_9DIPT:Protoplasa_fitchii","Scaffold5318:hit:5324:3.10.0.0"],"blastx_Arthropoda","tr|K7Z2X6|K7Z2X6_9DIPT:Protoplasa_fitchii","Scaffold5318",3023,3479]
[["tr|K7Z5B8|K7Z5B8_9MUSC:Physocephala_marginata","Scaffold5318:hit:5286:3.10.0.0"],"blastx_Arthropoda","tr|K7Z5B8|K7Z5B8_9MUSC:Physocephala_marginata","Scaffold5318",3023,3479]
[["tr|K7ZDU6|K7ZDU6_9NEOP:Nannochorista_philpotti","Scaffold5318:hit:5318:3.10.0.0"],"blastx_Arthropoda","tr|K7ZDU6|K7ZDU6_9NEOP:Nannochorista_philpotti","Scaffold5318",3023,3479]
[["tr|K7ZDV1|K7ZDV1_9DIPT:Tipula_abdominalis","Scaffold5318:hit:5423:3.10.0.0"],"blastx_Arthropoda","tr|K7ZDV1|K7ZDV1_9DIPT:Tipula_abdominalis","Scaffold5318",3023,3479]
[["tr|K7Z2W2|K7Z2W2_CTEFE:Ctenocephalides_felis","Scaffold5318:hit:5363:3.10.0.0"],"blastx_Arthropoda","tr|K7Z2W2|K7Z2W2_CTEFE:Ctenocephalides_felis","Scaffold5318",3023,3479]
[["tr|K7Z2X2|K7Z2X2_9DIPT:Bradysia_tilicola","Scaffold5318:hit:5297:3.10.0.0"],"blastx_Arthropoda","tr|K7Z2X2|K7Z2X2_9DIPT:Bradysia_tilicola","Scaffold5318",3023,3479]
[["tr|K7YX21|K7YX21_EPIBA:Episyrphus_balteatus","Scaffold5318:hit:5248:3.10.0.0"],"blastx_Arthropoda","tr|K7YX21|K7YX21_EPIBA:Episyrphus_balteatus","Scaffold5318",3023,3479]
[["tr|K7Z5A6|K7Z5A6_9MUSC:Asilus_crabroniformis","Scaffold5318:hit:5287:3.10.0.0"],"blastx_Arthropoda","tr|K7Z5A6|K7Z5A6_9MUSC:Asilus_crabroniformis","Scaffold5318",3023,3479]
[["tr|K7Z5A1|K7Z5A1_CLOAL:Clogmia_albipunctata","Scaffold5318:hit:5288:3.10.0.0"],"blastx_Arthropoda","tr|K7Z5A1|K7Z5A1_CLOAL:Clogmia_albipunctata","Scaffold5318",3029,3479]
[["tr|K7ZDV3|K7ZDV3_HERIL:Hermetia_illucens","Scaffold5318:hit:5298:3.10.0.0"],"blastx_Arthropoda","tr|K7ZDV3|K7ZDV3_HERIL:Hermetia_illucens","Scaffold5318",3029,3479]
[["tr|K7YX37|K7YX37_9MUSC:Glossina_morsitans","Scaffold5318:hit:5374:3.10.0.0"],"blastx_Arthropoda","tr|K7YX37|K7YX37_9MUSC:Glossina_morsitans","Scaffold5318",3029,3479]
[["tr|K7Z5C4|K7Z5C4_DELRA:Delia_radicum","Scaffold5318:hit:5362:3.10.0.0"],"blastx_Arthropoda","tr|K7Z5C4|K7Z5C4_DELRA:Delia_radicum","Scaffold5318",3029,3479]
[["tr|K7ZHX1|K7ZHX1_MAYDE:Mayetiola_destructor","Scaffold5318:hit:5385:3.10.0.0"],"blastx_Arthropoda","tr|K7ZHX1|K7ZHX1_MAYDE:Mayetiola_destructor","Scaffold5318",3032,3479]
[["tr|K7Z5B3|K7Z5B3_9MUSC:Acrosathe_novella","Scaffold5318:hit:5347:3.10.0.0"],"blastx_Arthropoda","tr|K7Z5B3|K7Z5B3_9MUSC:Acrosathe_novella","Scaffold5318",3032,3479]
[["tr|K7YX11|K7YX11_9MUSC:Oreogeton_scopifer","Scaffold5318:hit:5368:3.10.0.0"],"blastx_Arthropoda","tr|K7YX11|K7YX11_9MUSC:Oreogeton_scopifer","Scaffold5318",3041,3479]
[["tr|K7ZHX6|K7ZHX6_9DIOP:Teleopsis_dalmanni","Scaffold5318:hit:5424:3.10.0.0"],"blastx_Arthropoda","tr|K7ZHX6|K7ZHX6_9DIOP:Teleopsis_dalmanni","Scaffold5318",3083,3470]
[["tr|K7Z309|K7Z309_9MUSC:Minettia_flaveola","Scaffold5318:hit:5289:3.10.0.0"],"blastx_Arthropoda","tr|K7Z309|K7Z309_9MUSC:Minettia_flaveola","Scaffold5318",3089,3479]
[["tr|K7YX47|K7YX47_SEPCY:Sepsis_cynipsea","Scaffold5318:hit:5348:3.10.0.0"],"blastx_Arthropoda","tr|K7YX47|K7YX47_SEPCY:Sepsis_cynipsea","Scaffold5318",3125,3479]
[["tr|A3EXZ9|A3EXZ9_MACHI:Maconellicoccus_hirsutus","Scaffold5318:hit:5275:3.10.0.0"],"blastx_Arthropoda","tr|A3EXZ9|A3EXZ9_MACHI:Maconellicoccus_hirsutus","Scaffold5318",3308,3794]
