[["tr|E9G4F4|E9G4F4_DAPPU:Daphnia_pulex","Scaffold5545:hit:8116:3.10.0.0"],"blastx_Crustacea","tr|E9G4F4|E9G4F4_DAPPU:Daphnia_pulex","Scaffold5545",484,2360]
[["tr|Q9U0S1|Q9U0S1_NEPNO:Nephrops_norvegicus","Scaffold5545:hit:8007:3.10.0.0"],"blastx_Crustacea","tr|Q9U0S1|Q9U0S1_NEPNO:Nephrops_norvegicus","Scaffold5545",487,2420]
[["tr|Q9NFY7|Q9NFY7_LITVA:Litopenaeus_vannamei","Scaffold5545:hit:7990:3.10.0.0"],"blastx_Crustacea","tr|Q9NFY7|Q9NFY7_LITVA:Litopenaeus_vannamei","Scaffold5545",487,2420]
[["tr|Q86R97|Q86R97_9EUCA:Neohelice_granulata","Scaffold5545:hit:8079:3.10.0.0"],"blastx_Crustacea","tr|Q86R97|Q86R97_9EUCA:Neohelice_granulata","Scaffold5545",487,2372]
[["tr|E9GK07|E9GK07_DAPPU:Daphnia_pulex","Scaffold5545:hit:8125:3.10.0.0"],"blastx_Crustacea","tr|E9GK07|E9GK07_DAPPU:Daphnia_pulex","Scaffold5545",487,2339]
[["tr|H6CSY6|H6CSY6_9EUCA:Pandalus_platyceros","Scaffold5545:hit:7938:3.10.0.0"],"blastx_Crustacea","tr|H6CSY6|H6CSY6_9EUCA:Pandalus_platyceros","Scaffold5545",568,982]
[["tr|B2L358|B2L358_9EUCA:Cancer_japonica","Scaffold5545:hit:8101:3.10.0.0"],"blastx_Crustacea","tr|B2L358|B2L358_9EUCA:Cancer_japonica","Scaffold5545",826,1387]
[["tr|B2L354|B2L354_9EUCA:Petrolisthes_japonicus","Scaffold5545:hit:8077:3.10.0.0"],"blastx_Crustacea","tr|B2L354|B2L354_9EUCA:Petrolisthes_japonicus","Scaffold5545",826,1387]
[["tr|C7ADU9|C7ADU9_EUPSU:Euphausia_superba","Scaffold5545:hit:8065:3.10.0.0"],"blastx_Crustacea","tr|C7ADU9|C7ADU9_EUPSU:Euphausia_superba","Scaffold5545",832,1387]
[["tr|B2L345|B2L345_9EUCA:Pagurodofleinia_doederleini","Scaffold5545:hit:8089:3.10.0.0"],"blastx_Crustacea","tr|B2L345|B2L345_9EUCA:Pagurodofleinia_doederleini","Scaffold5545",832,1387]
[["tr|G3C6Y9|G3C6Y9_9EUCA:Dardanus_setifer","Scaffold5545:hit:7937:3.10.0.0"],"blastx_Crustacea","tr|G3C6Y9|G3C6Y9_9EUCA:Dardanus_setifer","Scaffold5545",832,1366]
[["tr|B2L366|B2L366_9EUCA:Mictyris_longicarpus","Scaffold5545:hit:7945:3.10.0.0"],"blastx_Crustacea","tr|B2L366|B2L366_9EUCA:Mictyris_longicarpus","Scaffold5545",847,1387]
[["tr|B2L362|B2L362_9EUCA:Eplumula_phalangium","Scaffold5545:hit:8044:3.10.0.0"],"blastx_Crustacea","tr|B2L362|B2L362_9EUCA:Eplumula_phalangium","Scaffold5545",847,1387]
[["tr|G3C6Z8|G3C6Z8_9EUCA:Novorostrum_indicum","Scaffold5545:hit:8081:3.10.0.0"],"blastx_Crustacea","tr|G3C6Z8|G3C6Z8_9EUCA:Novorostrum_indicum","Scaffold5545",847,1366]
[["tr|I6P5F7|I6P5F7_MACRS:Macrobrachium_rosenbergii","Scaffold5545:hit:8018:3.10.0.0"],"blastx_Crustacea","tr|I6P5F7|I6P5F7_MACRS:Macrobrachium_rosenbergii","Scaffold5545",865,1399]
[["tr|F6JTP1|F6JTP1_9EUCA:Allogalathea_sp_n_2_PC-2010","Scaffold5545:hit:8033:3.10.0.0"],"blastx_Crustacea","tr|F6JTP1|F6JTP1_9EUCA:Allogalathea_sp_n_2_PC-2010","Scaffold5545",868,1456]
[["tr|R4K004|R4K004_9EUCA:Unguicaris_pilipes","Scaffold5545:hit:8096:3.10.0.0"],"blastx_Crustacea","tr|R4K004|R4K004_9EUCA:Unguicaris_pilipes","Scaffold5545",883,1399]
[["tr|G9HR97|G9HR97_HALRR:Halocaridina_rubra","Scaffold5545:hit:8111:3.10.0.0"],"blastx_Crustacea","tr|G9HR97|G9HR97_HALRR:Halocaridina_rubra","Scaffold5545",922,1348]
[["tr|G0ZJ75|G0ZJ75_CHEQU:Cherax_quadricarinatus","Scaffold5545:hit:7959:3.10.0.0"],"blastx_Crustacea","tr|G0ZJ75|G0ZJ75_CHEQU:Cherax_quadricarinatus","Scaffold5545",1927,2420]
