[["species:rnd-5_family-3919|genus:Unknown","Scaffold19:hit:8390:1.3.0.0"],"repeatmasker","species:rnd-5_family-3919|genus:Unknown","Scaffold19",0,227]
[["species:AT_rich|genus:Low_complexity","Scaffold19:hit:8365:1.3.0.0"],"repeatmasker","species:AT_rich|genus:Low_complexity","Scaffold19",728,786]
[["species:AT_rich|genus:Low_complexity","Scaffold19:hit:8366:1.3.0.0"],"repeatmasker","species:AT_rich|genus:Low_complexity","Scaffold19",1300,1348]
[["species:rnd-2_family-358|genus:Unknown","Scaffold19:hit:8391:1.3.0.0"],"repeatmasker","species:rnd-2_family-358|genus:Unknown","Scaffold19",1619,1937]
[["species:rnd-3_family-79|genus:Unknown","Scaffold19:hit:8392:1.3.0.0"],"repeatmasker","species:rnd-3_family-79|genus:Unknown","Scaffold19",2647,3141]
[["species:rnd-2_family-110|genus:Unknown","Scaffold19:hit:8393:1.3.0.0"],"repeatmasker","species:rnd-2_family-110|genus:Unknown","Scaffold19",3762,3823]
[["species:AT_rich|genus:Low_complexity","Scaffold19:hit:8367:1.3.0.0"],"repeatmasker","species:AT_rich|genus:Low_complexity","Scaffold19",4214,4257]
[["species:rnd-5_family-3919|genus:Unknown","Scaffold19:hit:8394:1.3.0.0"],"repeatmasker","species:rnd-5_family-3919|genus:Unknown","Scaffold19",4297,4506]
[["species:AT_rich|genus:Low_complexity","Scaffold19:hit:8368:1.3.0.0"],"repeatmasker","species:AT_rich|genus:Low_complexity","Scaffold19",4556,4614]
[["species:rnd-6_family-2384|genus:DNA/TcMar-ISRm11","Scaffold19:hit:8395:1.3.0.0"],"repeatmasker","species:rnd-6_family-2384|genus:DNA/TcMar-ISRm11","Scaffold19",5323,7066]
[["species:rnd-4_family-1545|genus:LINE/Penelope","Scaffold19:hit:8396:1.3.0.0"],"repeatmasker","species:rnd-4_family-1545|genus:LINE/Penelope","Scaffold19",7329,7677]
[["species:rnd-3_family-70|genus:DNA/TcMar-Tc1","Scaffold19:hit:8397:1.3.0.0"],"repeatmasker","species:rnd-3_family-70|genus:DNA/TcMar-Tc1","Scaffold19",8772,8877]
[["species:rnd-3_family-70|genus:DNA/TcMar-Tc1","Scaffold19:hit:8398:1.3.0.0"],"repeatmasker","species:rnd-3_family-70|genus:DNA/TcMar-Tc1","Scaffold19",9448,9904]
[["species:rnd-5_family-617|genus:Unknown","Scaffold19:hit:8399:1.3.0.0"],"repeatmasker","species:rnd-5_family-617|genus:Unknown","Scaffold19",10673,10888]
[["species:rnd-6_family-3832|genus:Unknown","Scaffold19:hit:8400:1.3.0.0"],"repeatmasker","species:rnd-6_family-3832|genus:Unknown","Scaffold19",11747,12010]
[["species:rnd-6_family-3832|genus:Unknown","Scaffold19:hit:8401:1.3.0.0"],"repeatmasker","species:rnd-6_family-3832|genus:Unknown","Scaffold19",12056,12225]
[["species:rnd-5_family-1925|genus:Unknown","Scaffold19:hit:8402:1.3.0.0"],"repeatmasker","species:rnd-5_family-1925|genus:Unknown","Scaffold19",13025,13276]
[["species:AT_rich|genus:Low_complexity","Scaffold19:hit:8369:1.3.0.0"],"repeatmasker","species:AT_rich|genus:Low_complexity","Scaffold19",16595,16643]
[["species:AT_rich|genus:Low_complexity","Scaffold19:hit:8370:1.3.0.0"],"repeatmasker","species:AT_rich|genus:Low_complexity","Scaffold19",16701,16745]
[["species:rnd-4_family-880|genus:Unknown","Scaffold19:hit:8403:1.3.0.0"],"repeatmasker","species:rnd-4_family-880|genus:Unknown","Scaffold19",17962,18465]
[["species:AT_rich|genus:Low_complexity","Scaffold19:hit:8371:1.3.0.0"],"repeatmasker","species:AT_rich|genus:Low_complexity","Scaffold19",18694,18721]
[["species:AT_rich|genus:Low_complexity","Scaffold19:hit:8372:1.3.0.0"],"repeatmasker","species:AT_rich|genus:Low_complexity","Scaffold19",18698,18766]
[["species:AT_rich|genus:Low_complexity","Scaffold19:hit:8373:1.3.0.0"],"repeatmasker","species:AT_rich|genus:Low_complexity","Scaffold19",19910,19988]
[["species:rnd-6_family-5548|genus:DNA/TcMar-Tc1","Scaffold19:hit:8404:1.3.0.0"],"repeatmasker","species:rnd-6_family-5548|genus:DNA/TcMar-Tc1","Scaffold19",20751,20777]
[["species:rnd-5_family-420|genus:LINE/CR1","Scaffold19:hit:8405:1.3.0.0"],"repeatmasker","species:rnd-5_family-420|genus:LINE/CR1","Scaffold19",21353,22619]
[["species:rnd-5_family-2076|genus:DNA/hAT-Charlie","Scaffold19:hit:8406:1.3.0.0"],"repeatmasker","species:rnd-5_family-2076|genus:DNA/hAT-Charlie","Scaffold19",25246,25587]
[["species:rnd-5_family-2076|genus:DNA/hAT-Charlie","Scaffold19:hit:8407:1.3.0.0"],"repeatmasker","species:rnd-5_family-2076|genus:DNA/hAT-Charlie","Scaffold19",25804,25986]
[["species:AT_rich|genus:Low_complexity","Scaffold19:hit:8374:1.3.0.0"],"repeatmasker","species:AT_rich|genus:Low_complexity","Scaffold19",26031,26124]
[["species:rnd-5_family-4257|genus:DNA/PiggyBac","Scaffold19:hit:8408:1.3.0.0"],"repeatmasker","species:rnd-5_family-4257|genus:DNA/PiggyBac","Scaffold19",26381,26779]
[["species:rnd-6_family-1241|genus:DNA/PIF-Harbinger","Scaffold19:hit:8409:1.3.0.0"],"repeatmasker","species:rnd-6_family-1241|genus:DNA/PIF-Harbinger","Scaffold19",26981,27553]
[["species:rnd-3_family-724|genus:LINE/RTE-X","Scaffold19:hit:8410:1.3.0.0"],"repeatmasker","species:rnd-3_family-724|genus:LINE/RTE-X","Scaffold19",28110,28932]
[["species:rnd-3_family-724|genus:LINE/RTE-X","Scaffold19:hit:8411:1.3.0.0"],"repeatmasker","species:rnd-3_family-724|genus:LINE/RTE-X","Scaffold19",29417,29677]
[["species:rnd-4_family-1150|genus:LINE/Jockey","Scaffold19:hit:8412:1.3.0.0"],"repeatmasker","species:rnd-4_family-1150|genus:LINE/Jockey","Scaffold19",30267,30648]
[["species:rnd-3_family-200|genus:LINE/Jockey","Scaffold19:hit:8413:1.3.0.0"],"repeatmasker","species:rnd-3_family-200|genus:LINE/Jockey","Scaffold19",31546,32330]
[["species:rnd-4_family-299|genus:LINE/L2","Scaffold19:hit:8414:1.3.0.0"],"repeatmasker","species:rnd-4_family-299|genus:LINE/L2","Scaffold19",32634,32769]
[["species:rnd-2_family-49|genus:Unknown","Scaffold19:hit:8417:1.3.0.0"],"repeatmasker","species:rnd-2_family-49|genus:Unknown","Scaffold19",38316,38781]
[["species:rnd-4_family-1675|genus:LINE/L2","Scaffold19:hit:8418:1.3.0.0"],"repeatmasker","species:rnd-4_family-1675|genus:LINE/L2","Scaffold19",42227,42289]
[["species:rnd-5_family-4578|genus:Unknown","Scaffold19:hit:8419:1.3.0.0"],"repeatmasker","species:rnd-5_family-4578|genus:Unknown","Scaffold19",45416,45785]
[["species:rnd-4_family-106|genus:Unknown","Scaffold19:hit:8420:1.3.0.0"],"repeatmasker","species:rnd-4_family-106|genus:Unknown","Scaffold19",46990,47129]
[["species:AT_rich|genus:Low_complexity","Scaffold19:hit:8375:1.3.0.0"],"repeatmasker","species:AT_rich|genus:Low_complexity","Scaffold19",47753,47777]
[["species:rnd-5_family-623|genus:LTR/Gypsy","Scaffold19:hit:8421:1.3.0.0"],"repeatmasker","species:rnd-5_family-623|genus:LTR/Gypsy","Scaffold19",47977,48019]
[["species:AT_rich|genus:Low_complexity","Scaffold19:hit:8376:1.3.0.0"],"repeatmasker","species:AT_rich|genus:Low_complexity","Scaffold19",48039,48094]
[["species:rnd-6_family-1372|genus:DNA/TcMar-Tc1","Scaffold19:hit:8422:1.3.0.0"],"repeatmasker","species:rnd-6_family-1372|genus:DNA/TcMar-Tc1","Scaffold19",49476,50111]
[["species:rnd-2_family-358|genus:Unknown","Scaffold19:hit:8423:1.3.0.0"],"repeatmasker","species:rnd-2_family-358|genus:Unknown","Scaffold19",50855,51407]
[["species:rnd-3_family-334|genus:LINE/Jockey","Scaffold19:hit:8424:1.3.0.0"],"repeatmasker","species:rnd-3_family-334|genus:LINE/Jockey","Scaffold19",53452,53567]
[["species:AT_rich|genus:Low_complexity","Scaffold19:hit:8377:1.3.0.0"],"repeatmasker","species:AT_rich|genus:Low_complexity","Scaffold19",54630,54657]
[["species:rnd-3_family-614|genus:LINE/LOA","Scaffold19:hit:8425:1.3.0.0"],"repeatmasker","species:rnd-3_family-614|genus:LINE/LOA","Scaffold19",54660,54745]
[["species:rnd-5_family-192|genus:DNA/TcMar-Tc1","Scaffold19:hit:8426:1.3.0.0"],"repeatmasker","species:rnd-5_family-192|genus:DNA/TcMar-Tc1","Scaffold19",55892,56097]
[["species:AT_rich|genus:Low_complexity","Scaffold19:hit:8378:1.3.0.0"],"repeatmasker","species:AT_rich|genus:Low_complexity","Scaffold19",57615,57639]
[["species:rnd-3_family-46|genus:Unknown","Scaffold19:hit:8427:1.3.0.0"],"repeatmasker","species:rnd-3_family-46|genus:Unknown","Scaffold19",58923,59031]
[["species:rnd-2_family-228|genus:Unknown","Scaffold19:hit:8428:1.3.0.0"],"repeatmasker","species:rnd-2_family-228|genus:Unknown","Scaffold19",60209,60518]
[["species:(TTAA)n|genus:Simple_repeat","Scaffold19:hit:8363:1.3.0.0"],"repeatmasker","species:(TTAA)n|genus:Simple_repeat","Scaffold19",62213,62268]
[["species:(TTAAA)n|genus:Simple_repeat","Scaffold19:hit:8360:1.3.0.0"],"repeatmasker","species:(TTAAA)n|genus:Simple_repeat","Scaffold19",62435,62467]
[["species:rnd-3_family-381|genus:Unknown","Scaffold19:hit:8429:1.3.0.0"],"repeatmasker","species:rnd-3_family-381|genus:Unknown","Scaffold19",62522,62630]
[["species:AT_rich|genus:Low_complexity","Scaffold19:hit:8379:1.3.0.0"],"repeatmasker","species:AT_rich|genus:Low_complexity","Scaffold19",62713,62738]
[["species:AT_rich|genus:Low_complexity","Scaffold19:hit:8380:1.3.0.0"],"repeatmasker","species:AT_rich|genus:Low_complexity","Scaffold19",63446,63496]
[["species:rnd-5_family-671|genus:Unknown","Scaffold19:hit:8430:1.3.0.0"],"repeatmasker","species:rnd-5_family-671|genus:Unknown","Scaffold19",63902,64073]
[["species:(TTAA)n|genus:Simple_repeat","Scaffold19:hit:8364:1.3.0.0"],"repeatmasker","species:(TTAA)n|genus:Simple_repeat","Scaffold19",64332,64387]
[["species:(TTAAA)n|genus:Simple_repeat","Scaffold19:hit:8361:1.3.0.0"],"repeatmasker","species:(TTAAA)n|genus:Simple_repeat","Scaffold19",64554,64586]
[["species:rnd-3_family-381|genus:Unknown","Scaffold19:hit:8431:1.3.0.0"],"repeatmasker","species:rnd-3_family-381|genus:Unknown","Scaffold19",64641,64749]
[["species:AT_rich|genus:Low_complexity","Scaffold19:hit:8381:1.3.0.0"],"repeatmasker","species:AT_rich|genus:Low_complexity","Scaffold19",65565,65615]
[["species:rnd-5_family-671|genus:Unknown","Scaffold19:hit:8432:1.3.0.0"],"repeatmasker","species:rnd-5_family-671|genus:Unknown","Scaffold19",66021,66650]
[["species:AT_rich|genus:Low_complexity","Scaffold19:hit:8382:1.3.0.0"],"repeatmasker","species:AT_rich|genus:Low_complexity","Scaffold19",67126,67173]
[["species:rnd-5_family-671|genus:Unknown","Scaffold19:hit:8433:1.3.0.0"],"repeatmasker","species:rnd-5_family-671|genus:Unknown","Scaffold19",67774,68296]
[["species:rnd-3_family-4|genus:Unknown","Scaffold19:hit:8434:1.3.0.0"],"repeatmasker","species:rnd-3_family-4|genus:Unknown","Scaffold19",69009,69429]
[["species:AT_rich|genus:Low_complexity","Scaffold19:hit:8383:1.3.0.0"],"repeatmasker","species:AT_rich|genus:Low_complexity","Scaffold19",69862,69909]
[["species:rnd-4_family-477|genus:Unknown","Scaffold19:hit:8435:1.3.0.0"],"repeatmasker","species:rnd-4_family-477|genus:Unknown","Scaffold19",70410,70488]
[["species:rnd-3_family-46|genus:Unknown","Scaffold19:hit:8436:1.3.0.0"],"repeatmasker","species:rnd-3_family-46|genus:Unknown","Scaffold19",70533,71891]
[["species:AT_rich|genus:Low_complexity","Scaffold19:hit:8384:1.3.0.0"],"repeatmasker","species:AT_rich|genus:Low_complexity","Scaffold19",72620,72641]
[["species:rnd-3_family-317|genus:Unknown","Scaffold19:hit:8437:1.3.0.0"],"repeatmasker","species:rnd-3_family-317|genus:Unknown","Scaffold19",73855,74291]
[["species:rnd-3_family-317|genus:Unknown","Scaffold19:hit:8438:1.3.0.0"],"repeatmasker","species:rnd-3_family-317|genus:Unknown","Scaffold19",75043,75139]
[["species:rnd-3_family-863|genus:Unknown","Scaffold19:hit:8439:1.3.0.0"],"repeatmasker","species:rnd-3_family-863|genus:Unknown","Scaffold19",75340,75528]
[["species:(CAATT)n|genus:Simple_repeat","Scaffold19:hit:8362:1.3.0.0"],"repeatmasker","species:(CAATT)n|genus:Simple_repeat","Scaffold19",77178,77200]
[["species:rnd-6_family-218|genus:Unknown","Scaffold19:hit:8440:1.3.0.0"],"repeatmasker","species:rnd-6_family-218|genus:Unknown","Scaffold19",77957,78196]
[["species:rnd-2_family-228|genus:Unknown","Scaffold19:hit:8441:1.3.0.0"],"repeatmasker","species:rnd-2_family-228|genus:Unknown","Scaffold19",78894,79575]
[["species:AT_rich|genus:Low_complexity","Scaffold19:hit:8385:1.3.0.0"],"repeatmasker","species:AT_rich|genus:Low_complexity","Scaffold19",81089,81155]
[["species:AT_rich|genus:Low_complexity","Scaffold19:hit:8386:1.3.0.0"],"repeatmasker","species:AT_rich|genus:Low_complexity","Scaffold19",82744,82795]
[["species:AT_rich|genus:Low_complexity","Scaffold19:hit:8387:1.3.0.0"],"repeatmasker","species:AT_rich|genus:Low_complexity","Scaffold19",82921,82942]
[["species:AT_rich|genus:Low_complexity","Scaffold19:hit:8388:1.3.0.0"],"repeatmasker","species:AT_rich|genus:Low_complexity","Scaffold19",83032,83076]
[["species:rnd-2_family-136|genus:Unknown","Scaffold19:hit:8442:1.3.0.0"],"repeatmasker","species:rnd-2_family-136|genus:Unknown","Scaffold19",85175,85837]
[["species:rnd-5_family-1556|genus:Unknown","Scaffold19:hit:8443:1.3.0.0"],"repeatmasker","species:rnd-5_family-1556|genus:Unknown","Scaffold19",87917,88422]
[["species:rnd-4_family-1232|genus:LINE","Scaffold19:hit:8444:1.3.0.0"],"repeatmasker","species:rnd-4_family-1232|genus:LINE","Scaffold19",89297,89548]
[["species:rnd-2_family-292|genus:Unknown","Scaffold19:hit:8445:1.3.0.0"],"repeatmasker","species:rnd-2_family-292|genus:Unknown","Scaffold19",90307,90361]
[["species:rnd-5_family-1431|genus:LINE/CR1","Scaffold19:hit:8446:1.3.0.0"],"repeatmasker","species:rnd-5_family-1431|genus:LINE/CR1","Scaffold19",93547,93701]
[["species:rnd-5_family-1995|genus:Unknown","Scaffold19:hit:8447:1.3.0.0"],"repeatmasker","species:rnd-5_family-1995|genus:Unknown","Scaffold19",94108,94530]
[["species:AT_rich|genus:Low_complexity","Scaffold19:hit:8389:1.3.0.0"],"repeatmasker","species:AT_rich|genus:Low_complexity","Scaffold19",95480,95531]
[["species:rnd-3_family-216|genus:LINE/LOA","Scaffold19:hit:8448:1.3.0.0"],"repeatmasker","species:rnd-3_family-216|genus:LINE/LOA","Scaffold19",97696,98741]
[["species:rnd-4_family-236|genus:Unknown","Scaffold19:hit:8476:1.3.0.1"],"repeatmasker","species:rnd-4_family-236|genus:Unknown","Scaffold19",101760,101871]
[["species:rnd-2_family-67|genus:Unknown","Scaffold19:hit:8477:1.3.0.1"],"repeatmasker","species:rnd-2_family-67|genus:Unknown","Scaffold19",105095,105281]
[["species:AT_rich|genus:Low_complexity","Scaffold19:hit:8454:1.3.0.1"],"repeatmasker","species:AT_rich|genus:Low_complexity","Scaffold19",106395,106416]
[["species:AT_rich|genus:Low_complexity","Scaffold19:hit:8455:1.3.0.1"],"repeatmasker","species:AT_rich|genus:Low_complexity","Scaffold19",106574,106598]
[["species:AT_rich|genus:Low_complexity","Scaffold19:hit:8456:1.3.0.1"],"repeatmasker","species:AT_rich|genus:Low_complexity","Scaffold19",108049,108073]
[["species:AT_rich|genus:Low_complexity","Scaffold19:hit:8457:1.3.0.1"],"repeatmasker","species:AT_rich|genus:Low_complexity","Scaffold19",108288,108337]
[["species:rnd-2_family-67|genus:Unknown","Scaffold19:hit:8478:1.3.0.1"],"repeatmasker","species:rnd-2_family-67|genus:Unknown","Scaffold19",108347,108521]
[["species:rnd-6_family-590|genus:Unknown","Scaffold19:hit:8479:1.3.0.1"],"repeatmasker","species:rnd-6_family-590|genus:Unknown","Scaffold19",112315,112427]
[["species:rnd-5_family-2304|genus:DNA/TcMar-Tc1","Scaffold19:hit:8480:1.3.0.1"],"repeatmasker","species:rnd-5_family-2304|genus:DNA/TcMar-Tc1","Scaffold19",116157,116402]
[["species:AT_rich|genus:Low_complexity","Scaffold19:hit:8458:1.3.0.1"],"repeatmasker","species:AT_rich|genus:Low_complexity","Scaffold19",117796,117845]
[["species:AT_rich|genus:Low_complexity","Scaffold19:hit:8459:1.3.0.1"],"repeatmasker","species:AT_rich|genus:Low_complexity","Scaffold19",118301,118325]
[["species:AT_rich|genus:Low_complexity","Scaffold19:hit:8460:1.3.0.1"],"repeatmasker","species:AT_rich|genus:Low_complexity","Scaffold19",119798,119861]
[["species:rnd-5_family-200|genus:Unknown","Scaffold19:hit:8481:1.3.0.1"],"repeatmasker","species:rnd-5_family-200|genus:Unknown","Scaffold19",120032,121140]
[["species:AT_rich|genus:Low_complexity","Scaffold19:hit:8461:1.3.0.1"],"repeatmasker","species:AT_rich|genus:Low_complexity","Scaffold19",121142,121246]
[["species:AT_rich|genus:Low_complexity","Scaffold19:hit:8462:1.3.0.1"],"repeatmasker","species:AT_rich|genus:Low_complexity","Scaffold19",122548,122594]
[["species:rnd-3_family-47|genus:Unknown","Scaffold19:hit:8482:1.3.0.1"],"repeatmasker","species:rnd-3_family-47|genus:Unknown","Scaffold19",124327,124389]
[["species:rnd-3_family-46|genus:Unknown","Scaffold19:hit:8483:1.3.0.1"],"repeatmasker","species:rnd-3_family-46|genus:Unknown","Scaffold19",124583,124656]
[["species:rnd-3_family-46|genus:Unknown","Scaffold19:hit:8484:1.3.0.1"],"repeatmasker","species:rnd-3_family-46|genus:Unknown","Scaffold19",125735,125851]
[["species:AT_rich|genus:Low_complexity","Scaffold19:hit:8463:1.3.0.1"],"repeatmasker","species:AT_rich|genus:Low_complexity","Scaffold19",126937,126987]
[["species:rnd-3_family-46|genus:Unknown","Scaffold19:hit:8485:1.3.0.1"],"repeatmasker","species:rnd-3_family-46|genus:Unknown","Scaffold19",128385,128629]
[["species:rnd-3_family-46|genus:Unknown","Scaffold19:hit:8486:1.3.0.1"],"repeatmasker","species:rnd-3_family-46|genus:Unknown","Scaffold19",129219,129634]
[["species:AT_rich|genus:Low_complexity","Scaffold19:hit:8464:1.3.0.1"],"repeatmasker","species:AT_rich|genus:Low_complexity","Scaffold19",130346,130388]
[["species:AT_rich|genus:Low_complexity","Scaffold19:hit:8465:1.3.0.1"],"repeatmasker","species:AT_rich|genus:Low_complexity","Scaffold19",130865,130904]
[["species:rnd-5_family-200|genus:Unknown","Scaffold19:hit:8487:1.3.0.1"],"repeatmasker","species:rnd-5_family-200|genus:Unknown","Scaffold19",130995,131917]
[["species:rnd-3_family-40|genus:Unknown","Scaffold19:hit:8488:1.3.0.1"],"repeatmasker","species:rnd-3_family-40|genus:Unknown","Scaffold19",132795,132977]
[["species:AT_rich|genus:Low_complexity","Scaffold19:hit:8466:1.3.0.1"],"repeatmasker","species:AT_rich|genus:Low_complexity","Scaffold19",134902,134926]
[["species:AT_rich|genus:Low_complexity","Scaffold19:hit:8467:1.3.0.1"],"repeatmasker","species:AT_rich|genus:Low_complexity","Scaffold19",135165,135213]
[["species:AT_rich|genus:Low_complexity","Scaffold19:hit:8468:1.3.0.1"],"repeatmasker","species:AT_rich|genus:Low_complexity","Scaffold19",135786,135840]
[["species:rnd-3_family-317|genus:Unknown","Scaffold19:hit:8489:1.3.0.1"],"repeatmasker","species:rnd-3_family-317|genus:Unknown","Scaffold19",136564,137366]
[["species:rnd-3_family-40|genus:Unknown","Scaffold19:hit:8490:1.3.0.1"],"repeatmasker","species:rnd-3_family-40|genus:Unknown","Scaffold19",137455,137763]
[["species:rnd-5_family-3423|genus:LINE/L2","Scaffold19:hit:8491:1.3.0.1"],"repeatmasker","species:rnd-5_family-3423|genus:LINE/L2","Scaffold19",138707,138886]
[["species:(TTAA)n|genus:Simple_repeat","Scaffold19:hit:8450:1.3.0.1"],"repeatmasker","species:(TTAA)n|genus:Simple_repeat","Scaffold19",141751,141807]
[["species:rnd-3_family-40|genus:Unknown","Scaffold19:hit:8492:1.3.0.1"],"repeatmasker","species:rnd-3_family-40|genus:Unknown","Scaffold19",143728,143889]
[["species:rnd-5_family-1929|genus:Unknown","Scaffold19:hit:8493:1.3.0.1"],"repeatmasker","species:rnd-5_family-1929|genus:Unknown","Scaffold19",144537,145520]
[["species:rnd-5_family-914|genus:Unknown","Scaffold19:hit:8494:1.3.0.1"],"repeatmasker","species:rnd-5_family-914|genus:Unknown","Scaffold19",147911,147946]
[["species:rnd-5_family-1234|genus:Unknown","Scaffold19:hit:8495:1.3.0.1"],"repeatmasker","species:rnd-5_family-1234|genus:Unknown","Scaffold19",149347,149676]
[["species:rnd-5_family-1234|genus:Unknown","Scaffold19:hit:8496:1.3.0.1"],"repeatmasker","species:rnd-5_family-1234|genus:Unknown","Scaffold19",149848,150441]
[["species:rnd-3_family-47|genus:Unknown","Scaffold19:hit:8497:1.3.0.1"],"repeatmasker","species:rnd-3_family-47|genus:Unknown","Scaffold19",151049,151620]
[["species:rnd-5_family-1234|genus:Unknown","Scaffold19:hit:8498:1.3.0.1"],"repeatmasker","species:rnd-5_family-1234|genus:Unknown","Scaffold19",151671,152268]
[["species:rnd-3_family-47|genus:Unknown","Scaffold19:hit:8499:1.3.0.1"],"repeatmasker","species:rnd-3_family-47|genus:Unknown","Scaffold19",154921,155371]
[["species:T-rich|genus:Low_complexity","Scaffold19:hit:8449:1.3.0.1"],"repeatmasker","species:T-rich|genus:Low_complexity","Scaffold19",155800,155862]
[["species:GC_rich|genus:Low_complexity","Scaffold19:hit:8453:1.3.0.1"],"repeatmasker","species:GC_rich|genus:Low_complexity","Scaffold19",157121,157178]
[["species:rnd-5_family-3878|genus:Unknown","Scaffold19:hit:8500:1.3.0.1"],"repeatmasker","species:rnd-5_family-3878|genus:Unknown","Scaffold19",157780,158021]
[["species:(CAA)n|genus:Simple_repeat","Scaffold19:hit:8451:1.3.0.1"],"repeatmasker","species:(CAA)n|genus:Simple_repeat","Scaffold19",158458,158502]
[["species:rnd-4_family-843|genus:DNA/TcMar-Tc1","Scaffold19:hit:8501:1.3.0.1"],"repeatmasker","species:rnd-4_family-843|genus:DNA/TcMar-Tc1","Scaffold19",158775,159198]
[["species:rnd-4_family-843|genus:DNA/TcMar-Tc1","Scaffold19:hit:8502:1.3.0.1"],"repeatmasker","species:rnd-4_family-843|genus:DNA/TcMar-Tc1","Scaffold19",160001,160166]
[["species:rnd-6_family-205|genus:LINE/L2","Scaffold19:hit:8503:1.3.0.1"],"repeatmasker","species:rnd-6_family-205|genus:LINE/L2","Scaffold19",161927,162222]
[["species:rnd-3_family-208|genus:Unknown","Scaffold19:hit:8504:1.3.0.1"],"repeatmasker","species:rnd-3_family-208|genus:Unknown","Scaffold19",163138,163196]
[["species:rnd-3_family-352|genus:Unknown","Scaffold19:hit:8505:1.3.0.1"],"repeatmasker","species:rnd-3_family-352|genus:Unknown","Scaffold19",164306,164339]
[["species:AT_rich|genus:Low_complexity","Scaffold19:hit:8469:1.3.0.1"],"repeatmasker","species:AT_rich|genus:Low_complexity","Scaffold19",165361,165460]
[["species:rnd-5_family-3709|genus:DNA/TcMar-Tc1","Scaffold19:hit:8506:1.3.0.1"],"repeatmasker","species:rnd-5_family-3709|genus:DNA/TcMar-Tc1","Scaffold19",165808,165940]
[["species:rnd-3_family-23|genus:Unknown","Scaffold19:hit:8507:1.3.0.1"],"repeatmasker","species:rnd-3_family-23|genus:Unknown","Scaffold19",168065,168171]
[["species:rnd-5_family-3709|genus:DNA/TcMar-Tc1","Scaffold19:hit:8508:1.3.0.1"],"repeatmasker","species:rnd-5_family-3709|genus:DNA/TcMar-Tc1","Scaffold19",168378,168780]
[["species:rnd-5_family-8|genus:LINE/CR1","Scaffold19:hit:8509:1.3.0.1"],"repeatmasker","species:rnd-5_family-8|genus:LINE/CR1","Scaffold19",170358,170735]
[["species:AT_rich|genus:Low_complexity","Scaffold19:hit:8470:1.3.0.1"],"repeatmasker","species:AT_rich|genus:Low_complexity","Scaffold19",171942,172029]
[["species:AT_rich|genus:Low_complexity","Scaffold19:hit:8471:1.3.0.1"],"repeatmasker","species:AT_rich|genus:Low_complexity","Scaffold19",172114,172140]
[["species:AT_rich|genus:Low_complexity","Scaffold19:hit:8472:1.3.0.1"],"repeatmasker","species:AT_rich|genus:Low_complexity","Scaffold19",173870,173895]
[["species:rnd-3_family-516|genus:LINE/L2","Scaffold19:hit:8510:1.3.0.1"],"repeatmasker","species:rnd-3_family-516|genus:LINE/L2","Scaffold19",175083,175171]
[["species:(TTA)n|genus:Simple_repeat","Scaffold19:hit:8452:1.3.0.1"],"repeatmasker","species:(TTA)n|genus:Simple_repeat","Scaffold19",175222,175243]
[["species:rnd-3_family-396|genus:DNA/TcMar-Tc1","Scaffold19:hit:8511:1.3.0.1"],"repeatmasker","species:rnd-3_family-396|genus:DNA/TcMar-Tc1","Scaffold19",175243,176110]
[["species:rnd-4_family-1232|genus:LINE","Scaffold19:hit:8512:1.3.0.1"],"repeatmasker","species:rnd-4_family-1232|genus:LINE","Scaffold19",176352,176882]
[["species:rnd-3_family-724|genus:LINE/RTE-X","Scaffold19:hit:8513:1.3.0.1"],"repeatmasker","species:rnd-3_family-724|genus:LINE/RTE-X","Scaffold19",176996,178805]
[["species:rnd-5_family-3904|genus:LINE/RTE-BovB","Scaffold19:hit:8514:1.3.0.1"],"repeatmasker","species:rnd-5_family-3904|genus:LINE/RTE-BovB","Scaffold19",179350,179607]
[["species:rnd-6_family-1442|genus:LINE/RTE-BovB","Scaffold19:hit:8515:1.3.0.1"],"repeatmasker","species:rnd-6_family-1442|genus:LINE/RTE-BovB","Scaffold19",180764,180869]
[["species:rnd-2_family-292|genus:Unknown","Scaffold19:hit:8516:1.3.0.1"],"repeatmasker","species:rnd-2_family-292|genus:Unknown","Scaffold19",183213,183674]
[["species:rnd-6_family-1316|genus:Unknown","Scaffold19:hit:8517:1.3.0.1"],"repeatmasker","species:rnd-6_family-1316|genus:Unknown","Scaffold19",184685,184814]
[["species:rnd-2_family-49|genus:Unknown","Scaffold19:hit:8518:1.3.0.1"],"repeatmasker","species:rnd-2_family-49|genus:Unknown","Scaffold19",185176,185334]
[["species:AT_rich|genus:Low_complexity","Scaffold19:hit:8473:1.3.0.1"],"repeatmasker","species:AT_rich|genus:Low_complexity","Scaffold19",188268,188331]
[["species:AT_rich|genus:Low_complexity","Scaffold19:hit:8474:1.3.0.1"],"repeatmasker","species:AT_rich|genus:Low_complexity","Scaffold19",188920,189055]
[["species:rnd-6_family-1327|genus:DNA/Kolobok-Hydra","Scaffold19:hit:8519:1.3.0.1"],"repeatmasker","species:rnd-6_family-1327|genus:DNA/Kolobok-Hydra","Scaffold19",191290,191354]
[["species:rnd-6_family-1327|genus:DNA/Kolobok-Hydra","Scaffold19:hit:8520:1.3.0.1"],"repeatmasker","species:rnd-6_family-1327|genus:DNA/Kolobok-Hydra","Scaffold19",191630,192117]
[["species:rnd-5_family-3927|genus:DNA/hAT-Tol2","Scaffold19:hit:8521:1.3.0.1"],"repeatmasker","species:rnd-5_family-3927|genus:DNA/hAT-Tol2","Scaffold19",192440,192698]
[["species:rnd-2_family-145|genus:LINE/LOA","Scaffold19:hit:8522:1.3.0.1"],"repeatmasker","species:rnd-2_family-145|genus:LINE/LOA","Scaffold19",194122,194413]
[["species:rnd-5_family-1244|genus:DNA/hAT","Scaffold19:hit:8523:1.3.0.1"],"repeatmasker","species:rnd-5_family-1244|genus:DNA/hAT","Scaffold19",195430,195584]
[["species:rnd-5_family-3483|genus:DNA/CMC-Chapaev-3","Scaffold19:hit:8524:1.3.0.1"],"repeatmasker","species:rnd-5_family-3483|genus:DNA/CMC-Chapaev-3","Scaffold19",195879,196092]
[["species:AT_rich|genus:Low_complexity","Scaffold19:hit:8475:1.3.0.1"],"repeatmasker","species:AT_rich|genus:Low_complexity","Scaffold19",197147,197201]
[["species:rnd-3_family-352|genus:Unknown","Scaffold19:hit:8525:1.3.0.1"],"repeatmasker","species:rnd-3_family-352|genus:Unknown","Scaffold19",197635,197809]
[["species:rnd-5_family-2870|genus:Unknown","Scaffold19:hit:8526:1.3.0.1"],"repeatmasker","species:rnd-5_family-2870|genus:Unknown","Scaffold19",198531,198910]
[["species:rnd-3_family-275|genus:LINE/CR1","Scaffold19:hit:8527:1.3.0.1"],"repeatmasker","species:rnd-3_family-275|genus:LINE/CR1","Scaffold19",199158,199303]
[["species:rnd-4_family-830|genus:LINE/CR1","Scaffold19:hit:8528:1.3.0.1"],"repeatmasker","species:rnd-4_family-830|genus:LINE/CR1","Scaffold19",199357,199532]
[["species:rnd-5_family-2589|genus:LINE/RTE-BovB","Scaffold19:hit:8529:1.3.0.1"],"repeatmasker","species:rnd-5_family-2589|genus:LINE/RTE-BovB","Scaffold19",199780,199999]
[["species:rnd-3_family-32|genus:LINE/Jockey","Scaffold19:hit:8559:1.3.0.2"],"repeatmasker","species:rnd-3_family-32|genus:LINE/Jockey","Scaffold19",200036,201355]
[["species:rnd-4_family-23|genus:LINE/Jockey","Scaffold19:hit:8560:1.3.0.2"],"repeatmasker","species:rnd-4_family-23|genus:LINE/Jockey","Scaffold19",203287,203387]
[["species:rnd-4_family-23|genus:LINE/Jockey","Scaffold19:hit:8561:1.3.0.2"],"repeatmasker","species:rnd-4_family-23|genus:LINE/Jockey","Scaffold19",204544,204616]
[["species:rnd-6_family-410|genus:DNA/TcMar-Fot1","Scaffold19:hit:8562:1.3.0.2"],"repeatmasker","species:rnd-6_family-410|genus:DNA/TcMar-Fot1","Scaffold19",205435,206178]
[["species:rnd-4_family-1003|genus:DNA/TcMar-Tc1","Scaffold19:hit:8563:1.3.0.2"],"repeatmasker","species:rnd-4_family-1003|genus:DNA/TcMar-Tc1","Scaffold19",209035,209218]
[["species:rnd-2_family-228|genus:Unknown","Scaffold19:hit:8564:1.3.0.2"],"repeatmasker","species:rnd-2_family-228|genus:Unknown","Scaffold19",209340,210006]
[["species:(CTATT)n|genus:Simple_repeat","Scaffold19:hit:8534:1.3.0.2"],"repeatmasker","species:(CTATT)n|genus:Simple_repeat","Scaffold19",211077,211106]
[["species:rnd-4_family-1003|genus:DNA/TcMar-Tc1","Scaffold19:hit:8565:1.3.0.2"],"repeatmasker","species:rnd-4_family-1003|genus:DNA/TcMar-Tc1","Scaffold19",211715,212074]
[["species:rnd-4_family-1827|genus:Unknown","Scaffold19:hit:8566:1.3.0.2"],"repeatmasker","species:rnd-4_family-1827|genus:Unknown","Scaffold19",213067,213454]
[["species:AT_rich|genus:Low_complexity","Scaffold19:hit:8535:1.3.0.2"],"repeatmasker","species:AT_rich|genus:Low_complexity","Scaffold19",214761,214826]
[["species:(TTAA)n|genus:Simple_repeat","Scaffold19:hit:8532:1.3.0.2"],"repeatmasker","species:(TTAA)n|genus:Simple_repeat","Scaffold19",215073,215112]
[["species:AT_rich|genus:Low_complexity","Scaffold19:hit:8536:1.3.0.2"],"repeatmasker","species:AT_rich|genus:Low_complexity","Scaffold19",217070,217148]
[["species:AT_rich|genus:Low_complexity","Scaffold19:hit:8537:1.3.0.2"],"repeatmasker","species:AT_rich|genus:Low_complexity","Scaffold19",217427,217487]
[["species:AT_rich|genus:Low_complexity","Scaffold19:hit:8538:1.3.0.2"],"repeatmasker","species:AT_rich|genus:Low_complexity","Scaffold19",217464,217491]
[["species:rnd-3_family-334|genus:LINE/Jockey","Scaffold19:hit:8567:1.3.0.2"],"repeatmasker","species:rnd-3_family-334|genus:LINE/Jockey","Scaffold19",219521,220194]
[["species:rnd-3_family-134|genus:Unknown","Scaffold19:hit:8568:1.3.0.2"],"repeatmasker","species:rnd-3_family-134|genus:Unknown","Scaffold19",220452,220899]
[["species:rnd-3_family-334|genus:LINE/Jockey","Scaffold19:hit:8569:1.3.0.2"],"repeatmasker","species:rnd-3_family-334|genus:LINE/Jockey","Scaffold19",221126,221350]
[["species:AT_rich|genus:Low_complexity","Scaffold19:hit:8539:1.3.0.2"],"repeatmasker","species:AT_rich|genus:Low_complexity","Scaffold19",221382,221476]
[["species:AT_rich|genus:Low_complexity","Scaffold19:hit:8540:1.3.0.2"],"repeatmasker","species:AT_rich|genus:Low_complexity","Scaffold19",223046,223126]
[["species:AT_rich|genus:Low_complexity","Scaffold19:hit:8541:1.3.0.2"],"repeatmasker","species:AT_rich|genus:Low_complexity","Scaffold19",223205,223321]
[["species:rnd-3_family-334|genus:LINE/Jockey","Scaffold19:hit:8570:1.3.0.2"],"repeatmasker","species:rnd-3_family-334|genus:LINE/Jockey","Scaffold19",223406,223503]
[["species:rnd-5_family-3496|genus:Unknown","Scaffold19:hit:8571:1.3.0.2"],"repeatmasker","species:rnd-5_family-3496|genus:Unknown","Scaffold19",228639,228839]
[["species:rnd-5_family-1592|genus:Unknown","Scaffold19:hit:8572:1.3.0.2"],"repeatmasker","species:rnd-5_family-1592|genus:Unknown","Scaffold19",231400,231441]
[["species:rnd-3_family-47|genus:Unknown","Scaffold19:hit:8573:1.3.0.2"],"repeatmasker","species:rnd-3_family-47|genus:Unknown","Scaffold19",231660,232041]
[["species:rnd-3_family-47|genus:Unknown","Scaffold19:hit:8574:1.3.0.2"],"repeatmasker","species:rnd-3_family-47|genus:Unknown","Scaffold19",232657,233046]
[["species:rnd-3_family-47|genus:Unknown","Scaffold19:hit:8575:1.3.0.2"],"repeatmasker","species:rnd-3_family-47|genus:Unknown","Scaffold19",233747,234184]
[["species:AT_rich|genus:Low_complexity","Scaffold19:hit:8542:1.3.0.2"],"repeatmasker","species:AT_rich|genus:Low_complexity","Scaffold19",239330,239395]
[["species:AT_rich|genus:Low_complexity","Scaffold19:hit:8543:1.3.0.2"],"repeatmasker","species:AT_rich|genus:Low_complexity","Scaffold19",239693,239802]
[["species:rnd-2_family-49|genus:Unknown","Scaffold19:hit:8576:1.3.0.2"],"repeatmasker","species:rnd-2_family-49|genus:Unknown","Scaffold19",241156,241620]
[["species:rnd-2_family-19|genus:Unknown","Scaffold19:hit:8577:1.3.0.2"],"repeatmasker","species:rnd-2_family-19|genus:Unknown","Scaffold19",242611,242984]
[["species:rnd-4_family-293|genus:Unknown","Scaffold19:hit:8578:1.3.0.2"],"repeatmasker","species:rnd-4_family-293|genus:Unknown","Scaffold19",243733,243788]
[["species:rnd-3_family-4|genus:Unknown","Scaffold19:hit:8579:1.3.0.2"],"repeatmasker","species:rnd-3_family-4|genus:Unknown","Scaffold19",244159,244811]
[["species:rnd-3_family-47|genus:Unknown","Scaffold19:hit:8580:1.3.0.2"],"repeatmasker","species:rnd-3_family-47|genus:Unknown","Scaffold19",246648,246947]
[["species:rnd-3_family-330|genus:Unknown","Scaffold19:hit:8581:1.3.0.2"],"repeatmasker","species:rnd-3_family-330|genus:Unknown","Scaffold19",247209,247318]
[["species:rnd-3_family-275|genus:LINE/CR1","Scaffold19:hit:8582:1.3.0.2"],"repeatmasker","species:rnd-3_family-275|genus:LINE/CR1","Scaffold19",247539,247763]
[["species:rnd-3_family-40|genus:Unknown","Scaffold19:hit:8583:1.3.0.2"],"repeatmasker","species:rnd-3_family-40|genus:Unknown","Scaffold19",250288,250499]
[["species:rnd-2_family-19|genus:Unknown","Scaffold19:hit:8584:1.3.0.2"],"repeatmasker","species:rnd-2_family-19|genus:Unknown","Scaffold19",251930,252120]
[["species:AT_rich|genus:Low_complexity","Scaffold19:hit:8544:1.3.0.2"],"repeatmasker","species:AT_rich|genus:Low_complexity","Scaffold19",252807,252884]
[["species:rnd-5_family-472|genus:Unknown","Scaffold19:hit:8585:1.3.0.2"],"repeatmasker","species:rnd-5_family-472|genus:Unknown","Scaffold19",254858,255925]
[["species:T-rich|genus:Low_complexity","Scaffold19:hit:8530:1.3.0.2"],"repeatmasker","species:T-rich|genus:Low_complexity","Scaffold19",259370,259418]
[["species:rnd-4_family-141|genus:Unknown","Scaffold19:hit:8586:1.3.0.2"],"repeatmasker","species:rnd-4_family-141|genus:Unknown","Scaffold19",259709,259753]
[["species:AT_rich|genus:Low_complexity","Scaffold19:hit:8545:1.3.0.2"],"repeatmasker","species:AT_rich|genus:Low_complexity","Scaffold19",262121,262144]
[["species:AT_rich|genus:Low_complexity","Scaffold19:hit:8546:1.3.0.2"],"repeatmasker","species:AT_rich|genus:Low_complexity","Scaffold19",262845,263000]
[["species:AT_rich|genus:Low_complexity","Scaffold19:hit:8547:1.3.0.2"],"repeatmasker","species:AT_rich|genus:Low_complexity","Scaffold19",263441,263464]
[["species:AT_rich|genus:Low_complexity","Scaffold19:hit:8548:1.3.0.2"],"repeatmasker","species:AT_rich|genus:Low_complexity","Scaffold19",265524,265602]
[["species:AT_rich|genus:Low_complexity","Scaffold19:hit:8549:1.3.0.2"],"repeatmasker","species:AT_rich|genus:Low_complexity","Scaffold19",266546,266625]
[["species:AT_rich|genus:Low_complexity","Scaffold19:hit:8550:1.3.0.2"],"repeatmasker","species:AT_rich|genus:Low_complexity","Scaffold19",266751,266821]
[["species:AT_rich|genus:Low_complexity","Scaffold19:hit:8551:1.3.0.2"],"repeatmasker","species:AT_rich|genus:Low_complexity","Scaffold19",267312,267388]
[["species:AT_rich|genus:Low_complexity","Scaffold19:hit:8552:1.3.0.2"],"repeatmasker","species:AT_rich|genus:Low_complexity","Scaffold19",267500,267563]
[["species:(TTA)n|genus:Simple_repeat","Scaffold19:hit:8533:1.3.0.2"],"repeatmasker","species:(TTA)n|genus:Simple_repeat","Scaffold19",268175,268201]
[["species:rnd-4_family-626|genus:Unknown","Scaffold19:hit:8587:1.3.0.2"],"repeatmasker","species:rnd-4_family-626|genus:Unknown","Scaffold19",269790,270551]
[["species:AT_rich|genus:Low_complexity","Scaffold19:hit:8553:1.3.0.2"],"repeatmasker","species:AT_rich|genus:Low_complexity","Scaffold19",271333,271390]
[["species:rnd-3_family-218|genus:Simple_repeat","Scaffold19:hit:8531:1.3.0.2"],"repeatmasker","species:rnd-3_family-218|genus:Simple_repeat","Scaffold19",271413,271597]
[["species:rnd-3_family-4|genus:Unknown","Scaffold19:hit:8588:1.3.0.2"],"repeatmasker","species:rnd-3_family-4|genus:Unknown","Scaffold19",273544,273800]
[["species:rnd-4_family-229|genus:Unknown","Scaffold19:hit:8589:1.3.0.2"],"repeatmasker","species:rnd-4_family-229|genus:Unknown","Scaffold19",274627,274990]
[["species:rnd-2_family-165|genus:LINE/Penelope","Scaffold19:hit:8590:1.3.0.2"],"repeatmasker","species:rnd-2_family-165|genus:LINE/Penelope","Scaffold19",277604,277800]
[["species:rnd-5_family-200|genus:Unknown","Scaffold19:hit:8591:1.3.0.2"],"repeatmasker","species:rnd-5_family-200|genus:Unknown","Scaffold19",280943,281466]
[["species:AT_rich|genus:Low_complexity","Scaffold19:hit:8554:1.3.0.2"],"repeatmasker","species:AT_rich|genus:Low_complexity","Scaffold19",282244,282269]
[["species:AT_rich|genus:Low_complexity","Scaffold19:hit:8555:1.3.0.2"],"repeatmasker","species:AT_rich|genus:Low_complexity","Scaffold19",283179,283263]
[["species:AT_rich|genus:Low_complexity","Scaffold19:hit:8556:1.3.0.2"],"repeatmasker","species:AT_rich|genus:Low_complexity","Scaffold19",283476,283535]
[["species:AT_rich|genus:Low_complexity","Scaffold19:hit:8557:1.3.0.2"],"repeatmasker","species:AT_rich|genus:Low_complexity","Scaffold19",283870,283960]
[["species:rnd-3_family-4|genus:Unknown","Scaffold19:hit:8592:1.3.0.2"],"repeatmasker","species:rnd-3_family-4|genus:Unknown","Scaffold19",284824,285018]
[["species:rnd-4_family-220|genus:Unknown","Scaffold19:hit:8593:1.3.0.2"],"repeatmasker","species:rnd-4_family-220|genus:Unknown","Scaffold19",285771,286001]
[["species:rnd-5_family-2492|genus:Unknown","Scaffold19:hit:8594:1.3.0.2"],"repeatmasker","species:rnd-5_family-2492|genus:Unknown","Scaffold19",286520,286666]
[["species:rnd-3_family-381|genus:Unknown","Scaffold19:hit:8595:1.3.0.2"],"repeatmasker","species:rnd-3_family-381|genus:Unknown","Scaffold19",287043,287279]
[["species:rnd-2_family-19|genus:Unknown","Scaffold19:hit:8596:1.3.0.2"],"repeatmasker","species:rnd-2_family-19|genus:Unknown","Scaffold19",288840,288992]
[["species:rnd-3_family-317|genus:Unknown","Scaffold19:hit:8597:1.3.0.2"],"repeatmasker","species:rnd-3_family-317|genus:Unknown","Scaffold19",289518,290020]
[["species:rnd-2_family-36|genus:Unknown","Scaffold19:hit:8598:1.3.0.2"],"repeatmasker","species:rnd-2_family-36|genus:Unknown","Scaffold19",290936,291107]
[["species:rnd-2_family-19|genus:Unknown","Scaffold19:hit:8599:1.3.0.2"],"repeatmasker","species:rnd-2_family-19|genus:Unknown","Scaffold19",291555,291583]
[["species:rnd-2_family-292|genus:Unknown","Scaffold19:hit:8600:1.3.0.2"],"repeatmasker","species:rnd-2_family-292|genus:Unknown","Scaffold19",292127,292285]
[["species:rnd-2_family-292|genus:Unknown","Scaffold19:hit:8601:1.3.0.2"],"repeatmasker","species:rnd-2_family-292|genus:Unknown","Scaffold19",292462,292721]
[["species:rnd-6_family-1143|genus:LTR/Copia","Scaffold19:hit:8602:1.3.0.2"],"repeatmasker","species:rnd-6_family-1143|genus:LTR/Copia","Scaffold19",295247,295589]
[["species:AT_rich|genus:Low_complexity","Scaffold19:hit:8558:1.3.0.2"],"repeatmasker","species:AT_rich|genus:Low_complexity","Scaffold19",296697,296723]
[["species:rnd-5_family-245|genus:Unknown","Scaffold19:hit:8633:1.3.0.3"],"repeatmasker","species:rnd-5_family-245|genus:Unknown","Scaffold19",301129,301338]
[["species:AT_rich|genus:Low_complexity","Scaffold19:hit:8611:1.3.0.3"],"repeatmasker","species:AT_rich|genus:Low_complexity","Scaffold19",301456,301529]
[["species:AT_rich|genus:Low_complexity","Scaffold19:hit:8612:1.3.0.3"],"repeatmasker","species:AT_rich|genus:Low_complexity","Scaffold19",301718,301743]
[["species:AT_rich|genus:Low_complexity","Scaffold19:hit:8613:1.3.0.3"],"repeatmasker","species:AT_rich|genus:Low_complexity","Scaffold19",302648,302706]
[["species:AT_rich|genus:Low_complexity","Scaffold19:hit:8614:1.3.0.3"],"repeatmasker","species:AT_rich|genus:Low_complexity","Scaffold19",302833,302884]
[["species:AT_rich|genus:Low_complexity","Scaffold19:hit:8615:1.3.0.3"],"repeatmasker","species:AT_rich|genus:Low_complexity","Scaffold19",303096,303142]
[["species:rnd-3_family-167|genus:Unknown","Scaffold19:hit:8634:1.3.0.3"],"repeatmasker","species:rnd-3_family-167|genus:Unknown","Scaffold19",304429,305020]
[["species:rnd-5_family-9051|genus:LTR/Copia","Scaffold19:hit:8635:1.3.0.3"],"repeatmasker","species:rnd-5_family-9051|genus:LTR/Copia","Scaffold19",307124,307291]
[["species:rnd-3_family-106|genus:Unknown","Scaffold19:hit:8636:1.3.0.3"],"repeatmasker","species:rnd-3_family-106|genus:Unknown","Scaffold19",307394,308020]
[["species:AT_rich|genus:Low_complexity","Scaffold19:hit:8616:1.3.0.3"],"repeatmasker","species:AT_rich|genus:Low_complexity","Scaffold19",308154,308206]
[["species:rnd-4_family-39|genus:Unknown","Scaffold19:hit:8637:1.3.0.3"],"repeatmasker","species:rnd-4_family-39|genus:Unknown","Scaffold19",309235,309311]
[["species:(CAA)n|genus:Simple_repeat","Scaffold19:hit:8607:1.3.0.3"],"repeatmasker","species:(CAA)n|genus:Simple_repeat","Scaffold19",309389,309417]
[["species:AT_rich|genus:Low_complexity","Scaffold19:hit:8617:1.3.0.3"],"repeatmasker","species:AT_rich|genus:Low_complexity","Scaffold19",310094,310119]
[["species:rnd-2_family-145|genus:LINE/LOA","Scaffold19:hit:8638:1.3.0.3"],"repeatmasker","species:rnd-2_family-145|genus:LINE/LOA","Scaffold19",310698,310736]
[["species:rnd-5_family-2409|genus:Unknown","Scaffold19:hit:8639:1.3.0.3"],"repeatmasker","species:rnd-5_family-2409|genus:Unknown","Scaffold19",311826,312034]
[["species:T-rich|genus:Low_complexity","Scaffold19:hit:8603:1.3.0.3"],"repeatmasker","species:T-rich|genus:Low_complexity","Scaffold19",314182,314309]
[["species:AT_rich|genus:Low_complexity","Scaffold19:hit:8618:1.3.0.3"],"repeatmasker","species:AT_rich|genus:Low_complexity","Scaffold19",314338,314416]
[["species:GC_rich|genus:Low_complexity","Scaffold19:hit:8610:1.3.0.3"],"repeatmasker","species:GC_rich|genus:Low_complexity","Scaffold19",315454,315482]
[["species:rnd-6_family-4550|genus:DNA/hAT-Ac","Scaffold19:hit:8640:1.3.0.3"],"repeatmasker","species:rnd-6_family-4550|genus:DNA/hAT-Ac","Scaffold19",316390,316590]
[["species:rnd-4_family-1062|genus:Unknown","Scaffold19:hit:8641:1.3.0.3"],"repeatmasker","species:rnd-4_family-1062|genus:Unknown","Scaffold19",317302,317435]
[["species:rnd-5_family-3537|genus:Unknown","Scaffold19:hit:8642:1.3.0.3"],"repeatmasker","species:rnd-5_family-3537|genus:Unknown","Scaffold19",317537,317723]
[["species:rnd-6_family-10941|genus:Unknown","Scaffold19:hit:8643:1.3.0.3"],"repeatmasker","species:rnd-6_family-10941|genus:Unknown","Scaffold19",318009,318154]
[["species:rnd-6_family-2319|genus:LINE/RTE-BovB","Scaffold19:hit:8644:1.3.0.3"],"repeatmasker","species:rnd-6_family-2319|genus:LINE/RTE-BovB","Scaffold19",318744,318795]
[["species:rnd-4_family-1460|genus:Unknown","Scaffold19:hit:8645:1.3.0.3"],"repeatmasker","species:rnd-4_family-1460|genus:Unknown","Scaffold19",320001,320184]
[["species:rnd-3_family-167|genus:Unknown","Scaffold19:hit:8646:1.3.0.3"],"repeatmasker","species:rnd-3_family-167|genus:Unknown","Scaffold19",320276,320332]
[["species:rnd-3_family-362|genus:Unknown","Scaffold19:hit:8647:1.3.0.3"],"repeatmasker","species:rnd-3_family-362|genus:Unknown","Scaffold19",322106,322501]
[["species:rnd-3_family-208|genus:Unknown","Scaffold19:hit:8648:1.3.0.3"],"repeatmasker","species:rnd-3_family-208|genus:Unknown","Scaffold19",322830,323325]
[["species:rnd-4_family-17|genus:Unknown","Scaffold19:hit:8649:1.3.0.3"],"repeatmasker","species:rnd-4_family-17|genus:Unknown","Scaffold19",324233,325318]
[["species:AT_rich|genus:Low_complexity","Scaffold19:hit:8619:1.3.0.3"],"repeatmasker","species:AT_rich|genus:Low_complexity","Scaffold19",325732,325784]
[["species:rnd-3_family-46|genus:Unknown","Scaffold19:hit:8650:1.3.0.3"],"repeatmasker","species:rnd-3_family-46|genus:Unknown","Scaffold19",327223,327743]
[["species:rnd-3_family-46|genus:Unknown","Scaffold19:hit:8651:1.3.0.3"],"repeatmasker","species:rnd-3_family-46|genus:Unknown","Scaffold19",328572,329921]
[["species:rnd-3_family-234|genus:Unknown","Scaffold19:hit:8652:1.3.0.3"],"repeatmasker","species:rnd-3_family-234|genus:Unknown","Scaffold19",330842,331259]
[["species:rnd-3_family-167|genus:Unknown","Scaffold19:hit:8653:1.3.0.3"],"repeatmasker","species:rnd-3_family-167|genus:Unknown","Scaffold19",332122,332226]
[["species:rnd-3_family-334|genus:LINE/Jockey","Scaffold19:hit:8654:1.3.0.3"],"repeatmasker","species:rnd-3_family-334|genus:LINE/Jockey","Scaffold19",334347,334524]
[["species:rnd-3_family-334|genus:LINE/Jockey","Scaffold19:hit:8655:1.3.0.3"],"repeatmasker","species:rnd-3_family-334|genus:LINE/Jockey","Scaffold19",336270,336489]
[["species:rnd-5_family-3648|genus:Unknown","Scaffold19:hit:8656:1.3.0.3"],"repeatmasker","species:rnd-5_family-3648|genus:Unknown","Scaffold19",336974,337159]
[["species:AT_rich|genus:Low_complexity","Scaffold19:hit:8620:1.3.0.3"],"repeatmasker","species:AT_rich|genus:Low_complexity","Scaffold19",337580,337604]
[["species:AT_rich|genus:Low_complexity","Scaffold19:hit:8621:1.3.0.3"],"repeatmasker","species:AT_rich|genus:Low_complexity","Scaffold19",338036,338080]
[["species:(TTAA)n|genus:Simple_repeat","Scaffold19:hit:8606:1.3.0.3"],"repeatmasker","species:(TTAA)n|genus:Simple_repeat","Scaffold19",338917,338937]
[["species:(TTA)n|genus:Simple_repeat","Scaffold19:hit:8608:1.3.0.3"],"repeatmasker","species:(TTA)n|genus:Simple_repeat","Scaffold19",339276,339299]
[["species:AT_rich|genus:Low_complexity","Scaffold19:hit:8622:1.3.0.3"],"repeatmasker","species:AT_rich|genus:Low_complexity","Scaffold19",340376,340474]
[["species:(TAA)n|genus:Simple_repeat","Scaffold19:hit:8609:1.3.0.3"],"repeatmasker","species:(TAA)n|genus:Simple_repeat","Scaffold19",340788,340821]
[["species:AT_rich|genus:Low_complexity","Scaffold19:hit:8623:1.3.0.3"],"repeatmasker","species:AT_rich|genus:Low_complexity","Scaffold19",341174,341251]
[["species:rnd-5_family-2304|genus:DNA/TcMar-Tc1","Scaffold19:hit:8657:1.3.0.3"],"repeatmasker","species:rnd-5_family-2304|genus:DNA/TcMar-Tc1","Scaffold19",341359,341585]
[["species:rnd-3_family-334|genus:LINE/Jockey","Scaffold19:hit:8658:1.3.0.3"],"repeatmasker","species:rnd-3_family-334|genus:LINE/Jockey","Scaffold19",341646,341783]
[["species:rnd-3_family-334|genus:LINE/Jockey","Scaffold19:hit:8659:1.3.0.3"],"repeatmasker","species:rnd-3_family-334|genus:LINE/Jockey","Scaffold19",342559,342808]
[["species:rnd-3_family-85|genus:Unknown","Scaffold19:hit:8660:1.3.0.3"],"repeatmasker","species:rnd-3_family-85|genus:Unknown","Scaffold19",344836,345448]
[["species:rnd-3_family-334|genus:LINE/Jockey","Scaffold19:hit:8661:1.3.0.3"],"repeatmasker","species:rnd-3_family-334|genus:LINE/Jockey","Scaffold19",346129,346381]
[["species:rnd-3_family-334|genus:LINE/Jockey","Scaffold19:hit:8662:1.3.0.3"],"repeatmasker","species:rnd-3_family-334|genus:LINE/Jockey","Scaffold19",348040,348287]
[["species:rnd-3_family-40|genus:Unknown","Scaffold19:hit:8663:1.3.0.3"],"repeatmasker","species:rnd-3_family-40|genus:Unknown","Scaffold19",351824,352261]
[["species:rnd-5_family-236|genus:Unknown","Scaffold19:hit:8664:1.3.0.3"],"repeatmasker","species:rnd-5_family-236|genus:Unknown","Scaffold19",354238,354363]
[["species:rnd-3_family-334|genus:LINE/Jockey","Scaffold19:hit:8665:1.3.0.3"],"repeatmasker","species:rnd-3_family-334|genus:LINE/Jockey","Scaffold19",354452,354760]
[["species:rnd-3_family-334|genus:LINE/Jockey","Scaffold19:hit:8666:1.3.0.3"],"repeatmasker","species:rnd-3_family-334|genus:LINE/Jockey","Scaffold19",356958,357141]
[["species:rnd-3_family-334|genus:LINE/Jockey","Scaffold19:hit:8667:1.3.0.3"],"repeatmasker","species:rnd-3_family-334|genus:LINE/Jockey","Scaffold19",357651,358136]
[["species:rnd-4_family-91|genus:Unknown","Scaffold19:hit:8668:1.3.0.3"],"repeatmasker","species:rnd-4_family-91|genus:Unknown","Scaffold19",358232,358276]
[["species:rnd-5_family-3714|genus:LINE/RTE-BovB","Scaffold19:hit:8669:1.3.0.3"],"repeatmasker","species:rnd-5_family-3714|genus:LINE/RTE-BovB","Scaffold19",358502,358644]
[["species:rnd-6_family-1281|genus:Unknown","Scaffold19:hit:8670:1.3.0.3"],"repeatmasker","species:rnd-6_family-1281|genus:Unknown","Scaffold19",358891,358964]
[["species:(TTTTA)n|genus:Simple_repeat","Scaffold19:hit:8604:1.3.0.3"],"repeatmasker","species:(TTTTA)n|genus:Simple_repeat","Scaffold19",359845,359868]
[["species:rnd-4_family-1935|genus:Unknown","Scaffold19:hit:8671:1.3.0.3"],"repeatmasker","species:rnd-4_family-1935|genus:Unknown","Scaffold19",362811,363434]
[["species:rnd-3_family-352|genus:Unknown","Scaffold19:hit:8672:1.3.0.3"],"repeatmasker","species:rnd-3_family-352|genus:Unknown","Scaffold19",363910,364038]
[["species:rnd-3_family-352|genus:Unknown","Scaffold19:hit:8673:1.3.0.3"],"repeatmasker","species:rnd-3_family-352|genus:Unknown","Scaffold19",365299,365375]
[["species:rnd-6_family-115|genus:Unknown","Scaffold19:hit:8674:1.3.0.3"],"repeatmasker","species:rnd-6_family-115|genus:Unknown","Scaffold19",365532,365717]
[["species:rnd-6_family-5007|genus:Unknown","Scaffold19:hit:8675:1.3.0.3"],"repeatmasker","species:rnd-6_family-5007|genus:Unknown","Scaffold19",366282,366413]
[["species:AT_rich|genus:Low_complexity","Scaffold19:hit:8624:1.3.0.3"],"repeatmasker","species:AT_rich|genus:Low_complexity","Scaffold19",366736,366844]
[["species:AT_rich|genus:Low_complexity","Scaffold19:hit:8625:1.3.0.3"],"repeatmasker","species:AT_rich|genus:Low_complexity","Scaffold19",366912,366935]
[["species:rnd-5_family-1303|genus:Unknown","Scaffold19:hit:8676:1.3.0.3"],"repeatmasker","species:rnd-5_family-1303|genus:Unknown","Scaffold19",367332,367404]
[["species:AT_rich|genus:Low_complexity","Scaffold19:hit:8626:1.3.0.3"],"repeatmasker","species:AT_rich|genus:Low_complexity","Scaffold19",367838,367961]
[["species:AT_rich|genus:Low_complexity","Scaffold19:hit:8627:1.3.0.3"],"repeatmasker","species:AT_rich|genus:Low_complexity","Scaffold19",368346,368477]
[["species:AT_rich|genus:Low_complexity","Scaffold19:hit:8628:1.3.0.3"],"repeatmasker","species:AT_rich|genus:Low_complexity","Scaffold19",368755,368835]
[["species:AT_rich|genus:Low_complexity","Scaffold19:hit:8629:1.3.0.3"],"repeatmasker","species:AT_rich|genus:Low_complexity","Scaffold19",371291,371316]
[["species:rnd-4_family-2547|genus:Unknown","Scaffold19:hit:8677:1.3.0.3"],"repeatmasker","species:rnd-4_family-2547|genus:Unknown","Scaffold19",371370,371588]
[["species:rnd-3_family-46|genus:Unknown","Scaffold19:hit:8678:1.3.0.3"],"repeatmasker","species:rnd-3_family-46|genus:Unknown","Scaffold19",372704,373407]
[["species:rnd-6_family-2319|genus:LINE/RTE-BovB","Scaffold19:hit:8679:1.3.0.3"],"repeatmasker","species:rnd-6_family-2319|genus:LINE/RTE-BovB","Scaffold19",373628,373680]
[["species:rnd-5_family-6009|genus:LINE/RTE-BovB","Scaffold19:hit:8680:1.3.0.3"],"repeatmasker","species:rnd-5_family-6009|genus:LINE/RTE-BovB","Scaffold19",373779,373854]
[["species:rnd-3_family-352|genus:Unknown","Scaffold19:hit:8681:1.3.0.3"],"repeatmasker","species:rnd-3_family-352|genus:Unknown","Scaffold19",375567,375647]
[["species:rnd-3_family-134|genus:Unknown","Scaffold19:hit:8682:1.3.0.3"],"repeatmasker","species:rnd-3_family-134|genus:Unknown","Scaffold19",375791,375842]
[["species:rnd-3_family-334|genus:LINE/Jockey","Scaffold19:hit:8683:1.3.0.3"],"repeatmasker","species:rnd-3_family-334|genus:LINE/Jockey","Scaffold19",377732,378382]
[["species:(TA)n|genus:Simple_repeat","Scaffold19:hit:8605:1.3.0.3"],"repeatmasker","species:(TA)n|genus:Simple_repeat","Scaffold19",378942,378968]
[["species:rnd-5_family-4404|genus:DNA/TcMar-Stowaway","Scaffold19:hit:8684:1.3.0.3"],"repeatmasker","species:rnd-5_family-4404|genus:DNA/TcMar-Stowaway","Scaffold19",380355,380434]
[["species:rnd-3_family-134|genus:Unknown","Scaffold19:hit:8685:1.3.0.3"],"repeatmasker","species:rnd-3_family-134|genus:Unknown","Scaffold19",380495,380710]
[["species:rnd-4_family-304|genus:DNA/TcMar-Tc1","Scaffold19:hit:8686:1.3.0.3"],"repeatmasker","species:rnd-4_family-304|genus:DNA/TcMar-Tc1","Scaffold19",380916,381043]
[["species:rnd-6_family-2699|genus:Unknown","Scaffold19:hit:8687:1.3.0.3"],"repeatmasker","species:rnd-6_family-2699|genus:Unknown","Scaffold19",382412,382591]
[["species:AT_rich|genus:Low_complexity","Scaffold19:hit:8630:1.3.0.3"],"repeatmasker","species:AT_rich|genus:Low_complexity","Scaffold19",382969,382994]
[["species:rnd-2_family-49|genus:Unknown","Scaffold19:hit:8688:1.3.0.3"],"repeatmasker","species:rnd-2_family-49|genus:Unknown","Scaffold19",384606,384700]
[["species:rnd-3_family-134|genus:Unknown","Scaffold19:hit:8689:1.3.0.3"],"repeatmasker","species:rnd-3_family-134|genus:Unknown","Scaffold19",385470,385952]
[["species:rnd-3_family-40|genus:Unknown","Scaffold19:hit:8690:1.3.0.3"],"repeatmasker","species:rnd-3_family-40|genus:Unknown","Scaffold19",386845,387011]
[["species:rnd-3_family-40|genus:Unknown","Scaffold19:hit:8691:1.3.0.3"],"repeatmasker","species:rnd-3_family-40|genus:Unknown","Scaffold19",388477,388564]
[["species:rnd-3_family-317|genus:Unknown","Scaffold19:hit:8692:1.3.0.3"],"repeatmasker","species:rnd-3_family-317|genus:Unknown","Scaffold19",390482,390576]
[["species:rnd-3_family-317|genus:Unknown","Scaffold19:hit:8693:1.3.0.3"],"repeatmasker","species:rnd-3_family-317|genus:Unknown","Scaffold19",392784,392987]
[["species:rnd-5_family-2297|genus:LINE/CR1-Zenon","Scaffold19:hit:8694:1.3.0.3"],"repeatmasker","species:rnd-5_family-2297|genus:LINE/CR1-Zenon","Scaffold19",393633,393668]
[["species:AT_rich|genus:Low_complexity","Scaffold19:hit:8631:1.3.0.3"],"repeatmasker","species:AT_rich|genus:Low_complexity","Scaffold19",393846,393868]
[["species:rnd-3_family-134|genus:Unknown","Scaffold19:hit:8695:1.3.0.3"],"repeatmasker","species:rnd-3_family-134|genus:Unknown","Scaffold19",395187,397299]
[["species:AT_rich|genus:Low_complexity","Scaffold19:hit:8632:1.3.0.3"],"repeatmasker","species:AT_rich|genus:Low_complexity","Scaffold19",398545,398618]
[["species:rnd-3_family-317|genus:Unknown","Scaffold19:hit:8696:1.3.0.3"],"repeatmasker","species:rnd-3_family-317|genus:Unknown","Scaffold19",398930,399178]
[["species:rnd-3_family-317|genus:Unknown","Scaffold19:hit:8697:1.3.0.3"],"repeatmasker","species:rnd-3_family-317|genus:Unknown","Scaffold19",399657,399787]
[["species:rnd-3_family-381|genus:Unknown","Scaffold19:hit:8723:1.3.0.4"],"repeatmasker","species:rnd-3_family-381|genus:Unknown","Scaffold19",401857,402532]
[["species:rnd-3_family-381|genus:Unknown","Scaffold19:hit:8724:1.3.0.4"],"repeatmasker","species:rnd-3_family-381|genus:Unknown","Scaffold19",403092,403330]
[["species:AT_rich|genus:Low_complexity","Scaffold19:hit:8707:1.3.0.4"],"repeatmasker","species:AT_rich|genus:Low_complexity","Scaffold19",403616,403705]
[["species:rnd-3_family-142|genus:Unknown","Scaffold19:hit:8725:1.3.0.4"],"repeatmasker","species:rnd-3_family-142|genus:Unknown","Scaffold19",405549,405910]
[["species:rnd-2_family-145|genus:LINE/LOA","Scaffold19:hit:8726:1.3.0.4"],"repeatmasker","species:rnd-2_family-145|genus:LINE/LOA","Scaffold19",407651,408978]
[["species:rnd-4_family-1320|genus:Unknown","Scaffold19:hit:8727:1.3.0.4"],"repeatmasker","species:rnd-4_family-1320|genus:Unknown","Scaffold19",409309,409386]
[["species:rnd-4_family-904|genus:Unknown","Scaffold19:hit:8728:1.3.0.4"],"repeatmasker","species:rnd-4_family-904|genus:Unknown","Scaffold19",412433,412752]
[["species:rnd-6_family-1265|genus:LINE/RTE-BovB","Scaffold19:hit:8729:1.3.0.4"],"repeatmasker","species:rnd-6_family-1265|genus:LINE/RTE-BovB","Scaffold19",413328,413403]
[["species:rnd-4_family-17|genus:Unknown","Scaffold19:hit:8730:1.3.0.4"],"repeatmasker","species:rnd-4_family-17|genus:Unknown","Scaffold19",415967,416476]
[["species:rnd-4_family-408|genus:Unknown","Scaffold19:hit:8731:1.3.0.4"],"repeatmasker","species:rnd-4_family-408|genus:Unknown","Scaffold19",417471,417832]
[["species:rnd-2_family-78|genus:Unknown","Scaffold19:hit:8732:1.3.0.4"],"repeatmasker","species:rnd-2_family-78|genus:Unknown","Scaffold19",417889,418036]
[["species:rnd-6_family-5563|genus:DNA/TcMar-Tc1","Scaffold19:hit:8733:1.3.0.4"],"repeatmasker","species:rnd-6_family-5563|genus:DNA/TcMar-Tc1","Scaffold19",418249,418326]
[["species:rnd-4_family-861|genus:LINE/LOA","Scaffold19:hit:8734:1.3.0.4"],"repeatmasker","species:rnd-4_family-861|genus:LINE/LOA","Scaffold19",419630,419902]
[["species:rnd-2_family-131|genus:LINE/LOA","Scaffold19:hit:8735:1.3.0.4"],"repeatmasker","species:rnd-2_family-131|genus:LINE/LOA","Scaffold19",420557,420830]
[["species:rnd-2_family-131|genus:LINE/LOA","Scaffold19:hit:8736:1.3.0.4"],"repeatmasker","species:rnd-2_family-131|genus:LINE/LOA","Scaffold19",421445,421726]
[["species:(TAATG)n|genus:Simple_repeat","Scaffold19:hit:8705:1.3.0.4"],"repeatmasker","species:(TAATG)n|genus:Simple_repeat","Scaffold19",421726,421765]
[["species:rnd-3_family-352|genus:Unknown","Scaffold19:hit:8737:1.3.0.4"],"repeatmasker","species:rnd-3_family-352|genus:Unknown","Scaffold19",423672,423783]
[["species:rnd-4_family-304|genus:DNA/TcMar-Tc1","Scaffold19:hit:8738:1.3.0.4"],"repeatmasker","species:rnd-4_family-304|genus:DNA/TcMar-Tc1","Scaffold19",423931,424009]
[["species:rnd-4_family-304|genus:DNA/TcMar-Tc1","Scaffold19:hit:8739:1.3.0.4"],"repeatmasker","species:rnd-4_family-304|genus:DNA/TcMar-Tc1","Scaffold19",424636,424813]
[["species:rnd-3_family-1207|genus:Unknown","Scaffold19:hit:8740:1.3.0.4"],"repeatmasker","species:rnd-3_family-1207|genus:Unknown","Scaffold19",425276,425318]
[["species:rnd-6_family-4850|genus:Unknown","Scaffold19:hit:8741:1.3.0.4"],"repeatmasker","species:rnd-6_family-4850|genus:Unknown","Scaffold19",426672,427099]
[["species:rnd-2_family-358|genus:Unknown","Scaffold19:hit:8742:1.3.0.4"],"repeatmasker","species:rnd-2_family-358|genus:Unknown","Scaffold19",428038,428133]
[["species:rnd-3_family-218|genus:Simple_repeat","Scaffold19:hit:8699:1.3.0.4"],"repeatmasker","species:rnd-3_family-218|genus:Simple_repeat","Scaffold19",428305,428369]
[["species:rnd-6_family-9529|genus:Unknown","Scaffold19:hit:8743:1.3.0.4"],"repeatmasker","species:rnd-6_family-9529|genus:Unknown","Scaffold19",429311,429559]
[["species:rnd-5_family-1995|genus:Unknown","Scaffold19:hit:8744:1.3.0.4"],"repeatmasker","species:rnd-5_family-1995|genus:Unknown","Scaffold19",429983,430411]
[["species:AT_rich|genus:Low_complexity","Scaffold19:hit:8708:1.3.0.4"],"repeatmasker","species:AT_rich|genus:Low_complexity","Scaffold19",430722,430812]
[["species:rnd-3_family-23|genus:Unknown","Scaffold19:hit:8745:1.3.0.4"],"repeatmasker","species:rnd-3_family-23|genus:Unknown","Scaffold19",432021,432524]
[["species:AT_rich|genus:Low_complexity","Scaffold19:hit:8709:1.3.0.4"],"repeatmasker","species:AT_rich|genus:Low_complexity","Scaffold19",434940,434996]
[["species:rnd-4_family-1935|genus:Unknown","Scaffold19:hit:8746:1.3.0.4"],"repeatmasker","species:rnd-4_family-1935|genus:Unknown","Scaffold19",435633,435836]
[["species:rnd-5_family-885|genus:Unknown","Scaffold19:hit:8747:1.3.0.4"],"repeatmasker","species:rnd-5_family-885|genus:Unknown","Scaffold19",436052,436285]
[["species:rnd-4_family-568|genus:LINE/CR1","Scaffold19:hit:8748:1.3.0.4"],"repeatmasker","species:rnd-4_family-568|genus:LINE/CR1","Scaffold19",438428,438805]
[["species:AT_rich|genus:Low_complexity","Scaffold19:hit:8710:1.3.0.4"],"repeatmasker","species:AT_rich|genus:Low_complexity","Scaffold19",440192,440219]
[["species:rnd-3_family-724|genus:LINE/RTE-X","Scaffold19:hit:8749:1.3.0.4"],"repeatmasker","species:rnd-3_family-724|genus:LINE/RTE-X","Scaffold19",441172,442930]
[["species:rnd-5_family-379|genus:Unknown","Scaffold19:hit:8750:1.3.0.4"],"repeatmasker","species:rnd-5_family-379|genus:Unknown","Scaffold19",443394,443824]
[["species:rnd-5_family-379|genus:Unknown","Scaffold19:hit:8751:1.3.0.4"],"repeatmasker","species:rnd-5_family-379|genus:Unknown","Scaffold19",444499,444683]
[["species:AT_rich|genus:Low_complexity","Scaffold19:hit:8711:1.3.0.4"],"repeatmasker","species:AT_rich|genus:Low_complexity","Scaffold19",446928,447027]
[["species:AT_rich|genus:Low_complexity","Scaffold19:hit:8712:1.3.0.4"],"repeatmasker","species:AT_rich|genus:Low_complexity","Scaffold19",447589,447714]
[["species:AT_rich|genus:Low_complexity","Scaffold19:hit:8713:1.3.0.4"],"repeatmasker","species:AT_rich|genus:Low_complexity","Scaffold19",447813,447881]
[["species:rnd-3_family-46|genus:Unknown","Scaffold19:hit:8752:1.3.0.4"],"repeatmasker","species:rnd-3_family-46|genus:Unknown","Scaffold19",450415,450558]
[["species:rnd-3_family-46|genus:Unknown","Scaffold19:hit:8753:1.3.0.4"],"repeatmasker","species:rnd-3_family-46|genus:Unknown","Scaffold19",450608,451412]
[["species:AT_rich|genus:Low_complexity","Scaffold19:hit:8714:1.3.0.4"],"repeatmasker","species:AT_rich|genus:Low_complexity","Scaffold19",452646,452668]
[["species:rnd-2_family-228|genus:Unknown","Scaffold19:hit:8754:1.3.0.4"],"repeatmasker","species:rnd-2_family-228|genus:Unknown","Scaffold19",452988,453282]
[["species:rnd-3_family-350|genus:Unknown","Scaffold19:hit:8755:1.3.0.4"],"repeatmasker","species:rnd-3_family-350|genus:Unknown","Scaffold19",458557,459056]
[["species:(TTAA)n|genus:Simple_repeat","Scaffold19:hit:8701:1.3.0.4"],"repeatmasker","species:(TTAA)n|genus:Simple_repeat","Scaffold19",461361,461439]
[["species:rnd-2_family-228|genus:Unknown","Scaffold19:hit:8756:1.3.0.4"],"repeatmasker","species:rnd-2_family-228|genus:Unknown","Scaffold19",461909,462597]
[["species:GC_rich|genus:Low_complexity","Scaffold19:hit:8706:1.3.0.4"],"repeatmasker","species:GC_rich|genus:Low_complexity","Scaffold19",464425,464454]
[["species:rnd-4_family-625|genus:DNA/PiggyBac","Scaffold19:hit:8757:1.3.0.4"],"repeatmasker","species:rnd-4_family-625|genus:DNA/PiggyBac","Scaffold19",464910,465271]
[["species:AT_rich|genus:Low_complexity","Scaffold19:hit:8715:1.3.0.4"],"repeatmasker","species:AT_rich|genus:Low_complexity","Scaffold19",465460,465570]
[["species:T-rich|genus:Low_complexity","Scaffold19:hit:8698:1.3.0.4"],"repeatmasker","species:T-rich|genus:Low_complexity","Scaffold19",466673,466732]
[["species:rnd-4_family-625|genus:DNA/PiggyBac","Scaffold19:hit:8758:1.3.0.4"],"repeatmasker","species:rnd-4_family-625|genus:DNA/PiggyBac","Scaffold19",467203,467538]
[["species:AT_rich|genus:Low_complexity","Scaffold19:hit:8716:1.3.0.4"],"repeatmasker","species:AT_rich|genus:Low_complexity","Scaffold19",469337,469456]
[["species:rnd-5_family-3424|genus:Unknown","Scaffold19:hit:8759:1.3.0.4"],"repeatmasker","species:rnd-5_family-3424|genus:Unknown","Scaffold19",469500,469998]
[["species:AT_rich|genus:Low_complexity","Scaffold19:hit:8717:1.3.0.4"],"repeatmasker","species:AT_rich|genus:Low_complexity","Scaffold19",470292,470405]
[["species:rnd-3_family-997|genus:LINE/L2","Scaffold19:hit:8760:1.3.0.4"],"repeatmasker","species:rnd-3_family-997|genus:LINE/L2","Scaffold19",471894,472235]
[["species:rnd-3_family-85|genus:Unknown","Scaffold19:hit:8761:1.3.0.4"],"repeatmasker","species:rnd-3_family-85|genus:Unknown","Scaffold19",472880,473064]
[["species:rnd-3_family-167|genus:Unknown","Scaffold19:hit:8762:1.3.0.4"],"repeatmasker","species:rnd-3_family-167|genus:Unknown","Scaffold19",474669,475595]
[["species:rnd-2_family-228|genus:Unknown","Scaffold19:hit:8763:1.3.0.4"],"repeatmasker","species:rnd-2_family-228|genus:Unknown","Scaffold19",478766,479191]
[["species:rnd-5_family-1660|genus:LINE/RTE-BovB","Scaffold19:hit:8764:1.3.0.4"],"repeatmasker","species:rnd-5_family-1660|genus:LINE/RTE-BovB","Scaffold19",479602,479645]
[["species:rnd-2_family-19|genus:Unknown","Scaffold19:hit:8765:1.3.0.4"],"repeatmasker","species:rnd-2_family-19|genus:Unknown","Scaffold19",479874,479952]
[["species:rnd-3_family-362|genus:Unknown","Scaffold19:hit:8766:1.3.0.4"],"repeatmasker","species:rnd-3_family-362|genus:Unknown","Scaffold19",480015,480127]
[["species:(TTAA)n|genus:Simple_repeat","Scaffold19:hit:8702:1.3.0.4"],"repeatmasker","species:(TTAA)n|genus:Simple_repeat","Scaffold19",480982,481005]
[["species:(CGA)n|genus:Simple_repeat","Scaffold19:hit:8703:1.3.0.4"],"repeatmasker","species:(CGA)n|genus:Simple_repeat","Scaffold19",481122,481175]
[["species:(CGA)n|genus:Simple_repeat","Scaffold19:hit:8704:1.3.0.4"],"repeatmasker","species:(CGA)n|genus:Simple_repeat","Scaffold19",481296,481330]
[["species:rnd-2_family-19|genus:Unknown","Scaffold19:hit:8767:1.3.0.4"],"repeatmasker","species:rnd-2_family-19|genus:Unknown","Scaffold19",482216,482257]
[["species:AT_rich|genus:Low_complexity","Scaffold19:hit:8718:1.3.0.4"],"repeatmasker","species:AT_rich|genus:Low_complexity","Scaffold19",483155,483277]
[["species:rnd-5_family-489|genus:Unknown","Scaffold19:hit:8768:1.3.0.4"],"repeatmasker","species:rnd-5_family-489|genus:Unknown","Scaffold19",484629,484737]
[["species:rnd-3_family-317|genus:Unknown","Scaffold19:hit:8769:1.3.0.4"],"repeatmasker","species:rnd-3_family-317|genus:Unknown","Scaffold19",485116,485568]
[["species:AT_rich|genus:Low_complexity","Scaffold19:hit:8719:1.3.0.4"],"repeatmasker","species:AT_rich|genus:Low_complexity","Scaffold19",485748,485773]
[["species:AT_rich|genus:Low_complexity","Scaffold19:hit:8720:1.3.0.4"],"repeatmasker","species:AT_rich|genus:Low_complexity","Scaffold19",486042,486069]
[["species:rnd-3_family-167|genus:Unknown","Scaffold19:hit:8770:1.3.0.4"],"repeatmasker","species:rnd-3_family-167|genus:Unknown","Scaffold19",487467,487636]
[["species:rnd-6_family-967|genus:DNA/Sola","Scaffold19:hit:8771:1.3.0.4"],"repeatmasker","species:rnd-6_family-967|genus:DNA/Sola","Scaffold19",487824,487933]
[["species:rnd-6_family-6788|genus:Unknown","Scaffold19:hit:8772:1.3.0.4"],"repeatmasker","species:rnd-6_family-6788|genus:Unknown","Scaffold19",488208,488757]
[["species:rnd-5_family-160|genus:DNA/Sola","Scaffold19:hit:8773:1.3.0.4"],"repeatmasker","species:rnd-5_family-160|genus:DNA/Sola","Scaffold19",489840,489909]
[["species:rnd-4_family-236|genus:Unknown","Scaffold19:hit:8774:1.3.0.4"],"repeatmasker","species:rnd-4_family-236|genus:Unknown","Scaffold19",491562,491822]
[["species:(TAAA)n|genus:Simple_repeat","Scaffold19:hit:8700:1.3.0.4"],"repeatmasker","species:(TAAA)n|genus:Simple_repeat","Scaffold19",491822,491856]
[["species:rnd-6_family-5361|genus:Unknown","Scaffold19:hit:8775:1.3.0.4"],"repeatmasker","species:rnd-6_family-5361|genus:Unknown","Scaffold19",492520,493469]
[["species:rnd-3_family-334|genus:LINE/Jockey","Scaffold19:hit:8776:1.3.0.4"],"repeatmasker","species:rnd-3_family-334|genus:LINE/Jockey","Scaffold19",495774,496528]
[["species:rnd-3_family-362|genus:Unknown","Scaffold19:hit:8777:1.3.0.4"],"repeatmasker","species:rnd-3_family-362|genus:Unknown","Scaffold19",496674,496868]
[["species:rnd-5_family-1483|genus:Unknown","Scaffold19:hit:8778:1.3.0.4"],"repeatmasker","species:rnd-5_family-1483|genus:Unknown","Scaffold19",497086,497322]
[["species:AT_rich|genus:Low_complexity","Scaffold19:hit:8721:1.3.0.4"],"repeatmasker","species:AT_rich|genus:Low_complexity","Scaffold19",498205,498232]
[["species:AT_rich|genus:Low_complexity","Scaffold19:hit:8722:1.3.0.4"],"repeatmasker","species:AT_rich|genus:Low_complexity","Scaffold19",498325,498403]
[["species:(TTAA)n|genus:Simple_repeat","Scaffold19:hit:8791:1.3.0.5"],"repeatmasker","species:(TTAA)n|genus:Simple_repeat","Scaffold19",500540,500563]
[["species:AT_rich|genus:Low_complexity","Scaffold19:hit:8799:1.3.0.5"],"repeatmasker","species:AT_rich|genus:Low_complexity","Scaffold19",500802,500956]
[["species:rnd-6_family-7566|genus:Unknown","Scaffold19:hit:8831:1.3.0.5"],"repeatmasker","species:rnd-6_family-7566|genus:Unknown","Scaffold19",504240,504319]
[["species:rnd-6_family-7566|genus:Unknown","Scaffold19:hit:8832:1.3.0.5"],"repeatmasker","species:rnd-6_family-7566|genus:Unknown","Scaffold19",504958,505247]
[["species:rnd-4_family-1014|genus:Unknown","Scaffold19:hit:8833:1.3.0.5"],"repeatmasker","species:rnd-4_family-1014|genus:Unknown","Scaffold19",506802,507878]
[["species:rnd-3_family-4|genus:Unknown","Scaffold19:hit:8834:1.3.0.5"],"repeatmasker","species:rnd-3_family-4|genus:Unknown","Scaffold19",507929,508091]
[["species:rnd-3_family-334|genus:LINE/Jockey","Scaffold19:hit:8835:1.3.0.5"],"repeatmasker","species:rnd-3_family-334|genus:LINE/Jockey","Scaffold19",510350,511004]
[["species:rnd-4_family-874|genus:Unknown","Scaffold19:hit:8836:1.3.0.5"],"repeatmasker","species:rnd-4_family-874|genus:Unknown","Scaffold19",511272,511603]
[["species:rnd-5_family-3826|genus:Unknown","Scaffold19:hit:8837:1.3.0.5"],"repeatmasker","species:rnd-5_family-3826|genus:Unknown","Scaffold19",515343,515516]
[["species:A-rich|genus:Low_complexity","Scaffold19:hit:8788:1.3.0.5"],"repeatmasker","species:A-rich|genus:Low_complexity","Scaffold19",516942,517026]
[["species:rnd-3_family-334|genus:LINE/Jockey","Scaffold19:hit:8838:1.3.0.5"],"repeatmasker","species:rnd-3_family-334|genus:LINE/Jockey","Scaffold19",519018,519834]
[["species:(TAAA)n|genus:Simple_repeat","Scaffold19:hit:8787:1.3.0.5"],"repeatmasker","species:(TAAA)n|genus:Simple_repeat","Scaffold19",520411,520445]
[["species:rnd-5_family-5839|genus:DNA/TcMar-Tc1","Scaffold19:hit:8839:1.3.0.5"],"repeatmasker","species:rnd-5_family-5839|genus:DNA/TcMar-Tc1","Scaffold19",522251,522529]
[["species:rnd-2_family-228|genus:Unknown","Scaffold19:hit:8840:1.3.0.5"],"repeatmasker","species:rnd-2_family-228|genus:Unknown","Scaffold19",522889,523255]
[["species:rnd-6_family-8609|genus:Unknown","Scaffold19:hit:8841:1.3.0.5"],"repeatmasker","species:rnd-6_family-8609|genus:Unknown","Scaffold19",523845,523908]
[["species:AT_rich|genus:Low_complexity","Scaffold19:hit:8800:1.3.0.5"],"repeatmasker","species:AT_rich|genus:Low_complexity","Scaffold19",524948,524973]
[["species:rnd-3_family-334|genus:LINE/Jockey","Scaffold19:hit:8842:1.3.0.5"],"repeatmasker","species:rnd-3_family-334|genus:LINE/Jockey","Scaffold19",525016,525151]
[["species:rnd-4_family-242|genus:Unknown","Scaffold19:hit:8843:1.3.0.5"],"repeatmasker","species:rnd-4_family-242|genus:Unknown","Scaffold19",525406,525542]
[["species:rnd-3_family-334|genus:LINE/Jockey","Scaffold19:hit:8844:1.3.0.5"],"repeatmasker","species:rnd-3_family-334|genus:LINE/Jockey","Scaffold19",525591,525825]
[["species:rnd-3_family-334|genus:LINE/Jockey","Scaffold19:hit:8845:1.3.0.5"],"repeatmasker","species:rnd-3_family-334|genus:LINE/Jockey","Scaffold19",526533,526725]
[["species:rnd-3_family-85|genus:Unknown","Scaffold19:hit:8846:1.3.0.5"],"repeatmasker","species:rnd-3_family-85|genus:Unknown","Scaffold19",526903,527198]
[["species:rnd-3_family-1207|genus:Unknown","Scaffold19:hit:8847:1.3.0.5"],"repeatmasker","species:rnd-3_family-1207|genus:Unknown","Scaffold19",527325,527393]
[["species:rnd-2_family-19|genus:Unknown","Scaffold19:hit:8848:1.3.0.5"],"repeatmasker","species:rnd-2_family-19|genus:Unknown","Scaffold19",529214,529471]
[["species:rnd-2_family-19|genus:Unknown","Scaffold19:hit:8849:1.3.0.5"],"repeatmasker","species:rnd-2_family-19|genus:Unknown","Scaffold19",529624,529910]
[["species:rnd-4_family-220|genus:Unknown","Scaffold19:hit:8850:1.3.0.5"],"repeatmasker","species:rnd-4_family-220|genus:Unknown","Scaffold19",530044,530087]
[["species:rnd-5_family-4134|genus:DNA/TcMar-Tigger","Scaffold19:hit:8851:1.3.0.5"],"repeatmasker","species:rnd-5_family-4134|genus:DNA/TcMar-Tigger","Scaffold19",530867,531025]
[["species:rnd-5_family-4134|genus:DNA/TcMar-Tigger","Scaffold19:hit:8852:1.3.0.5"],"repeatmasker","species:rnd-5_family-4134|genus:DNA/TcMar-Tigger","Scaffold19",531162,531338]
[["species:(TAA)n|genus:Simple_repeat","Scaffold19:hit:8795:1.3.0.5"],"repeatmasker","species:(TAA)n|genus:Simple_repeat","Scaffold19",533509,533537]
[["species:rnd-4_family-738|genus:Unknown","Scaffold19:hit:8853:1.3.0.5"],"repeatmasker","species:rnd-4_family-738|genus:Unknown","Scaffold19",533938,534076]
[["species:rnd-3_family-40|genus:Unknown","Scaffold19:hit:8854:1.3.0.5"],"repeatmasker","species:rnd-3_family-40|genus:Unknown","Scaffold19",534325,534556]
[["species:rnd-3_family-40|genus:Unknown","Scaffold19:hit:8855:1.3.0.5"],"repeatmasker","species:rnd-3_family-40|genus:Unknown","Scaffold19",535807,536185]
[["species:rnd-4_family-650|genus:DNA/PiggyBac","Scaffold19:hit:8856:1.3.0.5"],"repeatmasker","species:rnd-4_family-650|genus:DNA/PiggyBac","Scaffold19",537278,537628]
[["species:AT_rich|genus:Low_complexity","Scaffold19:hit:8801:1.3.0.5"],"repeatmasker","species:AT_rich|genus:Low_complexity","Scaffold19",538810,538836]
[["species:AT_rich|genus:Low_complexity","Scaffold19:hit:8802:1.3.0.5"],"repeatmasker","species:AT_rich|genus:Low_complexity","Scaffold19",538813,538919]
[["species:rnd-3_family-218|genus:Simple_repeat","Scaffold19:hit:8779:1.3.0.5"],"repeatmasker","species:rnd-3_family-218|genus:Simple_repeat","Scaffold19",539003,539412]
[["species:rnd-3_family-218|genus:Simple_repeat","Scaffold19:hit:8780:1.3.0.5"],"repeatmasker","species:rnd-3_family-218|genus:Simple_repeat","Scaffold19",539464,539691]
[["species:AT_rich|genus:Low_complexity","Scaffold19:hit:8803:1.3.0.5"],"repeatmasker","species:AT_rich|genus:Low_complexity","Scaffold19",539727,539819]
[["species:AT_rich|genus:Low_complexity","Scaffold19:hit:8804:1.3.0.5"],"repeatmasker","species:AT_rich|genus:Low_complexity","Scaffold19",540194,540280]
[["species:AT_rich|genus:Low_complexity","Scaffold19:hit:8805:1.3.0.5"],"repeatmasker","species:AT_rich|genus:Low_complexity","Scaffold19",540781,540802]
[["species:(TTA)n|genus:Simple_repeat","Scaffold19:hit:8794:1.3.0.5"],"repeatmasker","species:(TTA)n|genus:Simple_repeat","Scaffold19",540917,540975]
[["species:rnd-3_family-40|genus:Unknown","Scaffold19:hit:8857:1.3.0.5"],"repeatmasker","species:rnd-3_family-40|genus:Unknown","Scaffold19",541228,541353]
[["species:rnd-3_family-218|genus:Simple_repeat","Scaffold19:hit:8781:1.3.0.5"],"repeatmasker","species:rnd-3_family-218|genus:Simple_repeat","Scaffold19",541245,542828]
[["species:rnd-5_family-2276|genus:Unknown","Scaffold19:hit:8858:1.3.0.5"],"repeatmasker","species:rnd-5_family-2276|genus:Unknown","Scaffold19",542693,542847]
[["species:rnd-3_family-218|genus:Simple_repeat","Scaffold19:hit:8782:1.3.0.5"],"repeatmasker","species:rnd-3_family-218|genus:Simple_repeat","Scaffold19",542859,546260]
[["species:rnd-2_family-67|genus:Unknown","Scaffold19:hit:8859:1.3.0.5"],"repeatmasker","species:rnd-2_family-67|genus:Unknown","Scaffold19",546474,546614]
[["species:rnd-3_family-317|genus:Unknown","Scaffold19:hit:8860:1.3.0.5"],"repeatmasker","species:rnd-3_family-317|genus:Unknown","Scaffold19",547424,547577]
[["species:rnd-3_family-218|genus:Simple_repeat","Scaffold19:hit:8783:1.3.0.5"],"repeatmasker","species:rnd-3_family-218|genus:Simple_repeat","Scaffold19",547630,547746]
[["species:rnd-6_family-2885|genus:DNA/TcMar-Tc1","Scaffold19:hit:8861:1.3.0.5"],"repeatmasker","species:rnd-6_family-2885|genus:DNA/TcMar-Tc1","Scaffold19",548921,548978]
[["species:rnd-3_family-47|genus:Unknown","Scaffold19:hit:8862:1.3.0.5"],"repeatmasker","species:rnd-3_family-47|genus:Unknown","Scaffold19",549646,549741]
[["species:rnd-3_family-47|genus:Unknown","Scaffold19:hit:8863:1.3.0.5"],"repeatmasker","species:rnd-3_family-47|genus:Unknown","Scaffold19",550444,550533]
[["species:rnd-5_family-793|genus:LINE/RTE-BovB","Scaffold19:hit:8864:1.3.0.5"],"repeatmasker","species:rnd-5_family-793|genus:LINE/RTE-BovB","Scaffold19",550654,550878]
[["species:rnd-2_family-228|genus:Unknown","Scaffold19:hit:8865:1.3.0.5"],"repeatmasker","species:rnd-2_family-228|genus:Unknown","Scaffold19",550957,551331]
[["species:rnd-2_family-67|genus:Unknown","Scaffold19:hit:8866:1.3.0.5"],"repeatmasker","species:rnd-2_family-67|genus:Unknown","Scaffold19",551372,551711]
[["species:rnd-5_family-3827|genus:Unknown","Scaffold19:hit:8867:1.3.0.5"],"repeatmasker","species:rnd-5_family-3827|genus:Unknown","Scaffold19",553154,553195]
[["species:rnd-3_family-4|genus:Unknown","Scaffold19:hit:8868:1.3.0.5"],"repeatmasker","species:rnd-3_family-4|genus:Unknown","Scaffold19",553749,553872]
[["species:rnd-5_family-1284|genus:Unknown","Scaffold19:hit:8869:1.3.0.5"],"repeatmasker","species:rnd-5_family-1284|genus:Unknown","Scaffold19",553935,554219]
[["species:rnd-5_family-5303|genus:Unknown","Scaffold19:hit:8870:1.3.0.5"],"repeatmasker","species:rnd-5_family-5303|genus:Unknown","Scaffold19",554502,554537]
[["species:AT_rich|genus:Low_complexity","Scaffold19:hit:8806:1.3.0.5"],"repeatmasker","species:AT_rich|genus:Low_complexity","Scaffold19",555022,555050]
[["species:AT_rich|genus:Low_complexity","Scaffold19:hit:8807:1.3.0.5"],"repeatmasker","species:AT_rich|genus:Low_complexity","Scaffold19",555839,555949]
[["species:AT_rich|genus:Low_complexity","Scaffold19:hit:8808:1.3.0.5"],"repeatmasker","species:AT_rich|genus:Low_complexity","Scaffold19",556447,556554]
[["species:AT_rich|genus:Low_complexity","Scaffold19:hit:8809:1.3.0.5"],"repeatmasker","species:AT_rich|genus:Low_complexity","Scaffold19",557750,557815]
[["species:(TTAA)n|genus:Simple_repeat","Scaffold19:hit:8792:1.3.0.5"],"repeatmasker","species:(TTAA)n|genus:Simple_repeat","Scaffold19",559522,559558]
[["species:rnd-4_family-1021|genus:Unknown","Scaffold19:hit:8871:1.3.0.5"],"repeatmasker","species:rnd-4_family-1021|genus:Unknown","Scaffold19",560119,560371]
[["species:rnd-4_family-219|genus:DNA/TcMar-Tc1","Scaffold19:hit:8872:1.3.0.5"],"repeatmasker","species:rnd-4_family-219|genus:DNA/TcMar-Tc1","Scaffold19",564496,564627]
[["species:rnd-3_family-334|genus:LINE/Jockey","Scaffold19:hit:8873:1.3.0.5"],"repeatmasker","species:rnd-3_family-334|genus:LINE/Jockey","Scaffold19",564999,565228]
[["species:AT_rich|genus:Low_complexity","Scaffold19:hit:8810:1.3.0.5"],"repeatmasker","species:AT_rich|genus:Low_complexity","Scaffold19",566108,566170]
[["species:rnd-3_family-334|genus:LINE/Jockey","Scaffold19:hit:8874:1.3.0.5"],"repeatmasker","species:rnd-3_family-334|genus:LINE/Jockey","Scaffold19",567591,568486]
[["species:rnd-3_family-218|genus:Simple_repeat","Scaffold19:hit:8784:1.3.0.5"],"repeatmasker","species:rnd-3_family-218|genus:Simple_repeat","Scaffold19",569074,569136]
[["species:rnd-3_family-334|genus:LINE/Jockey","Scaffold19:hit:8875:1.3.0.5"],"repeatmasker","species:rnd-3_family-334|genus:LINE/Jockey","Scaffold19",569131,569170]
[["species:rnd-4_family-752|genus:Unknown","Scaffold19:hit:8876:1.3.0.5"],"repeatmasker","species:rnd-4_family-752|genus:Unknown","Scaffold19",571474,571662]
[["species:rnd-2_family-228|genus:Unknown","Scaffold19:hit:8877:1.3.0.5"],"repeatmasker","species:rnd-2_family-228|genus:Unknown","Scaffold19",571913,571968]
[["species:rnd-2_family-228|genus:Unknown","Scaffold19:hit:8878:1.3.0.5"],"repeatmasker","species:rnd-2_family-228|genus:Unknown","Scaffold19",573709,573987]
[["species:GC_rich|genus:Low_complexity","Scaffold19:hit:8797:1.3.0.5"],"repeatmasker","species:GC_rich|genus:Low_complexity","Scaffold19",574976,575056]
[["species:rnd-4_family-83|genus:Unknown","Scaffold19:hit:8879:1.3.0.5"],"repeatmasker","species:rnd-4_family-83|genus:Unknown","Scaffold19",575791,575849]
[["species:rnd-6_family-3750|genus:LINE/RTE-BovB","Scaffold19:hit:8880:1.3.0.5"],"repeatmasker","species:rnd-6_family-3750|genus:LINE/RTE-BovB","Scaffold19",575975,576046]
[["species:rnd-2_family-36|genus:Unknown","Scaffold19:hit:8881:1.3.0.5"],"repeatmasker","species:rnd-2_family-36|genus:Unknown","Scaffold19",576260,576314]
[["species:rnd-5_family-1925|genus:Unknown","Scaffold19:hit:8882:1.3.0.5"],"repeatmasker","species:rnd-5_family-1925|genus:Unknown","Scaffold19",576444,577008]
[["species:rnd-3_family-1397|genus:DNA/TcMar-Tc1","Scaffold19:hit:8883:1.3.0.5"],"repeatmasker","species:rnd-3_family-1397|genus:DNA/TcMar-Tc1","Scaffold19",577679,578385]
[["species:rnd-2_family-94|genus:Unknown","Scaffold19:hit:8884:1.3.0.5"],"repeatmasker","species:rnd-2_family-94|genus:Unknown","Scaffold19",579236,579935]
[["species:rnd-2_family-94|genus:Unknown","Scaffold19:hit:8885:1.3.0.5"],"repeatmasker","species:rnd-2_family-94|genus:Unknown","Scaffold19",582153,583175]
[["species:AT_rich|genus:Low_complexity","Scaffold19:hit:8811:1.3.0.5"],"repeatmasker","species:AT_rich|genus:Low_complexity","Scaffold19",584995,585062]
[["species:rnd-5_family-1575|genus:LINE/I","Scaffold19:hit:8886:1.3.0.5"],"repeatmasker","species:rnd-5_family-1575|genus:LINE/I","Scaffold19",585148,585204]
[["species:rnd-2_family-94|genus:Unknown","Scaffold19:hit:8887:1.3.0.5"],"repeatmasker","species:rnd-2_family-94|genus:Unknown","Scaffold19",585557,585922]
[["species:rnd-2_family-94|genus:Unknown","Scaffold19:hit:8888:1.3.0.5"],"repeatmasker","species:rnd-2_family-94|genus:Unknown","Scaffold19",585980,586074]
[["species:rnd-2_family-94|genus:Unknown","Scaffold19:hit:8889:1.3.0.5"],"repeatmasker","species:rnd-2_family-94|genus:Unknown","Scaffold19",587210,587516]
[["species:rnd-5_family-1896|genus:DNA/TcMar-Tc1","Scaffold19:hit:8890:1.3.0.5"],"repeatmasker","species:rnd-5_family-1896|genus:DNA/TcMar-Tc1","Scaffold19",587813,587997]
[["species:rnd-5_family-3424|genus:Unknown","Scaffold19:hit:8891:1.3.0.5"],"repeatmasker","species:rnd-5_family-3424|genus:Unknown","Scaffold19",588150,588289]
[["species:rnd-3_family-362|genus:Unknown","Scaffold19:hit:8892:1.3.0.5"],"repeatmasker","species:rnd-3_family-362|genus:Unknown","Scaffold19",588464,588800]
[["species:AT_rich|genus:Low_complexity","Scaffold19:hit:8812:1.3.0.5"],"repeatmasker","species:AT_rich|genus:Low_complexity","Scaffold19",588979,589000]
[["species:rnd-3_family-46|genus:Unknown","Scaffold19:hit:8893:1.3.0.5"],"repeatmasker","species:rnd-3_family-46|genus:Unknown","Scaffold19",590186,590454]
[["species:rnd-4_family-874|genus:Unknown","Scaffold19:hit:8894:1.3.0.5"],"repeatmasker","species:rnd-4_family-874|genus:Unknown","Scaffold19",590950,591594]
[["species:AT_rich|genus:Low_complexity","Scaffold19:hit:8813:1.3.0.5"],"repeatmasker","species:AT_rich|genus:Low_complexity","Scaffold19",591728,591856]
[["species:rnd-3_family-24|genus:Unknown","Scaffold19:hit:8895:1.3.0.5"],"repeatmasker","species:rnd-3_family-24|genus:Unknown","Scaffold19",593790,593868]
[["species:rnd-3_family-334|genus:LINE/Jockey","Scaffold19:hit:8896:1.3.0.5"],"repeatmasker","species:rnd-3_family-334|genus:LINE/Jockey","Scaffold19",593928,594049]
[["species:rnd-3_family-334|genus:LINE/Jockey","Scaffold19:hit:8897:1.3.0.5"],"repeatmasker","species:rnd-3_family-334|genus:LINE/Jockey","Scaffold19",594847,595149]
[["species:AT_rich|genus:Low_complexity","Scaffold19:hit:8814:1.3.0.5"],"repeatmasker","species:AT_rich|genus:Low_complexity","Scaffold19",597583,597632]
[["species:AT_rich|genus:Low_complexity","Scaffold19:hit:8815:1.3.0.5"],"repeatmasker","species:AT_rich|genus:Low_complexity","Scaffold19",598308,598421]
[["species:A-rich|genus:Low_complexity","Scaffold19:hit:8789:1.3.0.5"],"repeatmasker","species:A-rich|genus:Low_complexity","Scaffold19",599624,599709]
[["species:AT_rich|genus:Low_complexity","Scaffold19:hit:8816:1.3.0.5"],"repeatmasker","species:AT_rich|genus:Low_complexity","Scaffold19",601421,601443]
[["species:(TTAA)n|genus:Simple_repeat","Scaffold19:hit:8793:1.3.0.5"],"repeatmasker","species:(TTAA)n|genus:Simple_repeat","Scaffold19",601533,601557]
[["species:AT_rich|genus:Low_complexity","Scaffold19:hit:8817:1.3.0.5"],"repeatmasker","species:AT_rich|genus:Low_complexity","Scaffold19",601567,601596]
[["species:AT_rich|genus:Low_complexity","Scaffold19:hit:8818:1.3.0.5"],"repeatmasker","species:AT_rich|genus:Low_complexity","Scaffold19",602345,602394]
[["species:rnd-3_family-4|genus:Unknown","Scaffold19:hit:8898:1.3.0.5"],"repeatmasker","species:rnd-3_family-4|genus:Unknown","Scaffold19",602882,603087]
[["species:rnd-5_family-1739|genus:DNA/TcMar-Tc1","Scaffold19:hit:8899:1.3.0.5"],"repeatmasker","species:rnd-5_family-1739|genus:DNA/TcMar-Tc1","Scaffold19",604999,605085]
[["species:rnd-5_family-4543|genus:LTR/Copia","Scaffold19:hit:8900:1.3.0.5"],"repeatmasker","species:rnd-5_family-4543|genus:LTR/Copia","Scaffold19",605381,605446]
[["species:AT_rich|genus:Low_complexity","Scaffold19:hit:8819:1.3.0.5"],"repeatmasker","species:AT_rich|genus:Low_complexity","Scaffold19",606032,606079]
[["species:rnd-6_family-2409|genus:LINE/RTE-BovB","Scaffold19:hit:8901:1.3.0.5"],"repeatmasker","species:rnd-6_family-2409|genus:LINE/RTE-BovB","Scaffold19",607044,607153]
[["species:rnd-5_family-4341|genus:Unknown","Scaffold19:hit:8902:1.3.0.5"],"repeatmasker","species:rnd-5_family-4341|genus:Unknown","Scaffold19",608018,608073]
[["species:AT_rich|genus:Low_complexity","Scaffold19:hit:8820:1.3.0.5"],"repeatmasker","species:AT_rich|genus:Low_complexity","Scaffold19",608204,608258]
[["species:AT_rich|genus:Low_complexity","Scaffold19:hit:8821:1.3.0.5"],"repeatmasker","species:AT_rich|genus:Low_complexity","Scaffold19",610894,610993]
[["species:AT_rich|genus:Low_complexity","Scaffold19:hit:8822:1.3.0.5"],"repeatmasker","species:AT_rich|genus:Low_complexity","Scaffold19",611236,611344]
[["species:rnd-2_family-332|genus:LINE/RTE-RTE","Scaffold19:hit:8903:1.3.0.5"],"repeatmasker","species:rnd-2_family-332|genus:LINE/RTE-RTE","Scaffold19",619459,619514]
[["species:rnd-3_family-4|genus:Unknown","Scaffold19:hit:8904:1.3.0.5"],"repeatmasker","species:rnd-3_family-4|genus:Unknown","Scaffold19",620116,620655]
[["species:rnd-4_family-309|genus:DNA/TcMar-Tc1","Scaffold19:hit:8905:1.3.0.5"],"repeatmasker","species:rnd-4_family-309|genus:DNA/TcMar-Tc1","Scaffold19",621940,622114]
[["species:rnd-5_family-684|genus:Unknown","Scaffold19:hit:8906:1.3.0.5"],"repeatmasker","species:rnd-5_family-684|genus:Unknown","Scaffold19",622335,622611]
[["species:rnd-5_family-554|genus:Unknown","Scaffold19:hit:8907:1.3.0.5"],"repeatmasker","species:rnd-5_family-554|genus:Unknown","Scaffold19",622702,622899]
[["species:rnd-5_family-2025|genus:Unknown","Scaffold19:hit:8908:1.3.0.5"],"repeatmasker","species:rnd-5_family-2025|genus:Unknown","Scaffold19",623792,623981]
[["species:rnd-2_family-292|genus:Unknown","Scaffold19:hit:8909:1.3.0.5"],"repeatmasker","species:rnd-2_family-292|genus:Unknown","Scaffold19",626863,627349]
[["species:CT-rich|genus:Low_complexity","Scaffold19:hit:8790:1.3.0.5"],"repeatmasker","species:CT-rich|genus:Low_complexity","Scaffold19",627917,627959]
[["species:rnd-5_family-4031|genus:Unknown","Scaffold19:hit:8910:1.3.0.5"],"repeatmasker","species:rnd-5_family-4031|genus:Unknown","Scaffold19",628688,628825]
[["species:rnd-2_family-292|genus:Unknown","Scaffold19:hit:8911:1.3.0.5"],"repeatmasker","species:rnd-2_family-292|genus:Unknown","Scaffold19",630106,630500]
[["species:AT_rich|genus:Low_complexity","Scaffold19:hit:8823:1.3.0.5"],"repeatmasker","species:AT_rich|genus:Low_complexity","Scaffold19",631909,632002]
[["species:rnd-2_family-228|genus:Unknown","Scaffold19:hit:8912:1.3.0.5"],"repeatmasker","species:rnd-2_family-228|genus:Unknown","Scaffold19",633693,633782]
[["species:AT_rich|genus:Low_complexity","Scaffold19:hit:8824:1.3.0.5"],"repeatmasker","species:AT_rich|genus:Low_complexity","Scaffold19",635021,635043]
[["species:rnd-3_family-501|genus:Unknown","Scaffold19:hit:8913:1.3.0.5"],"repeatmasker","species:rnd-3_family-501|genus:Unknown","Scaffold19",635537,636168]
[["species:rnd-3_family-216|genus:LINE/LOA","Scaffold19:hit:8914:1.3.0.5"],"repeatmasker","species:rnd-3_family-216|genus:LINE/LOA","Scaffold19",637159,637326]
[["species:rnd-5_family-2870|genus:Unknown","Scaffold19:hit:8915:1.3.0.5"],"repeatmasker","species:rnd-5_family-2870|genus:Unknown","Scaffold19",637962,638089]
[["species:rnd-6_family-4800|genus:LINE/Jockey","Scaffold19:hit:8916:1.3.0.5"],"repeatmasker","species:rnd-6_family-4800|genus:LINE/Jockey","Scaffold19",638272,638353]
[["species:rnd-5_family-43|genus:Unknown","Scaffold19:hit:8917:1.3.0.5"],"repeatmasker","species:rnd-5_family-43|genus:Unknown","Scaffold19",639223,639394]
[["species:rnd-2_family-49|genus:Unknown","Scaffold19:hit:8918:1.3.0.5"],"repeatmasker","species:rnd-2_family-49|genus:Unknown","Scaffold19",640212,640259]
[["species:rnd-6_family-218|genus:Unknown","Scaffold19:hit:8919:1.3.0.5"],"repeatmasker","species:rnd-6_family-218|genus:Unknown","Scaffold19",640865,641290]
[["species:rnd-3_family-218|genus:Simple_repeat","Scaffold19:hit:8785:1.3.0.5"],"repeatmasker","species:rnd-3_family-218|genus:Simple_repeat","Scaffold19",642588,642719]
[["species:rnd-6_family-382|genus:Unknown","Scaffold19:hit:8920:1.3.0.5"],"repeatmasker","species:rnd-6_family-382|genus:Unknown","Scaffold19",642778,643209]
[["species:rnd-3_family-167|genus:Unknown","Scaffold19:hit:8921:1.3.0.5"],"repeatmasker","species:rnd-3_family-167|genus:Unknown","Scaffold19",643262,643621]
[["species:GC_rich|genus:Low_complexity","Scaffold19:hit:8798:1.3.0.5"],"repeatmasker","species:GC_rich|genus:Low_complexity","Scaffold19",645764,645787]
[["species:rnd-3_family-23|genus:Unknown","Scaffold19:hit:8922:1.3.0.5"],"repeatmasker","species:rnd-3_family-23|genus:Unknown","Scaffold19",645889,646061]
[["species:rnd-3_family-218|genus:Simple_repeat","Scaffold19:hit:8786:1.3.0.5"],"repeatmasker","species:rnd-3_family-218|genus:Simple_repeat","Scaffold19",646080,646152]
[["species:rnd-6_family-382|genus:Unknown","Scaffold19:hit:8923:1.3.0.5"],"repeatmasker","species:rnd-6_family-382|genus:Unknown","Scaffold19",648587,648777]
[["species:rnd-3_family-334|genus:LINE/Jockey","Scaffold19:hit:8924:1.3.0.5"],"repeatmasker","species:rnd-3_family-334|genus:LINE/Jockey","Scaffold19",649775,650032]
[["species:AT_rich|genus:Low_complexity","Scaffold19:hit:8825:1.3.0.5"],"repeatmasker","species:AT_rich|genus:Low_complexity","Scaffold19",650073,650158]
[["species:rnd-6_family-382|genus:Unknown","Scaffold19:hit:8925:1.3.0.5"],"repeatmasker","species:rnd-6_family-382|genus:Unknown","Scaffold19",650480,650802]
[["species:rnd-3_family-352|genus:Unknown","Scaffold19:hit:8926:1.3.0.5"],"repeatmasker","species:rnd-3_family-352|genus:Unknown","Scaffold19",651852,651913]
[["species:rnd-4_family-91|genus:Unknown","Scaffold19:hit:8927:1.3.0.5"],"repeatmasker","species:rnd-4_family-91|genus:Unknown","Scaffold19",652766,653069]
[["species:rnd-3_family-724|genus:LINE/RTE-X","Scaffold19:hit:8928:1.3.0.5"],"repeatmasker","species:rnd-3_family-724|genus:LINE/RTE-X","Scaffold19",653481,653563]
[["species:rnd-4_family-1692|genus:LINE/RTE-X","Scaffold19:hit:8929:1.3.0.5"],"repeatmasker","species:rnd-4_family-1692|genus:LINE/RTE-X","Scaffold19",653697,653787]
[["species:rnd-3_family-334|genus:LINE/Jockey","Scaffold19:hit:8930:1.3.0.5"],"repeatmasker","species:rnd-3_family-334|genus:LINE/Jockey","Scaffold19",654288,654909]
[["species:rnd-4_family-293|genus:Unknown","Scaffold19:hit:8931:1.3.0.5"],"repeatmasker","species:rnd-4_family-293|genus:Unknown","Scaffold19",656732,656820]
[["species:AT_rich|genus:Low_complexity","Scaffold19:hit:8826:1.3.0.5"],"repeatmasker","species:AT_rich|genus:Low_complexity","Scaffold19",658317,658398]
[["species:AT_rich|genus:Low_complexity","Scaffold19:hit:8827:1.3.0.5"],"repeatmasker","species:AT_rich|genus:Low_complexity","Scaffold19",658991,659038]
[["species:AT_rich|genus:Low_complexity","Scaffold19:hit:8828:1.3.0.5"],"repeatmasker","species:AT_rich|genus:Low_complexity","Scaffold19",659076,659099]
[["species:AT_rich|genus:Low_complexity","Scaffold19:hit:8829:1.3.0.5"],"repeatmasker","species:AT_rich|genus:Low_complexity","Scaffold19",660103,660154]
[["species:AT_rich|genus:Low_complexity","Scaffold19:hit:8830:1.3.0.5"],"repeatmasker","species:AT_rich|genus:Low_complexity","Scaffold19",660403,660472]
[["species:rnd-6_family-382|genus:Unknown","Scaffold19:hit:8932:1.3.0.5"],"repeatmasker","species:rnd-6_family-382|genus:Unknown","Scaffold19",661786,661906]
[["species:rnd-6_family-382|genus:Unknown","Scaffold19:hit:8933:1.3.0.5"],"repeatmasker","species:rnd-6_family-382|genus:Unknown","Scaffold19",662226,662606]
[["species:rnd-3_family-46|genus:Unknown","Scaffold19:hit:8934:1.3.0.5"],"repeatmasker","species:rnd-3_family-46|genus:Unknown","Scaffold19",665110,665510]
[["species:rnd-3_family-121|genus:LINE/LOA","Scaffold19:hit:8935:1.3.0.5"],"repeatmasker","species:rnd-3_family-121|genus:LINE/LOA","Scaffold19",667638,668226]
[["species:rnd-4_family-717|genus:Unknown","Scaffold19:hit:8936:1.3.0.5"],"repeatmasker","species:rnd-4_family-717|genus:Unknown","Scaffold19",668689,668827]
[["species:rnd-5_family-2943|genus:DNA/TcMar-Tc1","Scaffold19:hit:8937:1.3.0.5"],"repeatmasker","species:rnd-5_family-2943|genus:DNA/TcMar-Tc1","Scaffold19",670585,670773]
[["species:rnd-6_family-382|genus:Unknown","Scaffold19:hit:8938:1.3.0.5"],"repeatmasker","species:rnd-6_family-382|genus:Unknown","Scaffold19",672147,672372]
[["species:rnd-3_family-334|genus:LINE/Jockey","Scaffold19:hit:8939:1.3.0.5"],"repeatmasker","species:rnd-3_family-334|genus:LINE/Jockey","Scaffold19",673866,674517]
[["species:rnd-4_family-577|genus:Unknown","Scaffold19:hit:8940:1.3.0.5"],"repeatmasker","species:rnd-4_family-577|genus:Unknown","Scaffold19",675002,675420]
[["species:rnd-3_family-4|genus:Unknown","Scaffold19:hit:8941:1.3.0.5"],"repeatmasker","species:rnd-3_family-4|genus:Unknown","Scaffold19",675475,675669]
[["species:rnd-3_family-46|genus:Unknown","Scaffold19:hit:8942:1.3.0.5"],"repeatmasker","species:rnd-3_family-46|genus:Unknown","Scaffold19",676627,677213]
[["species:rnd-3_family-46|genus:Unknown","Scaffold19:hit:8943:1.3.0.5"],"repeatmasker","species:rnd-3_family-46|genus:Unknown","Scaffold19",677612,677950]
[["species:rnd-3_family-4|genus:Unknown","Scaffold19:hit:8944:1.3.0.5"],"repeatmasker","species:rnd-3_family-4|genus:Unknown","Scaffold19",679457,679630]
[["species:rnd-3_family-47|genus:Unknown","Scaffold19:hit:8945:1.3.0.5"],"repeatmasker","species:rnd-3_family-47|genus:Unknown","Scaffold19",679721,680187]
[["species:rnd-3_family-47|genus:Unknown","Scaffold19:hit:8946:1.3.0.5"],"repeatmasker","species:rnd-3_family-47|genus:Unknown","Scaffold19",681945,682267]
[["species:rnd-3_family-47|genus:Unknown","Scaffold19:hit:8947:1.3.0.5"],"repeatmasker","species:rnd-3_family-47|genus:Unknown","Scaffold19",682317,682531]
[["species:rnd-3_family-46|genus:Unknown","Scaffold19:hit:8948:1.3.0.5"],"repeatmasker","species:rnd-3_family-46|genus:Unknown","Scaffold19",683749,684939]
[["species:GA-rich|genus:Low_complexity","Scaffold19:hit:8796:1.3.0.5"],"repeatmasker","species:GA-rich|genus:Low_complexity","Scaffold19",686364,686424]
[["species:rnd-6_family-218|genus:Unknown","Scaffold19:hit:8949:1.3.0.5"],"repeatmasker","species:rnd-6_family-218|genus:Unknown","Scaffold19",686943,687413]
