[["LotgiP203707:Lottia_gigantea","Scaffold5318:hit:5282:3.10.0.0"],"blastx_Mollusca","LotgiP203707:Lottia_gigantea","Scaffold5318",1888,3794]
[["EKC27094:Crassostrea_gigas","Scaffold5318:hit:5427:3.10.0.0"],"blastx_Mollusca","EKC27094:Crassostrea_gigas","Scaffold5318",1891,3791]
[["EKC27095:Crassostrea_gigas","Scaffold5318:hit:5310:3.10.0.0"],"blastx_Mollusca","EKC27095:Crassostrea_gigas","Scaffold5318",1921,3794]
[["LotgiP178121:Lottia_gigantea","Scaffold5318:hit:5406:3.10.0.0"],"blastx_Mollusca","LotgiP178121:Lottia_gigantea","Scaffold5318",1942,3788]
