[["ENSP00000319814:Homo_sapiens","Scaffold5545:hit:8215:3.10.0.0"],"protein2genome_Craniata","ENSP00000319814:Homo_sapiens","Scaffold5545",487,2387]
[["ENSMUSG00000040618:Mus_musculus","Scaffold5545:hit:8144:3.10.0.0"],"protein2genome_Craniata","ENSMUSG00000040618:Mus_musculus","Scaffold5545",487,2360]
[["ENSP00000453656:Homo_sapiens","Scaffold5545:hit:8287:3.10.0.0"],"protein2genome_Craniata","ENSP00000453656:Homo_sapiens","Scaffold5545",487,1996]
[["ENSP00000453444:Homo_sapiens","Scaffold5545:hit:8280:3.10.0.0"],"protein2genome_Craniata","ENSP00000453444:Homo_sapiens","Scaffold5545",934,2360]
[["ENSP00000453791:Homo_sapiens","Scaffold5545:hit:8243:3.10.0.0"],"protein2genome_Craniata","ENSP00000453791:Homo_sapiens","Scaffold5545",1033,1204]
[["ENSP00000444342:Homo_sapiens","Scaffold5545:hit:8147:3.10.0.0"],"protein2genome_Craniata","ENSP00000444342:Homo_sapiens","Scaffold5545",1120,1939]
