[["OTAUX188364-RA"],"Gene_Silhouette_Models_v4","OTAUX188364-RA","Scaffold5542",48,151]
[["OTAUX188365-RA"],"Gene_Silhouette_Models_v4","OTAUX188365-RA","Scaffold5542",234,342]
[["OTAUX188363-RA"],"Gene_Silhouette_Models_v4","OTAUX188363-RA","Scaffold5542",244,368]
