[["OTAUX195280-RA"],"Gene_Silhouette_Models_v4","OTAUX195280-RA","Scaffold5551",27,156]
[["OTAUX195276-RA"],"Gene_Silhouette_Models_v4","OTAUX195276-RA","Scaffold5551",143,520]
[["OTAUX195277-RA"],"Gene_Silhouette_Models_v4","OTAUX195277-RA","Scaffold5551",603,835]
[["OTAUX195282-RA"],"Gene_Silhouette_Models_v4","OTAUX195282-RA","Scaffold5551",1023,1295]
[["OTAUX195279-RA"],"Gene_Silhouette_Models_v4","OTAUX195279-RA","Scaffold5551",1144,1295]
