[["Smp_022810.1:pep:Schistosoma_mansoni","Scaffold19:hit:9041:3.10.0.0"],"blastx_Platyhelminthes","Smp_022810.1:pep:Schistosoma_mansoni","Scaffold19",61379,61966]
[["Smp_008230.1:pep:Schistosoma_mansoni","Scaffold19:hit:9042:3.10.0.0"],"blastx_Platyhelminthes","Smp_008230.1:pep:Schistosoma_mansoni","Scaffold19",61560,61978]
[["Smp_104310.1:pep:Schistosoma_mansoni","Scaffold19:hit:9079:3.10.0.0"],"blastx_Platyhelminthes","Smp_104310.1:pep:Schistosoma_mansoni","Scaffold19",61563,61987]
[["Smp_154580.1:pep:Schistosoma_mansoni","Scaffold19:hit:9330:3.10.0.0"],"blastx_Platyhelminthes","Smp_154580.1:pep:Schistosoma_mansoni","Scaffold19",61563,61978]
[["Smp_210430.1:pep:Schistosoma_mansoni","Scaffold19:hit:9300:3.10.0.0"],"blastx_Platyhelminthes","Smp_210430.1:pep:Schistosoma_mansoni","Scaffold19",61563,61966]
[["Smp_014660.2:pep:Schistosoma_mansoni","Scaffold19:hit:9352:3.10.0.0"],"blastx_Platyhelminthes","Smp_014660.2:pep:Schistosoma_mansoni","Scaffold19",61629,61990]
[["Smp_166580.1:pep:Schistosoma_mansoni","Scaffold19:hit:9523:3.10.0.0"],"blastx_Platyhelminthes","Smp_166580.1:pep:Schistosoma_mansoni","Scaffold19",81239,82764]
[["Smp_005880.1:pep:Schistosoma_mansoni","Scaffold19:hit:10689:3.10.0.1"],"blastx_Platyhelminthes","Smp_005880.1:pep:Schistosoma_mansoni","Scaffold19",172156,174103]
[["Smp_056970.1:pep:Schistosoma_mansoni","Scaffold19:hit:11525:3.10.0.2"],"blastx_Platyhelminthes","Smp_056970.1:pep:Schistosoma_mansoni","Scaffold19",221519,222568]
[["Smp_058150.1:pep:Schistosoma_mansoni","Scaffold19:hit:11744:3.10.0.2"],"blastx_Platyhelminthes","Smp_058150.1:pep:Schistosoma_mansoni","Scaffold19",256476,256929]
[["Smp_080550.1:pep:Schistosoma_mansoni","Scaffold19:hit:11781:3.10.0.2"],"blastx_Platyhelminthes","Smp_080550.1:pep:Schistosoma_mansoni","Scaffold19",258026,259281]
[["Smp_173180.2:pep:Schistosoma_mansoni","Scaffold19:hit:11812:3.10.0.2"],"blastx_Platyhelminthes","Smp_173180.2:pep:Schistosoma_mansoni","Scaffold19",258153,259293]
[["Smp_159790.1:pep:Schistosoma_mansoni","Scaffold19:hit:11835:3.10.0.2"],"blastx_Platyhelminthes","Smp_159790.1:pep:Schistosoma_mansoni","Scaffold19",269455,280890]
[["Smp_147970.1:pep:Schistosoma_mansoni","Scaffold19:hit:11960:3.10.0.2"],"blastx_Platyhelminthes","Smp_147970.1:pep:Schistosoma_mansoni","Scaffold19",279764,280829]
[["Smp_149260.1:pep:Schistosoma_mansoni","Scaffold19:hit:11934:3.10.0.2"],"blastx_Platyhelminthes","Smp_149260.1:pep:Schistosoma_mansoni","Scaffold19",279767,280826]
[["Smp_190520.1:pep:Schistosoma_mansoni","Scaffold19:hit:11909:3.10.0.2"],"blastx_Platyhelminthes","Smp_190520.1:pep:Schistosoma_mansoni","Scaffold19",280637,280793]
[["Smp_192180.1:pep:Schistosoma_mansoni","Scaffold19:hit:12607:3.10.0.3"],"blastx_Platyhelminthes","Smp_192180.1:pep:Schistosoma_mansoni","Scaffold19",299166,299760]
[["Smp_147410.1:pep:Schistosoma_mansoni","Scaffold19:hit:12612:3.10.0.3"],"blastx_Platyhelminthes","Smp_147410.1:pep:Schistosoma_mansoni","Scaffold19",300069,300501]
[["Smp_089460.2:pep:Schistosoma_mansoni","Scaffold19:hit:12866:3.10.0.3"],"blastx_Platyhelminthes","Smp_089460.2:pep:Schistosoma_mansoni","Scaffold19",360231,365239]
[["Smp_137410.1:pep:Schistosoma_mansoni","Scaffold19:hit:12878:3.10.0.3"],"blastx_Platyhelminthes","Smp_137410.1:pep:Schistosoma_mansoni","Scaffold19",363531,365236]
[["Smp_018240.3:pep:Schistosoma_mansoni","Scaffold19:hit:13424:3.10.0.4"],"blastx_Platyhelminthes","Smp_018240.3:pep:Schistosoma_mansoni","Scaffold19",468193,469060]
[["Smp_084050.1:pep:Schistosoma_mansoni","Scaffold19:hit:13361:3.10.0.4"],"blastx_Platyhelminthes","Smp_084050.1:pep:Schistosoma_mansoni","Scaffold19",468409,468994]
[["Smp_138420.1:pep:Schistosoma_mansoni","Scaffold19:hit:13514:3.10.0.4"],"blastx_Platyhelminthes","Smp_138420.1:pep:Schistosoma_mansoni","Scaffold19",493968,494322]
[["Smp_101280.1:pep:Schistosoma_mansoni","Scaffold19:hit:14041:3.10.0.5"],"blastx_Platyhelminthes","Smp_101280.1:pep:Schistosoma_mansoni","Scaffold19",501106,506533]
[["Smp_060190.3:pep:Schistosoma_mansoni","Scaffold19:hit:14069:3.10.0.5"],"blastx_Platyhelminthes","Smp_060190.3:pep:Schistosoma_mansoni","Scaffold19",515856,516261]
[["Smp_060190.2:pep:Schistosoma_mansoni","Scaffold19:hit:14084:3.10.0.5"],"blastx_Platyhelminthes","Smp_060190.2:pep:Schistosoma_mansoni","Scaffold19",515985,516261]
[["Smp_039980.1:pep:Schistosoma_mansoni","Scaffold19:hit:14133:3.10.0.5"],"blastx_Platyhelminthes","Smp_039980.1:pep:Schistosoma_mansoni","Scaffold19",516537,516816]
[["Smp_019690.1:pep:Schistosoma_mansoni","Scaffold19:hit:14193:3.10.0.5"],"blastx_Platyhelminthes","Smp_019690.1:pep:Schistosoma_mansoni","Scaffold19",524418,531853]
[["Smp_058360.1:pep:Schistosoma_mansoni","Scaffold19:hit:14260:3.10.0.5"],"blastx_Platyhelminthes","Smp_058360.1:pep:Schistosoma_mansoni","Scaffold19",558145,560789]
