[["ENSCING00000006054:Ciona_intestinalis","Scaffold5545:hit:8074:3.10.0.0"],"blastx_Tunicata","ENSCING00000006054:Ciona_intestinalis","Scaffold5545",487,2441]
[["ENSCSAVP00000009425:Ciona_savignyi","Scaffold5545:hit:8030:3.10.0.0"],"blastx_Tunicata","ENSCSAVP00000009425:Ciona_savignyi","Scaffold5545",487,2372]
[["ENSCSAVP00000009431:Ciona_savignyi","Scaffold5545:hit:7971:3.10.0.0"],"blastx_Tunicata","ENSCSAVP00000009431:Ciona_savignyi","Scaffold5545",1282,2378]
