[["NEMVEDRAFT_v1g236786-PA:Nematostella_vectensis","Scaffold19:hit:9616:3.10.0.0"],"protein2genome_Cnidaria","NEMVEDRAFT_v1g236786-PA:Nematostella_vectensis","Scaffold19",61379,61966]
[["NEMVEDRAFT_v1g191733-PA:Nematostella_vectensis","Scaffold19:hit:9622:3.10.0.0"],"protein2genome_Cnidaria","NEMVEDRAFT_v1g191733-PA:Nematostella_vectensis","Scaffold19",61560,61981]
[["NEMVEDRAFT_v1g181611-PA:Nematostella_vectensis","Scaffold19:hit:9705:3.10.0.0"],"protein2genome_Cnidaria","NEMVEDRAFT_v1g181611-PA:Nematostella_vectensis","Scaffold19",61560,61981]
[["NEMVEDRAFT_v1g184492-PA:Nematostella_vectensis","Scaffold19:hit:9750:3.10.0.0"],"protein2genome_Cnidaria","NEMVEDRAFT_v1g184492-PA:Nematostella_vectensis","Scaffold19",61590,61969]
[["NEMVEDRAFT_v1g229065-PA:Nematostella_vectensis","Scaffold19:hit:9635:3.10.0.0"],"protein2genome_Cnidaria","NEMVEDRAFT_v1g229065-PA:Nematostella_vectensis","Scaffold19",61611,61966]
[["NEMVEDRAFT_v1g36550-PA:Nematostella_vectensis","Scaffold19:hit:9669:3.10.0.0"],"protein2genome_Cnidaria","NEMVEDRAFT_v1g36550-PA:Nematostella_vectensis","Scaffold19",61611,61963]
[["NEMVEDRAFT_v1g119894-PA:Nematostella_vectensis","Scaffold19:hit:9788:3.10.0.0"],"protein2genome_Cnidaria","NEMVEDRAFT_v1g119894-PA:Nematostella_vectensis","Scaffold19",61623,61966]
[["NEMVEDRAFT_v1g37059-PA:Nematostella_vectensis","Scaffold19:hit:9592:3.10.0.0"],"protein2genome_Cnidaria","NEMVEDRAFT_v1g37059-PA:Nematostella_vectensis","Scaffold19",61626,61966]
[["NEMVEDRAFT_v1g53664-PA:Nematostella_vectensis","Scaffold19:hit:9676:3.10.0.0"],"protein2genome_Cnidaria","NEMVEDRAFT_v1g53664-PA:Nematostella_vectensis","Scaffold19",61635,61990]
[["NEMVEDRAFT_v1g160457-PA:Nematostella_vectensis","Scaffold19:hit:9637:3.10.0.0"],"protein2genome_Cnidaria","NEMVEDRAFT_v1g160457-PA:Nematostella_vectensis","Scaffold19",61635,61990]
[["NEMVEDRAFT_v1g117826-PA:Nematostella_vectensis","Scaffold19:hit:9729:3.10.0.0"],"protein2genome_Cnidaria","NEMVEDRAFT_v1g117826-PA:Nematostella_vectensis","Scaffold19",61635,61981]
[["NEMVEDRAFT_v1g85562-PA:Nematostella_vectensis","Scaffold19:hit:9740:3.10.0.0"],"protein2genome_Cnidaria","NEMVEDRAFT_v1g85562-PA:Nematostella_vectensis","Scaffold19",61635,61966]
[["NEMVEDRAFT_v1g94673-PA:Nematostella_vectensis","Scaffold19:hit:9835:3.10.0.0"],"protein2genome_Cnidaria","NEMVEDRAFT_v1g94673-PA:Nematostella_vectensis","Scaffold19",69438,69648]
[["NEMVEDRAFT_v1g93833-PA:Nematostella_vectensis","Scaffold19:hit:9881:3.10.0.0"],"protein2genome_Cnidaria","NEMVEDRAFT_v1g93833-PA:Nematostella_vectensis","Scaffold19",81311,82251]
[["NEMVEDRAFT_v1g175287-PA:Nematostella_vectensis","Scaffold19:hit:10948:3.10.0.1"],"protein2genome_Cnidaria","NEMVEDRAFT_v1g175287-PA:Nematostella_vectensis","Scaffold19",99640,101120]
[["NEMVEDRAFT_v1g103908-PA:Nematostella_vectensis","Scaffold19:hit:10960:3.10.0.1"],"protein2genome_Cnidaria","NEMVEDRAFT_v1g103908-PA:Nematostella_vectensis","Scaffold19",99763,100382]
[["NEMVEDRAFT_v1g221956-PA:Nematostella_vectensis","Scaffold19:hit:10913:3.10.0.1"],"protein2genome_Cnidaria","NEMVEDRAFT_v1g221956-PA:Nematostella_vectensis","Scaffold19",100439,100688]
[["NEMVEDRAFT_v1g103590-PA:Nematostella_vectensis","Scaffold19:hit:11365:3.10.0.1"],"protein2genome_Cnidaria","NEMVEDRAFT_v1g103590-PA:Nematostella_vectensis","Scaffold19",172150,174076]
[["NEMVEDRAFT_v1g166166-PA:Nematostella_vectensis","Scaffold19:hit:11311:3.10.0.1"],"protein2genome_Cnidaria","NEMVEDRAFT_v1g166166-PA:Nematostella_vectensis","Scaffold19",172150,174076]
[["NEMVEDRAFT_v1g166171-PA:Nematostella_vectensis","Scaffold19:hit:11248:3.10.0.1"],"protein2genome_Cnidaria","NEMVEDRAFT_v1g166171-PA:Nematostella_vectensis","Scaffold19",172156,174073]
[["NEMVEDRAFT_v1g243086-PA:Nematostella_vectensis","Scaffold19:hit:12240:3.10.0.2"],"protein2genome_Cnidaria","NEMVEDRAFT_v1g243086-PA:Nematostella_vectensis","Scaffold19",221522,222571]
[["NEMVEDRAFT_v1g221904-PA:Nematostella_vectensis","Scaffold19:hit:12222:3.10.0.2"],"protein2genome_Cnidaria","NEMVEDRAFT_v1g221904-PA:Nematostella_vectensis","Scaffold19",221546,222382]
[["NEMVEDRAFT_v1g248539-PA:Nematostella_vectensis","Scaffold19:hit:12269:3.10.0.2"],"protein2genome_Cnidaria","NEMVEDRAFT_v1g248539-PA:Nematostella_vectensis","Scaffold19",223931,224474]
[["NEMVEDRAFT_v1g140937-PA:Nematostella_vectensis","Scaffold19:hit:12327:3.10.0.2"],"protein2genome_Cnidaria","NEMVEDRAFT_v1g140937-PA:Nematostella_vectensis","Scaffold19",234537,235278]
[["NEMVEDRAFT_v1g24917-PA:Nematostella_vectensis","Scaffold19:hit:12313:3.10.0.2"],"protein2genome_Cnidaria","NEMVEDRAFT_v1g24917-PA:Nematostella_vectensis","Scaffold19",234675,235311]
[["NEMVEDRAFT_v1g53489-PA:Nematostella_vectensis","Scaffold19:hit:12314:3.10.0.2"],"protein2genome_Cnidaria","NEMVEDRAFT_v1g53489-PA:Nematostella_vectensis","Scaffold19",234735,235302]
[["NEMVEDRAFT_v1g84031-PA:Nematostella_vectensis","Scaffold19:hit:12338:3.10.0.2"],"protein2genome_Cnidaria","NEMVEDRAFT_v1g84031-PA:Nematostella_vectensis","Scaffold19",240292,240871]
[["NEMVEDRAFT_v1g208563-PA:Nematostella_vectensis","Scaffold19:hit:12414:3.10.0.2"],"protein2genome_Cnidaria","NEMVEDRAFT_v1g208563-PA:Nematostella_vectensis","Scaffold19",258026,259281]
[["NEMVEDRAFT_v1g179334-PA:Nematostella_vectensis","Scaffold19:hit:12403:3.10.0.2"],"protein2genome_Cnidaria","NEMVEDRAFT_v1g179334-PA:Nematostella_vectensis","Scaffold19",258026,259281]
[["NEMVEDRAFT_v1g192682-PA:Nematostella_vectensis","Scaffold19:hit:12510:3.10.0.2"],"protein2genome_Cnidaria","NEMVEDRAFT_v1g192682-PA:Nematostella_vectensis","Scaffold19",279096,280887]
[["NEMVEDRAFT_v1g97853-PA:Nematostella_vectensis","Scaffold19:hit:12440:3.10.0.2"],"protein2genome_Cnidaria","NEMVEDRAFT_v1g97853-PA:Nematostella_vectensis","Scaffold19",279764,280826]
[["NEMVEDRAFT_v1g128732-PA:Nematostella_vectensis","Scaffold19:hit:12479:3.10.0.2"],"protein2genome_Cnidaria","NEMVEDRAFT_v1g128732-PA:Nematostella_vectensis","Scaffold19",279764,280814]
[["NEMVEDRAFT_v1g230104-PA:Nematostella_vectensis","Scaffold19:hit:12487:3.10.0.2"],"protein2genome_Cnidaria","NEMVEDRAFT_v1g230104-PA:Nematostella_vectensis","Scaffold19",279764,280763]
[["NEMVEDRAFT_v1g208913-PA:Nematostella_vectensis","Scaffold19:hit:12485:3.10.0.2"],"protein2genome_Cnidaria","NEMVEDRAFT_v1g208913-PA:Nematostella_vectensis","Scaffold19",279764,280760]
[["NEMVEDRAFT_v1g81491-PA:Nematostella_vectensis","Scaffold19:hit:12469:3.10.0.2"],"protein2genome_Cnidaria","NEMVEDRAFT_v1g81491-PA:Nematostella_vectensis","Scaffold19",279764,280748]
[["NEMVEDRAFT_v1g117242-PA:Nematostella_vectensis","Scaffold19:hit:12465:3.10.0.2"],"protein2genome_Cnidaria","NEMVEDRAFT_v1g117242-PA:Nematostella_vectensis","Scaffold19",279767,280724]
[["NEMVEDRAFT_v1g227907-PA:Nematostella_vectensis","Scaffold19:hit:12514:3.10.0.2"],"protein2genome_Cnidaria","NEMVEDRAFT_v1g227907-PA:Nematostella_vectensis","Scaffold19",280076,280763]
[["NEMVEDRAFT_v1g11348-PA:Nematostella_vectensis","Scaffold19:hit:12542:3.10.0.2"],"protein2genome_Cnidaria","NEMVEDRAFT_v1g11348-PA:Nematostella_vectensis","Scaffold19",287668,291928]
[["NEMVEDRAFT_v1g102109-PA:Nematostella_vectensis","Scaffold19:hit:12540:3.10.0.2"],"protein2genome_Cnidaria","NEMVEDRAFT_v1g102109-PA:Nematostella_vectensis","Scaffold19",288208,291946]
[["NEMVEDRAFT_v1g106638-PA:Nematostella_vectensis","Scaffold19:hit:12544:3.10.0.2"],"protein2genome_Cnidaria","NEMVEDRAFT_v1g106638-PA:Nematostella_vectensis","Scaffold19",288476,288605]
[["NEMVEDRAFT_v1g67120-PA:Nematostella_vectensis","Scaffold19:hit:12951:3.10.0.3"],"protein2genome_Cnidaria","NEMVEDRAFT_v1g67120-PA:Nematostella_vectensis","Scaffold19",297889,298132]
[["NEMVEDRAFT_v1g149213-PA:Nematostella_vectensis","Scaffold19:hit:12971:3.10.0.3"],"protein2genome_Cnidaria","NEMVEDRAFT_v1g149213-PA:Nematostella_vectensis","Scaffold19",299061,299961]
[["NEMVEDRAFT_v1g236477-PA:Nematostella_vectensis","Scaffold19:hit:13054:3.10.0.3"],"protein2genome_Cnidaria","NEMVEDRAFT_v1g236477-PA:Nematostella_vectensis","Scaffold19",339897,340116]
[["NEMVEDRAFT_v1g239052-PA:Nematostella_vectensis","Scaffold19:hit:13646:3.10.0.4"],"protein2genome_Cnidaria","NEMVEDRAFT_v1g239052-PA:Nematostella_vectensis","Scaffold19",465904,466666]
[["NEMVEDRAFT_v1g205803-PA:Nematostella_vectensis","Scaffold19:hit:13714:3.10.0.4"],"protein2genome_Cnidaria","NEMVEDRAFT_v1g205803-PA:Nematostella_vectensis","Scaffold19",467925,468892]
[["NEMVEDRAFT_v1g131389-PA:Nematostella_vectensis","Scaffold19:hit:13721:3.10.0.4"],"protein2genome_Cnidaria","NEMVEDRAFT_v1g131389-PA:Nematostella_vectensis","Scaffold19",477070,480850]
[["NEMVEDRAFT_v1g143930-PA:Nematostella_vectensis","Scaffold19:hit:13728:3.10.0.4"],"protein2genome_Cnidaria","NEMVEDRAFT_v1g143930-PA:Nematostella_vectensis","Scaffold19",477345,477519]
[["NEMVEDRAFT_v1g182742-PA:Nematostella_vectensis","Scaffold19:hit:13757:3.10.0.4"],"protein2genome_Cnidaria","NEMVEDRAFT_v1g182742-PA:Nematostella_vectensis","Scaffold19",493977,494454]
[["NEMVEDRAFT_v1g182742-PA:Nematostella_vectensis","Scaffold19:hit:13756:3.10.0.4"],"protein2genome_Cnidaria","NEMVEDRAFT_v1g182742-PA:Nematostella_vectensis","Scaffold19",494142,494589]
[["NEMVEDRAFT_v1g159915-PA:Nematostella_vectensis","Scaffold19:hit:14578:3.10.0.5"],"protein2genome_Cnidaria","NEMVEDRAFT_v1g159915-PA:Nematostella_vectensis","Scaffold19",499422,500307]
[["NEMVEDRAFT_v1g185114-PA:Nematostella_vectensis","Scaffold19:hit:14592:3.10.0.5"],"protein2genome_Cnidaria","NEMVEDRAFT_v1g185114-PA:Nematostella_vectensis","Scaffold19",499428,500307]
[["NEMVEDRAFT_v1g99162-PA:Nematostella_vectensis","Scaffold19:hit:14654:3.10.0.5"],"protein2genome_Cnidaria","NEMVEDRAFT_v1g99162-PA:Nematostella_vectensis","Scaffold19",499428,500178]
[["NEMVEDRAFT_v1g131545-PA:Nematostella_vectensis","Scaffold19:hit:14555:3.10.0.5"],"protein2genome_Cnidaria","NEMVEDRAFT_v1g131545-PA:Nematostella_vectensis","Scaffold19",499428,500154]
[["NEMVEDRAFT_v1g224157-PA:Nematostella_vectensis","Scaffold19:hit:14668:3.10.0.5"],"protein2genome_Cnidaria","NEMVEDRAFT_v1g224157-PA:Nematostella_vectensis","Scaffold19",503015,505651]
[["NEMVEDRAFT_v1g37191-PA:Nematostella_vectensis","Scaffold19:hit:14672:3.10.0.5"],"protein2genome_Cnidaria","NEMVEDRAFT_v1g37191-PA:Nematostella_vectensis","Scaffold19",513849,514191]
[["NEMVEDRAFT_v1g215740-PA:Nematostella_vectensis","Scaffold19:hit:14731:3.10.0.5"],"protein2genome_Cnidaria","NEMVEDRAFT_v1g215740-PA:Nematostella_vectensis","Scaffold19",516537,516819]
[["NEMVEDRAFT_v1g228171-PA:Nematostella_vectensis","Scaffold19:hit:14786:3.10.0.5"],"protein2genome_Cnidaria","NEMVEDRAFT_v1g228171-PA:Nematostella_vectensis","Scaffold19",527465,531676]
[["NEMVEDRAFT_v1g172190-PA:Nematostella_vectensis","Scaffold19:hit:14839:3.10.0.5"],"protein2genome_Cnidaria","NEMVEDRAFT_v1g172190-PA:Nematostella_vectensis","Scaffold19",558604,560575]
[["NEMVEDRAFT_v1g126308-PA:Nematostella_vectensis","Scaffold19:hit:14811:3.10.0.5"],"protein2genome_Cnidaria","NEMVEDRAFT_v1g126308-PA:Nematostella_vectensis","Scaffold19",558890,559073]
[["NEMVEDRAFT_v1g76120-PA:Nematostella_vectensis","Scaffold19:hit:14900:3.10.0.5"],"protein2genome_Cnidaria","NEMVEDRAFT_v1g76120-PA:Nematostella_vectensis","Scaffold19",584366,584642]
[["NEMVEDRAFT_v1g153129-PA:Nematostella_vectensis","Scaffold19:hit:14896:3.10.0.5"],"protein2genome_Cnidaria","NEMVEDRAFT_v1g153129-PA:Nematostella_vectensis","Scaffold19",584366,584546]
[["NEMVEDRAFT_v1g169527-PA:Nematostella_vectensis","Scaffold19:hit:15009:3.10.0.5"],"protein2genome_Cnidaria","NEMVEDRAFT_v1g169527-PA:Nematostella_vectensis","Scaffold19",658829,659449]
