[["OTAUX175562-RA"],"Gene_Silhouette_Models_v4","OTAUX175562-RA","Scaffold5549",46,807]
[["OTAUX175566-RA"],"Gene_Silhouette_Models_v4","OTAUX175566-RA","Scaffold5549",252,376]
[["OTAUX175569-RA"],"Gene_Silhouette_Models_v4","OTAUX175569-RA","Scaffold5549",535,665]
[["OTAUX175563-RA"],"Gene_Silhouette_Models_v4","OTAUX175563-RA","Scaffold5549",839,957]
[["OTAUX175570-RA"],"Gene_Silhouette_Models_v4","OTAUX175570-RA","Scaffold5549",883,992]
[["OTAUX175571-RA"],"Gene_Silhouette_Models_v4","OTAUX175571-RA","Scaffold5549",1132,1368]
