[["species:AT_rich|genus:Low_complexity","Scaffold5545:hit:7927:1.3.0.0"],"repeatmasker","species:AT_rich|genus:Low_complexity","Scaffold5545",257,300]
[["species:AT_rich|genus:Low_complexity","Scaffold5545:hit:7928:1.3.0.0"],"repeatmasker","species:AT_rich|genus:Low_complexity","Scaffold5545",350,388]
[["species:AT_rich|genus:Low_complexity","Scaffold5545:hit:7929:1.3.0.0"],"repeatmasker","species:AT_rich|genus:Low_complexity","Scaffold5545",458,491]
[["species:AT_rich|genus:Low_complexity","Scaffold5545:hit:7930:1.3.0.0"],"repeatmasker","species:AT_rich|genus:Low_complexity","Scaffold5545",3409,3444]
[["species:AT_rich|genus:Low_complexity","Scaffold5545:hit:7931:1.3.0.0"],"repeatmasker","species:AT_rich|genus:Low_complexity","Scaffold5545",3705,3741]
[["species:rnd-6_family-4507|genus:DNA/TcMar-Tc2","Scaffold5545:hit:7932:1.3.0.0"],"repeatmasker","species:rnd-6_family-4507|genus:DNA/TcMar-Tc2","Scaffold5545",4029,4235]
