[["species:rnd-5_family-1050|genus:Unknown","Scaffold5540:hit:9182:1.3.0.0"],"repeatmasker","species:rnd-5_family-1050|genus:Unknown","Scaffold5540",1936,2422]
[["species:rnd-5_family-1535|genus:LINE/RTE-BovB","Scaffold5540:hit:9183:1.3.0.0"],"repeatmasker","species:rnd-5_family-1535|genus:LINE/RTE-BovB","Scaffold5540",2728,2894]
[["species:rnd-5_family-3919|genus:Unknown","Scaffold5540:hit:9184:1.3.0.0"],"repeatmasker","species:rnd-5_family-3919|genus:Unknown","Scaffold5540",3021,3179]
[["species:AT_rich|genus:Low_complexity","Scaffold5540:hit:9181:1.3.0.0"],"repeatmasker","species:AT_rich|genus:Low_complexity","Scaffold5540",3563,3596]
[["species:rnd-5_family-3919|genus:Unknown","Scaffold5540:hit:9185:1.3.0.0"],"repeatmasker","species:rnd-5_family-3919|genus:Unknown","Scaffold5540",4178,4503]
