[["SMAR007469-PA:Strigamia_maritima","Scaffold19:hit:9789:3.10.0.0"],"protein2genome_Atelocerata","SMAR007469-PA:Strigamia_maritima","Scaffold19",61331,61978]
[["SMAR013231-PA:Strigamia_maritima","Scaffold19:hit:9602:3.10.0.0"],"protein2genome_Atelocerata","SMAR013231-PA:Strigamia_maritima","Scaffold19",61364,61969]
[["SMAR014183-PA:Strigamia_maritima","Scaffold19:hit:9791:3.10.0.0"],"protein2genome_Atelocerata","SMAR014183-PA:Strigamia_maritima","Scaffold19",61560,61981]
[["SMAR007484-PA:Strigamia_maritima","Scaffold19:hit:9695:3.10.0.0"],"protein2genome_Atelocerata","SMAR007484-PA:Strigamia_maritima","Scaffold19",61602,61966]
[["SMAR006163-PA:Strigamia_maritima","Scaffold19:hit:9820:3.10.0.0"],"protein2genome_Atelocerata","SMAR006163-PA:Strigamia_maritima","Scaffold19",69438,69660]
[["SMAR006239-PA:Strigamia_maritima","Scaffold19:hit:9871:3.10.0.0"],"protein2genome_Atelocerata","SMAR006239-PA:Strigamia_maritima","Scaffold19",81281,82332]
[["SMAR012995-PA:Strigamia_maritima","Scaffold19:hit:10936:3.10.0.1"],"protein2genome_Atelocerata","SMAR012995-PA:Strigamia_maritima","Scaffold19",99637,101386]
[["SMAR006328-PA:Strigamia_maritima","Scaffold19:hit:10907:3.10.0.1"],"protein2genome_Atelocerata","SMAR006328-PA:Strigamia_maritima","Scaffold19",99637,99847]
[["SMAR004968-PA:Strigamia_maritima","Scaffold19:hit:11091:3.10.0.1"],"protein2genome_Atelocerata","SMAR004968-PA:Strigamia_maritima","Scaffold19",164380,164959]
[["SMAR005776-PA:Strigamia_maritima","Scaffold19:hit:11167:3.10.0.1"],"protein2genome_Atelocerata","SMAR005776-PA:Strigamia_maritima","Scaffold19",164395,164929]
[["SMAR008412-PA:Strigamia_maritima","Scaffold19:hit:11297:3.10.0.1"],"protein2genome_Atelocerata","SMAR008412-PA:Strigamia_maritima","Scaffold19",172150,173843]
[["SMAR006602-PA:Strigamia_maritima","Scaffold19:hit:12201:3.10.0.2"],"protein2genome_Atelocerata","SMAR006602-PA:Strigamia_maritima","Scaffold19",221519,222571]
[["tr|Q6QWP2|Q6QWP2_9MYRI:Lithobius_sp_SBH266126","Scaffold19:hit:12137:3.10.0.2"],"protein2genome_Atelocerata","tr|Q6QWP2|Q6QWP2_9MYRI:Lithobius_sp_SBH266126","Scaffold19",221588,222532]
[["tr|Q6QWP1|Q6QWP1_9MYRI:Diplopoda_sp_SBH266145","Scaffold19:hit:12163:3.10.0.2"],"protein2genome_Atelocerata","tr|Q6QWP1|Q6QWP1_9MYRI:Diplopoda_sp_SBH266145","Scaffold19",221588,222532]
[["SMAR005061-PA:Strigamia_maritima","Scaffold19:hit:12263:3.10.0.2"],"protein2genome_Atelocerata","SMAR005061-PA:Strigamia_maritima","Scaffold19",223931,224474]
[["SMAR007507-PA:Strigamia_maritima","Scaffold19:hit:12360:3.10.0.2"],"protein2genome_Atelocerata","SMAR007507-PA:Strigamia_maritima","Scaffold19",256485,256920]
[["SMAR001916-PA:Strigamia_maritima","Scaffold19:hit:12399:3.10.0.2"],"protein2genome_Atelocerata","SMAR001916-PA:Strigamia_maritima","Scaffold19",258026,259281]
[["SMAR009366-PA:Strigamia_maritima","Scaffold19:hit:12545:3.10.0.2"],"protein2genome_Atelocerata","SMAR009366-PA:Strigamia_maritima","Scaffold19",287971,293406]
[["SMAR015381-PA:Strigamia_maritima","Scaffold19:hit:12966:3.10.0.3"],"protein2genome_Atelocerata","SMAR015381-PA:Strigamia_maritima","Scaffold19",297856,298192]
[["SMAR012537-PA:Strigamia_maritima","Scaffold19:hit:13101:3.10.0.3"],"protein2genome_Atelocerata","SMAR012537-PA:Strigamia_maritima","Scaffold19",359397,366380]
[["SMAR013056-PA:Strigamia_maritima","Scaffold19:hit:13590:3.10.0.4"],"protein2genome_Atelocerata","SMAR013056-PA:Strigamia_maritima","Scaffold19",451570,452926]
[["SMAR011683-PA:Strigamia_maritima","Scaffold19:hit:13609:3.10.0.4"],"protein2genome_Atelocerata","SMAR011683-PA:Strigamia_maritima","Scaffold19",459935,463908]
[["SMAR002675-PA:Strigamia_maritima","Scaffold19:hit:13709:3.10.0.4"],"protein2genome_Atelocerata","SMAR002675-PA:Strigamia_maritima","Scaffold19",467895,468880]
[["SMAR011686-PA:Strigamia_maritima","Scaffold19:hit:14547:3.10.0.5"],"protein2genome_Atelocerata","SMAR011686-PA:Strigamia_maritima","Scaffold19",498411,499068]
[["SMAR009706-PA:Strigamia_maritima","Scaffold19:hit:14602:3.10.0.5"],"protein2genome_Atelocerata","SMAR009706-PA:Strigamia_maritima","Scaffold19",499419,500280]
[["SMAR003739-PA:Strigamia_maritima","Scaffold19:hit:14647:3.10.0.5"],"protein2genome_Atelocerata","SMAR003739-PA:Strigamia_maritima","Scaffold19",499419,500274]
[["SMAR015716-PA:Strigamia_maritima","Scaffold19:hit:14721:3.10.0.5"],"protein2genome_Atelocerata","SMAR015716-PA:Strigamia_maritima","Scaffold19",516516,516846]
[["SMAR002637-PA:Strigamia_maritima","Scaffold19:hit:14754:3.10.0.5"],"protein2genome_Atelocerata","SMAR002637-PA:Strigamia_maritima","Scaffold19",524418,532032]
[["SMAR010169-PA:Strigamia_maritima","Scaffold19:hit:14776:3.10.0.5"],"protein2genome_Atelocerata","SMAR010169-PA:Strigamia_maritima","Scaffold19",524418,531739]
[["SMAR009172-PA:Strigamia_maritima","Scaffold19:hit:14768:3.10.0.5"],"protein2genome_Atelocerata","SMAR009172-PA:Strigamia_maritima","Scaffold19",524418,531706]
[["SMAR013258-PA:Strigamia_maritima","Scaffold19:hit:14773:3.10.0.5"],"protein2genome_Atelocerata","SMAR013258-PA:Strigamia_maritima","Scaffold19",524427,532032]
[["SMAR009925-PA:Strigamia_maritima","Scaffold19:hit:14793:3.10.0.5"],"protein2genome_Atelocerata","SMAR009925-PA:Strigamia_maritima","Scaffold19",557386,557554]
[["SMAR006876-PA:Strigamia_maritima","Scaffold19:hit:14826:3.10.0.5"],"protein2genome_Atelocerata","SMAR006876-PA:Strigamia_maritima","Scaffold19",558154,560786]
[["SMAR005667-PA:Strigamia_maritima","Scaffold19:hit:14856:3.10.0.5"],"protein2genome_Atelocerata","SMAR005667-PA:Strigamia_maritima","Scaffold19",561835,562298]
[["SMAR007164-PA:Strigamia_maritima","Scaffold19:hit:14887:3.10.0.5"],"protein2genome_Atelocerata","SMAR007164-PA:Strigamia_maritima","Scaffold19",566587,566986]
[["SMAR011651-PA:Strigamia_maritima","Scaffold19:hit:14931:3.10.0.5"],"protein2genome_Atelocerata","SMAR011651-PA:Strigamia_maritima","Scaffold19",604283,604709]
[["SMAR008937-PA:Strigamia_maritima","Scaffold19:hit:15008:3.10.0.5"],"protein2genome_Atelocerata","SMAR008937-PA:Strigamia_maritima","Scaffold19",658829,659930]
