[["ENSCING00000006054:Ciona_intestinalis","Scaffold5318:hit:5376:3.10.0.0"],"blastx_Tunicata","ENSCING00000006054:Ciona_intestinalis","Scaffold5318",1840,3794]
[["ENSCSAVP00000009431:Ciona_savignyi","Scaffold5318:hit:5273:3.10.0.0"],"blastx_Tunicata","ENSCSAVP00000009431:Ciona_savignyi","Scaffold5318",1903,2999]
[["ENSCSAVP00000009425:Ciona_savignyi","Scaffold5318:hit:5332:3.10.0.0"],"blastx_Tunicata","ENSCSAVP00000009425:Ciona_savignyi","Scaffold5318",1909,3794]
