[["1:CUFF.1.1"],"blah","1:CUFF.1.1","Scaffold1",17738,23847]
[["1:CUFF.35.1"],"blah","1:CUFF.35.1","Scaffold1",28090,35249]
[["1:CUFF.35.3"],"blah","1:CUFF.35.3","Scaffold1",28090,35249]
[["1:CUFF.35.2"],"blah","1:CUFF.35.2","Scaffold1",28090,35249]
[["1:CUFF.5.1"],"blah","1:CUFF.5.1","Scaffold1",41003,42851]
[["1:CUFF.9.1"],"blah","1:CUFF.9.1","Scaffold1",48196,64782]
[["1:CUFF.8.1"],"blah","1:CUFF.8.1","Scaffold1",65264,70754]
[["1:CUFF.92.3_a"],"blah","1:CUFF.92.3_a","Scaffold1",76497,83039]
[["1:CUFF.92.1_a"],"blah","1:CUFF.92.1_a","Scaffold1",76497,83039]
[["1:CUFF.92.2_a"],"blah","1:CUFF.92.2_a","Scaffold1",76497,77752]
[["1:CUFF.93.1"],"blah","1:CUFF.93.1","Scaffold1",80879,91494]
[["1:CUFF.92.2_b"],"blah","1:CUFF.92.2_b","Scaffold1",82869,86823]
[["1:CUFF.92.1_b"],"blah","1:CUFF.92.1_b","Scaffold1",83222,86823]
[["1:CUFF.92.3_b"],"blah","1:CUFF.92.3_b","Scaffold1",83912,86823]
[["1:CUFF.390.3"],"blah","1:CUFF.390.3","Scaffold1",100392,114622]
[["1:CUFF.390.1_a"],"blah","1:CUFF.390.1_a","Scaffold1",100392,109864]
[["1:CUFF.390.2_a"],"blah","1:CUFF.390.2_a","Scaffold1",100392,107811]
[["1:CUFF.390.2_b"],"blah","1:CUFF.390.2_b","Scaffold1",112984,125485]
[["1:CUFF.390.1_b"],"blah","1:CUFF.390.1_b","Scaffold1",112984,125485]
[["1:CUFF.394.1"],"blah","1:CUFF.394.1","Scaffold1",130564,136789]
[["1:CUFF.424.1_a"],"blah","1:CUFF.424.1_a","Scaffold1",144202,147491]
[["1:CUFF.424.2_a"],"blah","1:CUFF.424.2_a","Scaffold1",145574,147491]
[["1:CUFF.424.3"],"blah","1:CUFF.424.3","Scaffold1",147900,150097]
[["1:CUFF.424.2_b"],"blah","1:CUFF.424.2_b","Scaffold1",147969,155422]
[["1:CUFF.424.1_b"],"blah","1:CUFF.424.1_b","Scaffold1",147969,155422]
[["1:CUFF.56.1_a"],"blah","1:CUFF.56.1_a","Scaffold1",156082,166610]
[["1:CUFF.56.2_a"],"blah","1:CUFF.56.2_a","Scaffold1",156082,165065]
[["1:CUFF.56.3_a"],"blah","1:CUFF.56.3_a","Scaffold1",157795,165065]
[["1:CUFF.56.3_b"],"blah","1:CUFF.56.3_b","Scaffold1",166022,176555]
[["1:CUFF.56.2_b"],"blah","1:CUFF.56.2_b","Scaffold1",166022,176542]
[["1:CUFF.56.1_b"],"blah","1:CUFF.56.1_b","Scaffold1",168109,176555]
[["1:CUFF.56.4"],"blah","1:CUFF.56.4","Scaffold1",169303,176555]
[["1:CUFF.16.1"],"blah","1:CUFF.16.1","Scaffold1",179548,183309]
[["1:CUFF.10.1"],"blah","1:CUFF.10.1","Scaffold1",193999,197887]
[["1:CUFF.14.1"],"blah","1:CUFF.14.1","Scaffold1",203247,205536]
[["1:CUFF.15.1"],"blah","1:CUFF.15.1","Scaffold1",207965,211934]
[["1:CUFF.18.3"],"blah","1:CUFF.18.3","Scaffold1",212725,218238]
[["1:CUFF.18.2"],"blah","1:CUFF.18.2","Scaffold1",212725,218238]
[["1:CUFF.18.1"],"blah","1:CUFF.18.1","Scaffold1",212725,215910]
[["1:CUFF.12.1"],"blah","1:CUFF.12.1","Scaffold1",218361,220924]
[["1:CUFF.22.1"],"blah","1:CUFF.22.1","Scaffold1",221947,229828]
[["1:CUFF.22.2"],"blah","1:CUFF.22.2","Scaffold1",225584,229441]
[["1:CUFF.30.1"],"blah","1:CUFF.30.1","Scaffold1",230929,238773]
[["1:CUFF.31.1"],"blah","1:CUFF.31.1","Scaffold1",235024,243248]
[["1:CUFF.21.2"],"blah","1:CUFF.21.2","Scaffold1",246518,257196]
[["1:CUFF.21.1"],"blah","1:CUFF.21.1","Scaffold1",246518,255388]
[["1:CUFF.21.3"],"blah","1:CUFF.21.3","Scaffold1",254388,257196]
[["1:CUFF.17.1"],"blah","1:CUFF.17.1","Scaffold1",257558,260255]
[["1:CUFF.34.2"],"blah","1:CUFF.34.2","Scaffold1",261962,265728]
[["1:CUFF.34.4"],"blah","1:CUFF.34.4","Scaffold1",261962,265728]
[["1:CUFF.34.3"],"blah","1:CUFF.34.3","Scaffold1",261962,265728]
[["1:CUFF.34.1"],"blah","1:CUFF.34.1","Scaffold1",261962,265728]
[["1:CUFF.111.1"],"blah","1:CUFF.111.1","Scaffold1",267832,271531]
[["1:CUFF.24.1"],"blah","1:CUFF.24.1","Scaffold1",276161,281641]
[["1:CUFF.37.2"],"blah","1:CUFF.37.2","Scaffold1",284454,306274]
[["1:CUFF.37.3"],"blah","1:CUFF.37.3","Scaffold1",284454,306274]
[["1:CUFF.37.1"],"blah","1:CUFF.37.1","Scaffold1",284454,300467]
[["1:CUFF.37.4"],"blah","1:CUFF.37.4","Scaffold1",284454,296120]
[["1:CUFF.40.1"],"blah","1:CUFF.40.1","Scaffold1",297296,298244]
[["1:CUFF.115.1"],"blah","1:CUFF.115.1","Scaffold1",323232,329213]
[["1:CUFF.25.1"],"blah","1:CUFF.25.1","Scaffold1",329558,329902]
[["1:CUFF.103.1"],"blah","1:CUFF.103.1","Scaffold1",332894,349080]
[["1:CUFF.103.2"],"blah","1:CUFF.103.2","Scaffold1",332960,336783]
[["1:CUFF.103.3"],"blah","1:CUFF.103.3","Scaffold1",333562,348991]
[["1:CUFF.113.1"],"blah","1:CUFF.113.1","Scaffold1",357466,364305]
[["1:CUFF.113.2"],"blah","1:CUFF.113.2","Scaffold1",357466,364305]
[["1:CUFF.113.3"],"blah","1:CUFF.113.3","Scaffold1",357466,360152]
[["1:CUFF.118.1"],"blah","1:CUFF.118.1","Scaffold1",366995,372613]
[["1:CUFF.118.2"],"blah","1:CUFF.118.2","Scaffold1",366995,369790]
[["1:CUFF.36.2"],"blah","1:CUFF.36.2","Scaffold1",373370,385953]
[["1:CUFF.36.3"],"blah","1:CUFF.36.3","Scaffold1",373370,385953]
[["1:CUFF.36.1"],"blah","1:CUFF.36.1","Scaffold1",373370,378119]
[["1:CUFF.29.1"],"blah","1:CUFF.29.1","Scaffold1",386568,386914]
[["1:CUFF.27.1"],"blah","1:CUFF.27.1","Scaffold1",388780,389757]
[["1:CUFF.33.1"],"blah","1:CUFF.33.1","Scaffold1",390090,394748]
[["1:CUFF.77.1_a"],"blah","1:CUFF.77.1_a","Scaffold1",397189,401636]
[["1:CUFF.77.1_b"],"blah","1:CUFF.77.1_b","Scaffold1",402257,410294]
[["1:CUFF.32.1"],"blah","1:CUFF.32.1","Scaffold1",410872,413250]
[["1:CUFF.542.1_a"],"blah","1:CUFF.542.1_a","Scaffold1",416637,419146]
[["1:CUFF.542.2_a"],"blah","1:CUFF.542.2_a","Scaffold1",417006,419146]
[["1:CUFF.542.1_b"],"blah","1:CUFF.542.1_b","Scaffold1",423687,431400]
[["1:CUFF.542.2_b"],"blah","1:CUFF.542.2_b","Scaffold1",423687,431400]
[["1:CUFF.542.3_a"],"blah","1:CUFF.542.3_a","Scaffold1",425225,431400]
[["1:CUFF.542.2_c"],"blah","1:CUFF.542.2_c","Scaffold1",431595,448700]
[["1:CUFF.542.1_c"],"blah","1:CUFF.542.1_c","Scaffold1",431595,441731]
[["1:CUFF.542.3_b"],"blah","1:CUFF.542.3_b","Scaffold1",431595,441731]
[["1:CUFF.542.2_d"],"blah","1:CUFF.542.2_d","Scaffold1",450546,451606]
[["1:CUFF.219.1"],"blah","1:CUFF.219.1","Scaffold1",453645,465628]
[["1:CUFF.221.1_a"],"blah","1:CUFF.221.1_a","Scaffold1",453645,464752]
[["1:CUFF.219.2"],"blah","1:CUFF.219.2","Scaffold1",453682,460087]
[["1:CUFF.221.1_b"],"blah","1:CUFF.221.1_b","Scaffold1",465657,473282]
[["1:CUFF.221.1_c"],"blah","1:CUFF.221.1_c","Scaffold1",473637,476289]
[["1:CUFF.49.1"],"blah","1:CUFF.49.1","Scaffold1",480170,481222]
[["1:CUFF.51.3"],"blah","1:CUFF.51.3","Scaffold1",487824,492748]
[["1:CUFF.51.1"],"blah","1:CUFF.51.1","Scaffold1",487824,491934]
[["1:CUFF.51.2"],"blah","1:CUFF.51.2","Scaffold1",487824,491378]
[["1:CUFF.51.4"],"blah","1:CUFF.51.4","Scaffold1",487824,491214]
[["1:CUFF.243.1"],"blah","1:CUFF.243.1","Scaffold1",494668,515217]
[["1:CUFF.243.3"],"blah","1:CUFF.243.3","Scaffold1",494668,509638]
[["1:CUFF.243.2"],"blah","1:CUFF.243.2","Scaffold1",494668,502956]
[["1:CUFF.53.1"],"blah","1:CUFF.53.1","Scaffold1",515383,515940]
[["1:CUFF.60.1"],"blah","1:CUFF.60.1","Scaffold1",516179,518966]
[["1:CUFF.60.2"],"blah","1:CUFF.60.2","Scaffold1",517087,518966]
[["1:CUFF.76.1"],"blah","1:CUFF.76.1","Scaffold1",524554,542821]
[["1:CUFF.54.1"],"blah","1:CUFF.54.1","Scaffold1",546579,548092]
[["1:CUFF.55.1"],"blah","1:CUFF.55.1","Scaffold1",551974,554729]
[["1:CUFF.63.1"],"blah","1:CUFF.63.1","Scaffold1",554867,555397]
[["1:CUFF.63.2"],"blah","1:CUFF.63.2","Scaffold1",554869,556555]
[["1:CUFF.63.3"],"blah","1:CUFF.63.3","Scaffold1",555761,557202]
[["1:CUFF.79.1"],"blah","1:CUFF.79.1","Scaffold1",562529,605816]
[["1:CUFF.81.1"],"blah","1:CUFF.81.1","Scaffold1",593996,596830]
[["1:CUFF.81.2"],"blah","1:CUFF.81.2","Scaffold1",593996,596812]
[["1:CUFF.101.1"],"blah","1:CUFF.101.1","Scaffold1",626475,648458]
[["1:CUFF.70.1"],"blah","1:CUFF.70.1","Scaffold1",679582,685172]
[["1:CUFF.70.2"],"blah","1:CUFF.70.2","Scaffold1",680718,685172]
[["1:CUFF.70.3"],"blah","1:CUFF.70.3","Scaffold1",680718,685172]
[["1:CUFF.68.1"],"blah","1:CUFF.68.1","Scaffold1",690206,697347]
[["1:CUFF.66.1"],"blah","1:CUFF.66.1","Scaffold1",698114,700433]
[["1:CUFF.71.1"],"blah","1:CUFF.71.1","Scaffold1",701641,705209]
[["1:CUFF.71.2"],"blah","1:CUFF.71.2","Scaffold1",701641,703565]
[["1:CUFF.74.1"],"blah","1:CUFF.74.1","Scaffold1",705622,712466]
[["1:CUFF.74.2"],"blah","1:CUFF.74.2","Scaffold1",710423,712466]
[["1:CUFF.72.1"],"blah","1:CUFF.72.1","Scaffold1",712700,715111]
[["1:CUFF.209.1_a"],"blah","1:CUFF.209.1_a","Scaffold1",716047,717363]
[["1:CUFF.209.1_b"],"blah","1:CUFF.209.1_b","Scaffold1",717471,732615]
[["1:CUFF.210.2"],"blah","1:CUFF.210.2","Scaffold1",718414,732615]
[["1:CUFF.210.3"],"blah","1:CUFF.210.3","Scaffold1",718414,732615]
[["1:CUFF.210.1"],"blah","1:CUFF.210.1","Scaffold1",718414,732615]
[["1:CUFF.109.1"],"blah","1:CUFF.109.1","Scaffold1",732677,741598]
[["1:CUFF.109.2"],"blah","1:CUFF.109.2","Scaffold1",732677,737530]
[["1:CUFF.106.1"],"blah","1:CUFF.106.1","Scaffold1",742162,747413]
[["1:CUFF.168.1"],"blah","1:CUFF.168.1","Scaffold1",750156,752747]
[["1:CUFF.169.1"],"blah","1:CUFF.169.1","Scaffold1",750869,752072]
[["1:CUFF.175.1"],"blah","1:CUFF.175.1","Scaffold1",754091,759212]
[["1:CUFF.104.1"],"blah","1:CUFF.104.1","Scaffold1",763065,769799]
[["1:CUFF.110.2"],"blah","1:CUFF.110.2","Scaffold1",773803,775494]
[["1:CUFF.110.1"],"blah","1:CUFF.110.1","Scaffold1",773803,775075]
[["1:CUFF.147.1"],"blah","1:CUFF.147.1","Scaffold1",776581,803788]
[["1:CUFF.147.2"],"blah","1:CUFF.147.2","Scaffold1",781601,803788]
[["1:CUFF.165.1"],"blah","1:CUFF.165.1","Scaffold1",805576,815162]
[["1:CUFF.165.2"],"blah","1:CUFF.165.2","Scaffold1",805576,815162]
[["1:CUFF.166.1"],"blah","1:CUFF.166.1","Scaffold1",814268,815135]
[["1:CUFF.116.1"],"blah","1:CUFF.116.1","Scaffold1",818143,820401]
[["1:CUFF.117.2"],"blah","1:CUFF.117.2","Scaffold1",821863,822574]
[["1:CUFF.117.1"],"blah","1:CUFF.117.1","Scaffold1",821863,822574]
[["1:CUFF.277.1"],"blah","1:CUFF.277.1","Scaffold1",822780,840340]
[["1:CUFF.276.1"],"blah","1:CUFF.276.1","Scaffold1",822780,832258]
[["1:CUFF.119.1"],"blah","1:CUFF.119.1","Scaffold1",847624,849595]
[["1:CUFF.158.1"],"blah","1:CUFF.158.1","Scaffold1",853425,860469]
[["1:CUFF.158.2"],"blah","1:CUFF.158.2","Scaffold1",853816,860469]
[["1:CUFF.158.3"],"blah","1:CUFF.158.3","Scaffold1",853816,860469]
[["1:CUFF.158.4"],"blah","1:CUFF.158.4","Scaffold1",853816,860469]
[["1:CUFF.171.2"],"blah","1:CUFF.171.2","Scaffold1",861602,868898]
[["1:CUFF.171.1"],"blah","1:CUFF.171.1","Scaffold1",861602,868898]
[["1:CUFF.128.1"],"blah","1:CUFF.128.1","Scaffold1",869795,874874]
[["1:CUFF.125.1"],"blah","1:CUFF.125.1","Scaffold1",875074,878493]
[["1:CUFF.125.2"],"blah","1:CUFF.125.2","Scaffold1",875074,877952]
[["1:CUFF.125.3"],"blah","1:CUFF.125.3","Scaffold1",875074,877952]
[["1:CUFF.142.1"],"blah","1:CUFF.142.1","Scaffold1",879760,882348]
[["1:CUFF.140.1"],"blah","1:CUFF.140.1","Scaffold1",965839,967554]
[["1:CUFF.154.1_a"],"blah","1:CUFF.154.1_a","Scaffold1",992001,995625]
[["1:CUFF.154.2"],"blah","1:CUFF.154.2","Scaffold1",995074,997478]
[["1:CUFF.154.1_b"],"blah","1:CUFF.154.1_b","Scaffold1",996157,998003]
[["1:CUFF.154.1_c"],"blah","1:CUFF.154.1_c","Scaffold1",998333,1006640]
[["1:CUFF.155.1_a"],"blah","1:CUFF.155.1_a","Scaffold1",1000730,1003382]
[["1:CUFF.155.2_a"],"blah","1:CUFF.155.2_a","Scaffold1",1003120,1003738]
[["1:CUFF.155.1_b"],"blah","1:CUFF.155.1_b","Scaffold1",1003497,1006640]
[["1:CUFF.155.2_b"],"blah","1:CUFF.155.2_b","Scaffold1",1005903,1006640]
[["1:CUFF.148.1"],"blah","1:CUFF.148.1","Scaffold1",1008525,1013282]
[["1:CUFF.211.1"],"blah","1:CUFF.211.1","Scaffold1",1013340,1021160]
[["1:CUFF.149.1"],"blah","1:CUFF.149.1","Scaffold1",1023893,1025383]
[["1:CUFF.149.2"],"blah","1:CUFF.149.2","Scaffold1",1023893,1025383]
[["1:CUFF.203.2"],"blah","1:CUFF.203.2","Scaffold1",1029081,1034012]
[["1:CUFF.203.1"],"blah","1:CUFF.203.1","Scaffold1",1029081,1034012]
[["1:CUFF.204.1"],"blah","1:CUFF.204.1","Scaffold1",1036773,1046940]
[["1:CUFF.157.1"],"blah","1:CUFF.157.1","Scaffold1",1056563,1065294]
[["1:CUFF.160.1"],"blah","1:CUFF.160.1","Scaffold1",1063192,1070056]
[["1:CUFF.198.1"],"blah","1:CUFF.198.1","Scaffold1",1070184,1083287]
[["1:CUFF.202.1"],"blah","1:CUFF.202.1","Scaffold1",1077536,1083291]
[["1:CUFF.202.2"],"blah","1:CUFF.202.2","Scaffold1",1077536,1083287]
[["1:CUFF.212.1_a"],"blah","1:CUFF.212.1_a","Scaffold1",1087561,1096030]
[["1:CUFF.212.2_a"],"blah","1:CUFF.212.2_a","Scaffold1",1094391,1096030]
[["1:CUFF.212.2_b"],"blah","1:CUFF.212.2_b","Scaffold1",1096287,1106031]
[["1:CUFF.212.1_b"],"blah","1:CUFF.212.1_b","Scaffold1",1096287,1106031]
[["1:CUFF.216.1"],"blah","1:CUFF.216.1","Scaffold1",1098374,1099330]
[["1:CUFF.217.1"],"blah","1:CUFF.217.1","Scaffold1",1099794,1100681]
[["1:CUFF.151.1"],"blah","1:CUFF.151.1","Scaffold1",1107957,1109782]
[["1:CUFF.156.1"],"blah","1:CUFF.156.1","Scaffold1",1114597,1118096]
[["1:CUFF.156.2"],"blah","1:CUFF.156.2","Scaffold1",1114597,1117681]
[["1:CUFF.239.1_a"],"blah","1:CUFF.239.1_a","Scaffold1",1120431,1122879]
[["1:CUFF.239.1_b"],"blah","1:CUFF.239.1_b","Scaffold1",1123274,1127223]
[["1:CUFF.239.2"],"blah","1:CUFF.239.2","Scaffold1",1124100,1130303]
[["1:CUFF.239.3"],"blah","1:CUFF.239.3","Scaffold1",1125608,1130303]
[["1:CUFF.170.1"],"blah","1:CUFF.170.1","Scaffold1",1130649,1133735]
[["1:CUFF.170.2"],"blah","1:CUFF.170.2","Scaffold1",1130909,1133735]
[["1:CUFF.170.3"],"blah","1:CUFF.170.3","Scaffold1",1131335,1133735]
[["1:CUFF.182.1_a"],"blah","1:CUFF.182.1_a","Scaffold1",1135795,1137706]
[["1:CUFF.182.1_b"],"blah","1:CUFF.182.1_b","Scaffold1",1138111,1139605]
[["1:CUFF.172.2"],"blah","1:CUFF.172.2","Scaffold1",1141264,1145744]
[["1:CUFF.172.1"],"blah","1:CUFF.172.1","Scaffold1",1141264,1143740]
[["1:CUFF.234.1_a"],"blah","1:CUFF.234.1_a","Scaffold1",1145857,1147364]
[["1:CUFF.234.1_b"],"blah","1:CUFF.234.1_b","Scaffold1",1147589,1154232]
[["1:CUFF.235.2"],"blah","1:CUFF.235.2","Scaffold1",1152321,1154232]
[["1:CUFF.235.1"],"blah","1:CUFF.235.1","Scaffold1",1152321,1154232]
[["1:CUFF.173.1"],"blah","1:CUFF.173.1","Scaffold1",1154795,1158972]
[["1:CUFF.220.1"],"blah","1:CUFF.220.1","Scaffold1",1159047,1162618]
[["1:CUFF.200.1_a"],"blah","1:CUFF.200.1_a","Scaffold1",1272454,1276397]
[["1:CUFF.200.2_a"],"blah","1:CUFF.200.2_a","Scaffold1",1272638,1276397]
[["1:CUFF.200.3_a"],"blah","1:CUFF.200.3_a","Scaffold1",1274598,1276338]
[["1:CUFF.200.2_b"],"blah","1:CUFF.200.2_b","Scaffold1",1276447,1276563]
[["1:CUFF.200.1_b"],"blah","1:CUFF.200.1_b","Scaffold1",1276447,1276563]
[["1:CUFF.200.3_b"],"blah","1:CUFF.200.3_b","Scaffold1",1276473,1278834]
[["1:CUFF.280.1"],"blah","1:CUFF.280.1","Scaffold1",1284890,1287000]
[["1:CUFF.218.1"],"blah","1:CUFF.218.1","Scaffold1",1287702,1294588]
[["1:CUFF.227.1"],"blah","1:CUFF.227.1","Scaffold1",1297820,1311582]
[["1:CUFF.227.2"],"blah","1:CUFF.227.2","Scaffold1",1297820,1308007]
[["1:CUFF.227.3"],"blah","1:CUFF.227.3","Scaffold1",1308590,1311582]
[["1:CUFF.214.1"],"blah","1:CUFF.214.1","Scaffold1",1311778,1312060]
[["1:CUFF.264.1"],"blah","1:CUFF.264.1","Scaffold1",1315888,1317554]
[["1:CUFF.270.1_a"],"blah","1:CUFF.270.1_a","Scaffold1",1317711,1319533]
[["1:CUFF.270.1_b"],"blah","1:CUFF.270.1_b","Scaffold1",1319626,1324155]
[["1:CUFF.270.2"],"blah","1:CUFF.270.2","Scaffold1",1326026,1330606]
[["1:CUFF.552.1"],"blah","1:CUFF.552.1","Scaffold1",1331373,1336032]
[["1:CUFF.554.1_a"],"blah","1:CUFF.554.1_a","Scaffold1",1334626,1340526]
[["1:CUFF.554.1_b"],"blah","1:CUFF.554.1_b","Scaffold1",1340912,1343886]
[["1:CUFF.554.2_a"],"blah","1:CUFF.554.2_a","Scaffold1",1341923,1343130]
[["1:CUFF.554.2_b"],"blah","1:CUFF.554.2_b","Scaffold1",1343217,1347535]
[["1:CUFF.554.1_c"],"blah","1:CUFF.554.1_c","Scaffold1",1344676,1347535]
[["1:CUFF.553.1"],"blah","1:CUFF.553.1","Scaffold1",1348076,1349820]
[["1:CUFF.1573.2"],"blah","1:CUFF.1573.2","Scaffold1",1390461,1408348]
[["1:CUFF.1573.1"],"blah","1:CUFF.1573.1","Scaffold1",1390461,1408348]
[["1:CUFF.1573.3"],"blah","1:CUFF.1573.3","Scaffold1",1403137,1408348]
[["1:CUFF.231.1"],"blah","1:CUFF.231.1","Scaffold1",1411690,1418575]
[["1:CUFF.232.1"],"blah","1:CUFF.232.1","Scaffold1",1413976,1418575]
[["1:CUFF.244.2"],"blah","1:CUFF.244.2","Scaffold1",1418721,1423087]
[["1:CUFF.244.1"],"blah","1:CUFF.244.1","Scaffold1",1418721,1423087]
[["1:CUFF.245.1"],"blah","1:CUFF.245.1","Scaffold1",1423623,1427777]
[["1:CUFF.245.2"],"blah","1:CUFF.245.2","Scaffold1",1425679,1427777]
[["1:CUFF.229.1"],"blah","1:CUFF.229.1","Scaffold1",1432375,1434529]
[["1:CUFF.228.1"],"blah","1:CUFF.228.1","Scaffold1",1435843,1437185]
[["1:CUFF.242.1"],"blah","1:CUFF.242.1","Scaffold1",1446717,1449144]
[["1:CUFF.242.2"],"blah","1:CUFF.242.2","Scaffold1",1447799,1448766]
[["1:CUFF.233.1"],"blah","1:CUFF.233.1","Scaffold1",1450564,1460673]
[["1:CUFF.238.1"],"blah","1:CUFF.238.1","Scaffold1",1482167,1483842]
[["1:CUFF.271.1_a"],"blah","1:CUFF.271.1_a","Scaffold1",1486064,1493347]
[["1:CUFF.271.1_b"],"blah","1:CUFF.271.1_b","Scaffold1",1494083,1499104]
[["1:CUFF.273.1"],"blah","1:CUFF.273.1","Scaffold1",1504561,1506021]
[["1:CUFF.271.2"],"blah","1:CUFF.271.2","Scaffold1",1507084,1510243]
[["1:CUFF.271.1_c"],"blah","1:CUFF.271.1_c","Scaffold1",1507329,1510243]
[["1:CUFF.274.1"],"blah","1:CUFF.274.1","Scaffold1",1510456,1511219]
[["1:CUFF.240.1"],"blah","1:CUFF.240.1","Scaffold1",1513421,1520576]
[["1:CUFF.240.4_a"],"blah","1:CUFF.240.4_a","Scaffold1",1513421,1519913]
[["1:CUFF.240.3_a"],"blah","1:CUFF.240.3_a","Scaffold1",1513421,1519913]
[["1:CUFF.240.2_a"],"blah","1:CUFF.240.2_a","Scaffold1",1513421,1519913]
[["1:CUFF.240.3_b"],"blah","1:CUFF.240.3_b","Scaffold1",1525764,1529963]
[["1:CUFF.240.2_b"],"blah","1:CUFF.240.2_b","Scaffold1",1525764,1526717]
[["1:CUFF.240.4_b"],"blah","1:CUFF.240.4_b","Scaffold1",1525764,1526717]
[["1:CUFF.250.1"],"blah","1:CUFF.250.1","Scaffold1",1535011,1544381]
[["1:CUFF.250.2"],"blah","1:CUFF.250.2","Scaffold1",1537406,1539806]
[["1:CUFF.247.1"],"blah","1:CUFF.247.1","Scaffold1",1541734,1544381]
[["1:CUFF.246.1"],"blah","1:CUFF.246.1","Scaffold1",1546627,1553177]
[["1:CUFF.246.2"],"blah","1:CUFF.246.2","Scaffold1",1546670,1547867]
[["1:CUFF.246.3"],"blah","1:CUFF.246.3","Scaffold1",1548019,1553177]
[["1:CUFF.248.1"],"blah","1:CUFF.248.1","Scaffold1",1549204,1557091]
[["1:CUFF.241.1"],"blah","1:CUFF.241.1","Scaffold1",1559483,1561926]
[["1:CUFF.282.1"],"blah","1:CUFF.282.1","Scaffold1",1564771,1575396]
[["1:CUFF.282.2"],"blah","1:CUFF.282.2","Scaffold1",1568774,1575396]
[["1:CUFF.283.1_a"],"blah","1:CUFF.283.1_a","Scaffold1",1577201,1581379]
[["1:CUFF.283.2_a"],"blah","1:CUFF.283.2_a","Scaffold1",1577781,1581379]
[["1:CUFF.283.2_b"],"blah","1:CUFF.283.2_b","Scaffold1",1589236,1591763]
[["1:CUFF.283.1_b"],"blah","1:CUFF.283.1_b","Scaffold1",1589236,1590786]
[["1:CUFF.1168.1"],"blah","1:CUFF.1168.1","Scaffold1",1613976,1617073]
[["1:CUFF.257.1"],"blah","1:CUFF.257.1","Scaffold1",1621466,1635198]
[["1:CUFF.261.1"],"blah","1:CUFF.261.1","Scaffold1",1640351,1641312]
[["1:CUFF.263.1"],"blah","1:CUFF.263.1","Scaffold1",1651153,1663213]
[["1:CUFF.269.2"],"blah","1:CUFF.269.2","Scaffold1",1663885,1673232]
[["1:CUFF.269.3_a"],"blah","1:CUFF.269.3_a","Scaffold1",1663885,1669119]
[["1:CUFF.269.1"],"blah","1:CUFF.269.1","Scaffold1",1663885,1668226]
[["1:CUFF.269.3_b"],"blah","1:CUFF.269.3_b","Scaffold1",1673795,1676667]
[["1:CUFF.252.1"],"blah","1:CUFF.252.1","Scaffold1",1676929,1682830]
[["1:CUFF.281.1"],"blah","1:CUFF.281.1","Scaffold1",1683041,1689986]
[["1:CUFF.281.2"],"blah","1:CUFF.281.2","Scaffold1",1685924,1691850]
[["1:CUFF.281.3"],"blah","1:CUFF.281.3","Scaffold1",1685924,1689986]
[["1:CUFF.253.2"],"blah","1:CUFF.253.2","Scaffold1",1692337,1695897]
[["1:CUFF.253.3"],"blah","1:CUFF.253.3","Scaffold1",1692337,1695897]
[["1:CUFF.253.1"],"blah","1:CUFF.253.1","Scaffold1",1692337,1694390]
[["1:CUFF.254.1"],"blah","1:CUFF.254.1","Scaffold1",1696481,1697155]
[["1:CUFF.332.1"],"blah","1:CUFF.332.1","Scaffold1",1697297,1712490]
[["1:CUFF.333.1"],"blah","1:CUFF.333.1","Scaffold1",1701114,1714288]
[["1:CUFF.338.1"],"blah","1:CUFF.338.1","Scaffold1",1717610,1729018]
[["1:CUFF.338.2"],"blah","1:CUFF.338.2","Scaffold1",1717797,1729018]
[["1:CUFF.338.3"],"blah","1:CUFF.338.3","Scaffold1",1718564,1729018]
[["1:CUFF.339.1"],"blah","1:CUFF.339.1","Scaffold1",1727175,1732694]
[["1:CUFF.258.1"],"blah","1:CUFF.258.1","Scaffold1",1735552,1737027]
[["1:CUFF.4680.1"],"blah","1:CUFF.4680.1","Scaffold1",1738126,1740841]
[["1:CUFF.4689.1"],"blah","1:CUFF.4689.1","Scaffold1",1741840,1747965]
[["1:CUFF.4689.2"],"blah","1:CUFF.4689.2","Scaffold1",1743692,1747965]
[["1:CUFF.4712.1"],"blah","1:CUFF.4712.1","Scaffold1",1770018,1785345]
[["1:CUFF.321.1"],"blah","1:CUFF.321.1","Scaffold1",1790228,1792932]
[["1:CUFF.321.2"],"blah","1:CUFF.321.2","Scaffold1",1791303,1792932]
[["1:CUFF.326.1"],"blah","1:CUFF.326.1","Scaffold1",1795296,1798986]
[["1:CUFF.326.2"],"blah","1:CUFF.326.2","Scaffold1",1796251,1798986]
[["1:CUFF.312.1"],"blah","1:CUFF.312.1","Scaffold1",1801616,1805896]
[["1:CUFF.286.1"],"blah","1:CUFF.286.1","Scaffold1",1835509,1837817]
[["1:CUFF.307.1"],"blah","1:CUFF.307.1","Scaffold1",1867846,1876402]
[["1:CUFF.325.1"],"blah","1:CUFF.325.1","Scaffold1",1921910,1922446]
[["1:CUFF.340.1"],"blah","1:CUFF.340.1","Scaffold1",1926784,1935309]
[["1:CUFF.341.1"],"blah","1:CUFF.341.1","Scaffold1",1926940,1930704]
[["1:CUFF.327.1"],"blah","1:CUFF.327.1","Scaffold1",1940087,1941254]
[["1:CUFF.345.1_a"],"blah","1:CUFF.345.1_a","Scaffold1",1941315,1954188]
[["1:CUFF.345.2_a"],"blah","1:CUFF.345.2_a","Scaffold1",1951469,1953610]
[["1:CUFF.345.2_b"],"blah","1:CUFF.345.2_b","Scaffold1",1953665,1955548]
[["1:CUFF.345.1_b"],"blah","1:CUFF.345.1_b","Scaffold1",1954805,1960659]
[["1:CUFF.328.1"],"blah","1:CUFF.328.1","Scaffold1",1964004,1970646]
[["1:CUFF.328.2"],"blah","1:CUFF.328.2","Scaffold1",1965371,1970646]
[["1:CUFF.328.3"],"blah","1:CUFF.328.3","Scaffold1",1966553,1970646]
[["1:CUFF.348.1_a"],"blah","1:CUFF.348.1_a","Scaffold1",1970793,1974151]
[["1:CUFF.349.1"],"blah","1:CUFF.349.1","Scaffold1",1971000,1978168]
[["1:CUFF.348.1_b"],"blah","1:CUFF.348.1_b","Scaffold1",1975624,1978168]
[["1:CUFF.1090.2"],"blah","1:CUFF.1090.2","Scaffold1",1982216,2001419]
[["1:CUFF.1090.1"],"blah","1:CUFF.1090.1","Scaffold1",1982216,2001419]
[["1:CUFF.331.1"],"blah","1:CUFF.331.1","Scaffold1",2009742,2020213]
[["1:CUFF.331.2"],"blah","1:CUFF.331.2","Scaffold1",2011613,2014364]
[["1:CUFF.335.1"],"blah","1:CUFF.335.1","Scaffold1",2024373,2026646]
[["1:CUFF.335.3"],"blah","1:CUFF.335.3","Scaffold1",2024373,2025966]
[["1:CUFF.335.2"],"blah","1:CUFF.335.2","Scaffold1",2024373,2024794]
[["1:CUFF.336.1"],"blah","1:CUFF.336.1","Scaffold1",2026994,2028892]
[["1:CUFF.369.1"],"blah","1:CUFF.369.1","Scaffold1",2029086,2036130]
[["1:CUFF.369.2"],"blah","1:CUFF.369.2","Scaffold1",2029086,2036130]
[["1:CUFF.361.1"],"blah","1:CUFF.361.1","Scaffold1",2040346,2051316]
[["1:CUFF.361.3"],"blah","1:CUFF.361.3","Scaffold1",2042204,2051316]
[["1:CUFF.361.2"],"blah","1:CUFF.361.2","Scaffold1",2042204,2051316]
[["1:CUFF.357.1_a"],"blah","1:CUFF.357.1_a","Scaffold1",2060936,2061823]
[["1:CUFF.360.1"],"blah","1:CUFF.360.1","Scaffold1",2067033,2074724]
[["1:CUFF.360.2"],"blah","1:CUFF.360.2","Scaffold1",2067033,2074724]
[["1:CUFF.360.3"],"blah","1:CUFF.360.3","Scaffold1",2069486,2074724]
[["1:CUFF.357.1_b"],"blah","1:CUFF.357.1_b","Scaffold1",2076438,2080005]
[["1:CUFF.358.1"],"blah","1:CUFF.358.1","Scaffold1",2082655,2087584]
[["1:CUFF.351.3"],"blah","1:CUFF.351.3","Scaffold1",2089425,2102231]
[["1:CUFF.351.2"],"blah","1:CUFF.351.2","Scaffold1",2089425,2102231]
[["1:CUFF.351.1"],"blah","1:CUFF.351.1","Scaffold1",2089425,2102231]
[["1:CUFF.342.2"],"blah","1:CUFF.342.2","Scaffold1",2106513,2117311]
[["1:CUFF.342.1"],"blah","1:CUFF.342.1","Scaffold1",2106513,2117311]
[["1:CUFF.344.1"],"blah","1:CUFF.344.1","Scaffold1",2117713,2120319]
[["1:CUFF.389.1"],"blah","1:CUFF.389.1","Scaffold1",2120491,2134400]
[["1:CUFF.389.3"],"blah","1:CUFF.389.3","Scaffold1",2120491,2134400]
[["1:CUFF.389.2"],"blah","1:CUFF.389.2","Scaffold1",2120491,2134400]
[["1:CUFF.347.1"],"blah","1:CUFF.347.1","Scaffold1",2136540,2143004]
[["1:CUFF.350.1"],"blah","1:CUFF.350.1","Scaffold1",2144398,2146562]
[["1:CUFF.468.1_a"],"blah","1:CUFF.468.1_a","Scaffold1",2147468,2148241]
[["1:CUFF.469.1"],"blah","1:CUFF.469.1","Scaffold1",2147813,2158503]
[["1:CUFF.469.2"],"blah","1:CUFF.469.2","Scaffold1",2147813,2158503]
[["1:CUFF.468.1_b"],"blah","1:CUFF.468.1_b","Scaffold1",2161696,2164291]
[["1:CUFF.353.1"],"blah","1:CUFF.353.1","Scaffold1",2164417,2178343]
[["1:CUFF.352.1"],"blah","1:CUFF.352.1","Scaffold1",2179133,2187284]
[["1:CUFF.356.1"],"blah","1:CUFF.356.1","Scaffold1",2188751,2192373]
[["1:CUFF.355.1"],"blah","1:CUFF.355.1","Scaffold1",2192976,2195799]
[["1:CUFF.383.1"],"blah","1:CUFF.383.1","Scaffold1",2196732,2199804]
[["1:CUFF.387.1"],"blah","1:CUFF.387.1","Scaffold1",2197356,2198173]
[["1:CUFF.384.1"],"blah","1:CUFF.384.1","Scaffold1",2203197,2210829]
[["1:CUFF.384.2"],"blah","1:CUFF.384.2","Scaffold1",2203197,2209988]
[["1:CUFF.855.1"],"blah","1:CUFF.855.1","Scaffold1",2242245,2258169]
[["1:CUFF.882.1"],"blah","1:CUFF.882.1","Scaffold1",2260291,2267338]
[["1:CUFF.884.1"],"blah","1:CUFF.884.1","Scaffold1",2260427,2262746]
[["1:CUFF.359.2"],"blah","1:CUFF.359.2","Scaffold1",2269059,2273668]
[["1:CUFF.359.1"],"blah","1:CUFF.359.1","Scaffold1",2269059,2273668]
[["1:CUFF.362.1"],"blah","1:CUFF.362.1","Scaffold1",2277007,2278323]
[["1:CUFF.365.2"],"blah","1:CUFF.365.2","Scaffold1",2278409,2286088]
[["1:CUFF.365.3"],"blah","1:CUFF.365.3","Scaffold1",2278409,2286088]
[["1:CUFF.365.1"],"blah","1:CUFF.365.1","Scaffold1",2278409,2282210]
[["1:CUFF.401.1"],"blah","1:CUFF.401.1","Scaffold1",2287667,2294875]
[["1:CUFF.402.2"],"blah","1:CUFF.402.2","Scaffold1",2296684,2307064]
[["1:CUFF.402.1"],"blah","1:CUFF.402.1","Scaffold1",2296684,2297927]
[["1:CUFF.363.1"],"blah","1:CUFF.363.1","Scaffold1",2308695,2309505]
[["1:CUFF.364.1"],"blah","1:CUFF.364.1","Scaffold1",2310387,2311849]
[["1:CUFF.366.1"],"blah","1:CUFF.366.1","Scaffold1",2312099,2318310]
[["1:CUFF.366.2"],"blah","1:CUFF.366.2","Scaffold1",2314506,2315548]
[["1:CUFF.392.1"],"blah","1:CUFF.392.1","Scaffold1",2322180,2332455]
[["1:CUFF.392.2"],"blah","1:CUFF.392.2","Scaffold1",2322180,2332455]
[["1:CUFF.392.3"],"blah","1:CUFF.392.3","Scaffold1",2328873,2330225]
[["1:CUFF.392.4"],"blah","1:CUFF.392.4","Scaffold1",2331203,2333533]
[["1:CUFF.368.1"],"blah","1:CUFF.368.1","Scaffold1",2337201,2339031]
[["1:CUFF.372.1"],"blah","1:CUFF.372.1","Scaffold1",2347639,2362256]
[["1:CUFF.377.1"],"blah","1:CUFF.377.1","Scaffold1",2385666,2401783]
[["1:CUFF.370.1"],"blah","1:CUFF.370.1","Scaffold1",2405962,2406552]
[["1:CUFF.471.2"],"blah","1:CUFF.471.2","Scaffold1",2410359,2420523]
[["1:CUFF.471.1"],"blah","1:CUFF.471.1","Scaffold1",2410359,2417204]
[["1:CUFF.474.1"],"blah","1:CUFF.474.1","Scaffold1",2420896,2437897]
[["1:CUFF.386.1"],"blah","1:CUFF.386.1","Scaffold1",2439263,2440838]
[["1:CUFF.407.1"],"blah","1:CUFF.407.1","Scaffold1",2443214,2445806]
[["1:CUFF.397.1_a"],"blah","1:CUFF.397.1_a","Scaffold1",2446480,2447991]
[["1:CUFF.397.1_b"],"blah","1:CUFF.397.1_b","Scaffold1",2450844,2456210]
[["1:CUFF.397.2"],"blah","1:CUFF.397.2","Scaffold1",2451425,2456210]
[["1:CUFF.414.1"],"blah","1:CUFF.414.1","Scaffold1",2459627,2467770]
[["1:CUFF.410.1"],"blah","1:CUFF.410.1","Scaffold1",2473084,2477908]
[["1:CUFF.409.2"],"blah","1:CUFF.409.2","Scaffold1",2478131,2484074]
[["1:CUFF.409.1"],"blah","1:CUFF.409.1","Scaffold1",2478131,2484074]
[["1:CUFF.647.1_a"],"blah","1:CUFF.647.1_a","Scaffold1",2485114,2490964]
[["1:CUFF.647.1_b"],"blah","1:CUFF.647.1_b","Scaffold1",2491027,2497246]
[["1:CUFF.651.1"],"blah","1:CUFF.651.1","Scaffold1",2496375,2502496]
[["1:CUFF.651.2"],"blah","1:CUFF.651.2","Scaffold1",2500378,2501496]
[["1:CUFF.457.1"],"blah","1:CUFF.457.1","Scaffold1",2505419,2509918]
[["1:CUFF.458.1"],"blah","1:CUFF.458.1","Scaffold1",2505711,2507564]
[["1:CUFF.459.1"],"blah","1:CUFF.459.1","Scaffold1",2508335,2516910]
[["1:CUFF.408.1"],"blah","1:CUFF.408.1","Scaffold1",2519800,2523023]
[["1:CUFF.444.2_a"],"blah","1:CUFF.444.2_a","Scaffold1",2523258,2530397]
[["1:CUFF.444.1_a"],"blah","1:CUFF.444.1_a","Scaffold1",2523258,2530397]
[["1:CUFF.444.3_a"],"blah","1:CUFF.444.3_a","Scaffold1",2523422,2530397]
[["1:CUFF.444.1_b"],"blah","1:CUFF.444.1_b","Scaffold1",2530598,2531501]
[["1:CUFF.444.2_b"],"blah","1:CUFF.444.2_b","Scaffold1",2530598,2531501]
[["1:CUFF.444.3_b"],"blah","1:CUFF.444.3_b","Scaffold1",2530598,2531118]
[["1:CUFF.444.3_c"],"blah","1:CUFF.444.3_c","Scaffold1",2533747,2546144]
[["1:CUFF.454.1"],"blah","1:CUFF.454.1","Scaffold1",2646508,2663897]
[["1:CUFF.454.2"],"blah","1:CUFF.454.2","Scaffold1",2652202,2663897]
[["1:CUFF.448.1"],"blah","1:CUFF.448.1","Scaffold1",2678290,2681968]
[["1:CUFF.446.1"],"blah","1:CUFF.446.1","Scaffold1",2687294,2688419]
[["1:CUFF.466.1"],"blah","1:CUFF.466.1","Scaffold1",2693935,2696496]
[["1:CUFF.465.1"],"blah","1:CUFF.465.1","Scaffold1",2694009,2694731]
[["1:CUFF.449.1"],"blah","1:CUFF.449.1","Scaffold1",2710898,2711877]
[["1:CUFF.450.1"],"blah","1:CUFF.450.1","Scaffold1",2712008,2712640]
[["1:CUFF.451.1"],"blah","1:CUFF.451.1","Scaffold1",2712740,2713566]
[["1:CUFF.452.1"],"blah","1:CUFF.452.1","Scaffold1",2714411,2714997]
[["1:CUFF.453.1"],"blah","1:CUFF.453.1","Scaffold1",2718393,2718984]
[["1:CUFF.463.1"],"blah","1:CUFF.463.1","Scaffold1",2741726,2749408]
[["1:CUFF.464.1"],"blah","1:CUFF.464.1","Scaffold1",2749915,2753453]
[["1:CUFF.481.1"],"blah","1:CUFF.481.1","Scaffold1",2755727,2760450]
[["1:CUFF.482.1"],"blah","1:CUFF.482.1","Scaffold1",2761310,2766131]
[["1:CUFF.482.2"],"blah","1:CUFF.482.2","Scaffold1",2761310,2762542]
[["1:CUFF.484.1"],"blah","1:CUFF.484.1","Scaffold1",2765644,2769400]
[["1:CUFF.467.1"],"blah","1:CUFF.467.1","Scaffold1",2775244,2776196]
[["1:CUFF.470.1"],"blah","1:CUFF.470.1","Scaffold1",2777718,2789290]
[["1:CUFF.989.1"],"blah","1:CUFF.989.1","Scaffold1",2790065,2806272]
[["1:CUFF.989.3"],"blah","1:CUFF.989.3","Scaffold1",2790065,2806272]
[["1:CUFF.989.2"],"blah","1:CUFF.989.2","Scaffold1",2790065,2793920]
[["1:CUFF.473.1"],"blah","1:CUFF.473.1","Scaffold1",2809165,2814499]
[["1:CUFF.505.1"],"blah","1:CUFF.505.1","Scaffold1",2817067,2818197]
[["1:CUFF.506.1"],"blah","1:CUFF.506.1","Scaffold1",2819313,2820778]
[["1:CUFF.496.1"],"blah","1:CUFF.496.1","Scaffold1",2829356,2836415]
[["1:CUFF.496.2"],"blah","1:CUFF.496.2","Scaffold1",2835668,2836415]
[["1:CUFF.546.1"],"blah","1:CUFF.546.1","Scaffold1",2840083,2843154]
[["1:CUFF.548.1_a"],"blah","1:CUFF.548.1_a","Scaffold1",2840399,2840853]
[["1:CUFF.548.1_b"],"blah","1:CUFF.548.1_b","Scaffold1",2851529,2852408]
[["1:CUFF.483.1"],"blah","1:CUFF.483.1","Scaffold1",2853445,2854220]
[["1:CUFF.590.2"],"blah","1:CUFF.590.2","Scaffold1",2856075,2922926]
[["1:CUFF.590.1"],"blah","1:CUFF.590.1","Scaffold1",2856075,2922926]
[["1:CUFF.590.3"],"blah","1:CUFF.590.3","Scaffold1",2856075,2892357]
[["1:CUFF.590.4"],"blah","1:CUFF.590.4","Scaffold1",2856075,2892357]
[["1:CUFF.592.1"],"blah","1:CUFF.592.1","Scaffold1",2856075,2861431]
[["1:CUFF.487.1"],"blah","1:CUFF.487.1","Scaffold1",2923920,2926264]
[["1:CUFF.539.2"],"blah","1:CUFF.539.2","Scaffold1",2945140,2949437]
[["1:CUFF.539.1"],"blah","1:CUFF.539.1","Scaffold1",2945140,2949437]
[["1:CUFF.540.2"],"blah","1:CUFF.540.2","Scaffold1",2948767,2949473]
[["1:CUFF.540.1"],"blah","1:CUFF.540.1","Scaffold1",2948767,2949450]
[["1:CUFF.494.1"],"blah","1:CUFF.494.1","Scaffold1",2953116,2955760]
[["1:CUFF.495.1"],"blah","1:CUFF.495.1","Scaffold1",2954896,2955226]
[["1:CUFF.498.1"],"blah","1:CUFF.498.1","Scaffold1",2957048,2961337]
[["1:CUFF.510.4_a"],"blah","1:CUFF.510.4_a","Scaffold1",2962596,2978708]
[["1:CUFF.510.2_a"],"blah","1:CUFF.510.2_a","Scaffold1",2962596,2978708]
[["1:CUFF.510.3_a"],"blah","1:CUFF.510.3_a","Scaffold1",2962596,2978708]
[["1:CUFF.510.1_a"],"blah","1:CUFF.510.1_a","Scaffold1",2962596,2978708]
[["1:CUFF.510.5"],"blah","1:CUFF.510.5","Scaffold1",2968616,2978708]
[["1:CUFF.500.1"],"blah","1:CUFF.500.1","Scaffold1",2979363,2982394]
[["1:CUFF.500.2"],"blah","1:CUFF.500.2","Scaffold1",2979363,2982394]
[["1:CUFF.504.1"],"blah","1:CUFF.504.1","Scaffold1",2992339,2999835]
[["1:CUFF.522.3"],"blah","1:CUFF.522.3","Scaffold1",3002997,3015238]
[["1:CUFF.522.2"],"blah","1:CUFF.522.2","Scaffold1",3002997,3015238]
[["1:CUFF.522.1"],"blah","1:CUFF.522.1","Scaffold1",3002997,3009430]
[["1:CUFF.514.1"],"blah","1:CUFF.514.1","Scaffold1",3020267,3025154]
[["1:CUFF.514.2"],"blah","1:CUFF.514.2","Scaffold1",3020267,3022915]
[["1:CUFF.514.3"],"blah","1:CUFF.514.3","Scaffold1",3021076,3025154]
[["1:CUFF.514.4"],"blah","1:CUFF.514.4","Scaffold1",3021868,3022915]
[["1:CUFF.526.1"],"blah","1:CUFF.526.1","Scaffold1",3104979,3122529]
[["1:CUFF.524.1"],"blah","1:CUFF.524.1","Scaffold1",3136579,3137869]
[["1:CUFF.525.1"],"blah","1:CUFF.525.1","Scaffold1",3137988,3138878]
[["1:CUFF.530.3"],"blah","1:CUFF.530.3","Scaffold1",3140247,3167319]
[["1:CUFF.530.2"],"blah","1:CUFF.530.2","Scaffold1",3140247,3166967]
[["1:CUFF.530.1"],"blah","1:CUFF.530.1","Scaffold1",3140247,3166967]
[["1:CUFF.566.1"],"blah","1:CUFF.566.1","Scaffold1",3199140,3200467]
[["1:CUFF.533.1"],"blah","1:CUFF.533.1","Scaffold1",3223122,3240392]
[["1:CUFF.532.1"],"blah","1:CUFF.532.1","Scaffold1",3299156,3299913]
[["1:CUFF.536.1"],"blah","1:CUFF.536.1","Scaffold1",3302784,3314279]
[["1:CUFF.558.2"],"blah","1:CUFF.558.2","Scaffold1",3334342,3341538]
[["1:CUFF.558.1"],"blah","1:CUFF.558.1","Scaffold1",3334342,3340916]
[["1:CUFF.1022.1_a"],"blah","1:CUFF.1022.1_a","Scaffold1",3344020,3346733]
[["1:CUFF.1022.1_b"],"blah","1:CUFF.1022.1_b","Scaffold1",3347972,3351098]
[["1:CUFF.1014.1"],"blah","1:CUFF.1014.1","Scaffold1",3350825,3353380]
[["1:CUFF.1022.1_c"],"blah","1:CUFF.1022.1_c","Scaffold1",3351803,3354831]
[["1:CUFF.1022.2"],"blah","1:CUFF.1022.2","Scaffold1",3353759,3354831]
[["1:CUFF.550.3"],"blah","1:CUFF.550.3","Scaffold1",3361881,3363673]
[["1:CUFF.550.2"],"blah","1:CUFF.550.2","Scaffold1",3361881,3363673]
[["1:CUFF.550.1"],"blah","1:CUFF.550.1","Scaffold1",3361881,3363673]
[["1:CUFF.547.1"],"blah","1:CUFF.547.1","Scaffold1",3363819,3368518]
