[["ENSP00000319814:Homo_sapiens","Scaffold5318:hit:5322:3.10.0.0"],"blastx_Craniata","ENSP00000319814:Homo_sapiens","Scaffold5318",1897,3794]
[["ENSMUSG00000040618:Mus_musculus","Scaffold5318:hit:5251:3.10.0.0"],"blastx_Craniata","ENSMUSG00000040618:Mus_musculus","Scaffold5318",1921,3794]
[["ENSP00000453444:Homo_sapiens","Scaffold5318:hit:5388:3.10.0.0"],"blastx_Craniata","ENSP00000453444:Homo_sapiens","Scaffold5318",1921,3347]
[["ENSP00000453656:Homo_sapiens","Scaffold5318:hit:5395:3.10.0.0"],"blastx_Craniata","ENSP00000453656:Homo_sapiens","Scaffold5318",2285,3794]
[["ENSP00000444342:Homo_sapiens","Scaffold5318:hit:5254:3.10.0.0"],"blastx_Craniata","ENSP00000444342:Homo_sapiens","Scaffold5318",2342,3161]
[["ENSP00000453791:Homo_sapiens","Scaffold5318:hit:5350:3.10.0.0"],"blastx_Craniata","ENSP00000453791:Homo_sapiens","Scaffold5318",3080,3341]
