[["PAC:15722562:Amphimedon_queenslandica","Scaffold19:hit:8959:3.10.0.0"],"blastx_Parazoa","PAC:15722562:Amphimedon_queenslandica","Scaffold19",14850,15117]
[["PAC:15715220:Amphimedon_queenslandica","Scaffold19:hit:9161:3.10.0.0"],"blastx_Parazoa","PAC:15715220:Amphimedon_queenslandica","Scaffold19",61256,61981]
[["PAC:15727379:Amphimedon_queenslandica","Scaffold19:hit:9185:3.10.0.0"],"blastx_Parazoa","PAC:15727379:Amphimedon_queenslandica","Scaffold19",61343,61981]
[["PAC:15720690:Amphimedon_queenslandica","Scaffold19:hit:9186:3.10.0.0"],"blastx_Parazoa","PAC:15720690:Amphimedon_queenslandica","Scaffold19",61560,61975]
[["PAC:15720691:Amphimedon_queenslandica","Scaffold19:hit:9310:3.10.0.0"],"blastx_Parazoa","PAC:15720691:Amphimedon_queenslandica","Scaffold19",61560,61975]
[["PAC:15721822:Amphimedon_queenslandica","Scaffold19:hit:9077:3.10.0.0"],"blastx_Parazoa","PAC:15721822:Amphimedon_queenslandica","Scaffold19",61563,61966]
[["PAC:15709263:Amphimedon_queenslandica","Scaffold19:hit:9072:3.10.0.0"],"blastx_Parazoa","PAC:15709263:Amphimedon_queenslandica","Scaffold19",61671,61966]
[["PAC:15727378:Amphimedon_queenslandica","Scaffold19:hit:9074:3.10.0.0"],"blastx_Parazoa","PAC:15727378:Amphimedon_queenslandica","Scaffold19",61804,61981]
[["PAC:15716403:Amphimedon_queenslandica","Scaffold19:hit:9208:3.10.0.0"],"blastx_Parazoa","PAC:15716403:Amphimedon_queenslandica","Scaffold19",61804,61966]
[["PAC:15716600:Amphimedon_queenslandica","Scaffold19:hit:10039:3.10.0.1"],"blastx_Parazoa","PAC:15716600:Amphimedon_queenslandica","Scaffold19",99637,101350]
[["PAC:15716603:Amphimedon_queenslandica","Scaffold19:hit:9990:3.10.0.1"],"blastx_Parazoa","PAC:15716603:Amphimedon_queenslandica","Scaffold19",99637,99838]
[["PAC:15706728:Amphimedon_queenslandica","Scaffold19:hit:9992:3.10.0.1"],"blastx_Parazoa","PAC:15706728:Amphimedon_queenslandica","Scaffold19",99691,99838]
[["PAC:15706725:Amphimedon_queenslandica","Scaffold19:hit:9986:3.10.0.1"],"blastx_Parazoa","PAC:15706725:Amphimedon_queenslandica","Scaffold19",100001,101332]
[["PAC:15703928:Amphimedon_queenslandica","Scaffold19:hit:10161:3.10.0.1"],"blastx_Parazoa","PAC:15703928:Amphimedon_queenslandica","Scaffold19",113558,119542]
[["PAC:15714892:Amphimedon_queenslandica","Scaffold19:hit:10662:3.10.0.1"],"blastx_Parazoa","PAC:15714892:Amphimedon_queenslandica","Scaffold19",172150,174130]
[["PAC:15717987:Amphimedon_queenslandica","Scaffold19:hit:11526:3.10.0.2"],"blastx_Parazoa","PAC:15717987:Amphimedon_queenslandica","Scaffold19",221534,222571]
[["PAC:15703100:Amphimedon_queenslandica","Scaffold19:hit:11591:3.10.0.2"],"blastx_Parazoa","PAC:15703100:Amphimedon_queenslandica","Scaffold19",221540,222559]
[["PAC:15720917:Amphimedon_queenslandica","Scaffold19:hit:11649:3.10.0.2"],"blastx_Parazoa","PAC:15720917:Amphimedon_queenslandica","Scaffold19",223928,224483]
[["PAC:15727936:Amphimedon_queenslandica","Scaffold19:hit:11731:3.10.0.2"],"blastx_Parazoa","PAC:15727936:Amphimedon_queenslandica","Scaffold19",240286,240922]
[["PAC:15718051:Amphimedon_queenslandica","Scaffold19:hit:11819:3.10.0.2"],"blastx_Parazoa","PAC:15718051:Amphimedon_queenslandica","Scaffold19",258141,259281]
[["PAC:15727862:Amphimedon_queenslandica","Scaffold19:hit:11787:3.10.0.2"],"blastx_Parazoa","PAC:15727862:Amphimedon_queenslandica","Scaffold19",258144,259197]
[["PAC:15725767:Amphimedon_queenslandica","Scaffold19:hit:12010:3.10.0.2"],"blastx_Parazoa","PAC:15725767:Amphimedon_queenslandica","Scaffold19",276245,280847]
[["PAC:15722117:Amphimedon_queenslandica","Scaffold19:hit:11869:3.10.0.2"],"blastx_Parazoa","PAC:15722117:Amphimedon_queenslandica","Scaffold19",279764,280826]
[["PAC:15717132:Amphimedon_queenslandica","Scaffold19:hit:11993:3.10.0.2"],"blastx_Parazoa","PAC:15717132:Amphimedon_queenslandica","Scaffold19",279764,280814]
[["PAC:15706016:Amphimedon_queenslandica","Scaffold19:hit:11979:3.10.0.2"],"blastx_Parazoa","PAC:15706016:Amphimedon_queenslandica","Scaffold19",279764,280544]
[["PAC:15701062:Amphimedon_queenslandica","Scaffold19:hit:11845:3.10.0.2"],"blastx_Parazoa","PAC:15701062:Amphimedon_queenslandica","Scaffold19",279764,280382]
[["PAC:15707352:Amphimedon_queenslandica","Scaffold19:hit:11865:3.10.0.2"],"blastx_Parazoa","PAC:15707352:Amphimedon_queenslandica","Scaffold19",279812,280547]
[["PAC:15713299:Amphimedon_queenslandica","Scaffold19:hit:11906:3.10.0.2"],"blastx_Parazoa","PAC:15713299:Amphimedon_queenslandica","Scaffold19",280283,280631]
[["PAC:15726067:Amphimedon_queenslandica","Scaffold19:hit:12106:3.10.0.2"],"blastx_Parazoa","PAC:15726067:Amphimedon_queenslandica","Scaffold19",287647,291937]
[["PAC:15709706:Amphimedon_queenslandica","Scaffold19:hit:12092:3.10.0.2"],"blastx_Parazoa","PAC:15709706:Amphimedon_queenslandica","Scaffold19",288004,291934]
[["PAC:15720908:Amphimedon_queenslandica","Scaffold19:hit:12601:3.10.0.3"],"blastx_Parazoa","PAC:15720908:Amphimedon_queenslandica","Scaffold19",297877,298147]
[["PAC:15725195:Amphimedon_queenslandica","Scaffold19:hit:12645:3.10.0.3"],"blastx_Parazoa","PAC:15725195:Amphimedon_queenslandica","Scaffold19",299016,300702]
[["PAC:15706814:Amphimedon_queenslandica","Scaffold19:hit:12670:3.10.0.3"],"blastx_Parazoa","PAC:15706814:Amphimedon_queenslandica","Scaffold19",306111,308810]
[["PAC:15720310:Amphimedon_queenslandica","Scaffold19:hit:12811:3.10.0.3"],"blastx_Parazoa","PAC:15720310:Amphimedon_queenslandica","Scaffold19",339912,340116]
[["PAC:15715324:Amphimedon_queenslandica","Scaffold19:hit:12903:3.10.0.3"],"blastx_Parazoa","PAC:15715324:Amphimedon_queenslandica","Scaffold19",363528,365239]
[["PAC:15722437:Amphimedon_queenslandica","Scaffold19:hit:13321:3.10.0.4"],"blastx_Parazoa","PAC:15722437:Amphimedon_queenslandica","Scaffold19",465778,466657]
[["PAC:15721538:Amphimedon_queenslandica","Scaffold19:hit:13417:3.10.0.4"],"blastx_Parazoa","PAC:15721538:Amphimedon_queenslandica","Scaffold19",468193,468883]
[["PAC:15722889:Amphimedon_queenslandica","Scaffold19:hit:14130:3.10.0.5"],"blastx_Parazoa","PAC:15722889:Amphimedon_queenslandica","Scaffold19",516516,516825]
[["PAC:15722279:Amphimedon_queenslandica","Scaffold19:hit:14176:3.10.0.5"],"blastx_Parazoa","PAC:15722279:Amphimedon_queenslandica","Scaffold19",524418,531856]
[["PAC:15722851:Amphimedon_queenslandica","Scaffold19:hit:14242:3.10.0.5"],"blastx_Parazoa","PAC:15722851:Amphimedon_queenslandica","Scaffold19",558299,560789]
[["PAC:15726369:Amphimedon_queenslandica","Scaffold19:hit:14261:3.10.0.5"],"blastx_Parazoa","PAC:15726369:Amphimedon_queenslandica","Scaffold19",558752,560789]
[["PAC:15724695:Amphimedon_queenslandica","Scaffold19:hit:14330:3.10.0.5"],"blastx_Parazoa","PAC:15724695:Amphimedon_queenslandica","Scaffold19",566608,567064]
[["PAC:15715255:Amphimedon_queenslandica","Scaffold19:hit:14365:3.10.0.5"],"blastx_Parazoa","PAC:15715255:Amphimedon_queenslandica","Scaffold19",584172,584861]
[["PAC:15726890:Amphimedon_queenslandica","Scaffold19:hit:14465:3.10.0.5"],"blastx_Parazoa","PAC:15726890:Amphimedon_queenslandica","Scaffold19",611948,612946]
[["PAC:15727231:Amphimedon_queenslandica","Scaffold19:hit:14512:3.10.0.5"],"blastx_Parazoa","PAC:15727231:Amphimedon_queenslandica","Scaffold19",659032,659930]
