[["tr|Q2N174|Q2N174_PRICU:Priapulus_caudatus","Scaffold1:hit:4559:3.10.0.1"],"blastx_Priapulida","tr|Q2N174|Q2N174_PRICU:Priapulus_caudatus","Scaffold1",113920,115056]
[["tr|Q2N179|Q2N179_PRICU:Priapulus_caudatus","Scaffold1:hit:4684:3.10.0.1"],"blastx_Priapulida","tr|Q2N179|Q2N179_PRICU:Priapulus_caudatus","Scaffold1",161059,162190]
[["tr|A8DS07|A8DS07_PRICU:Priapulus_caudatus","Scaffold1:hit:24553:3.10.0.27"],"blastx_Priapulida","tr|A8DS07|A8DS07_PRICU:Priapulus_caudatus","Scaffold1",2767662,2768412]
